%!PS-Adobe-2.0 EPSF-2.0
%%Title: /home-03/drhachmann/Documentos/2012/PRM/Final/broker-calculator/tech-report/02/data/diagrama1.dia
%%Creator: Dia v0.97.2
%%CreationDate: Mon Nov 19 06:22:41 2012
%%For: drhachmann
%%Orientation: Portrait
%%Magnification: 1.0000
%%BoundingBox: 0 0 1419 300
%%BeginSetup
%%EndSetup
%%EndComments
%%BeginProlog
[ /.notdef /.notdef /.notdef /.notdef /.notdef /.notdef /.notdef /.notdef /.notdef /.notdef
/.notdef /.notdef /.notdef /.notdef /.notdef /.notdef /.notdef /.notdef /.notdef /.notdef
/.notdef /.notdef /.notdef /.notdef /.notdef /.notdef /.notdef /.notdef /.notdef /.notdef
/.notdef /.notdef /space /exclam /quotedbl /numbersign /dollar /percent /ampersand /quoteright
/parenleft /parenright /asterisk /plus /comma /hyphen /period /slash /zero /one
/two /three /four /five /six /seven /eight /nine /colon /semicolon
/less /equal /greater /question /at /A /B /C /D /E
/F /G /H /I /J /K /L /M /N /O
/P /Q /R /S /T /U /V /W /X /Y
/Z /bracketleft /backslash /bracketright /asciicircum /underscore /quoteleft /a /b /c
/d /e /f /g /h /i /j /k /l /m
/n /o /p /q /r /s /t /u /v /w
/x /y /z /braceleft /bar /braceright /asciitilde /.notdef /.notdef /.notdef
/.notdef /.notdef /.notdef /.notdef /.notdef /.notdef /.notdef /.notdef /.notdef /.notdef
/.notdef /.notdef /.notdef /.notdef /.notdef /.notdef /.notdef /.notdef /.notdef /.notdef
/.notdef /.notdef /.notdef /.notdef /.notdef /.notdef /.notdef /.notdef /.notdef /.notdef
/space /exclamdown /cent /sterling /currency /yen /brokenbar /section /dieresis /copyright
/ordfeminine /guillemotleft /logicalnot /hyphen /registered /macron /degree /plusminus /twosuperior /threesuperior
/acute /mu /paragraph /periodcentered /cedilla /onesuperior /ordmasculine /guillemotright /onequarter /onehalf
/threequarters /questiondown /Agrave /Aacute /Acircumflex /Atilde /Adieresis /Aring /AE /Ccedilla
/Egrave /Eacute /Ecircumflex /Edieresis /Igrave /Iacute /Icircumflex /Idieresis /Eth /Ntilde
/Ograve /Oacute /Ocircumflex /Otilde /Odieresis /multiply /Oslash /Ugrave /Uacute /Ucircumflex
/Udieresis /Yacute /Thorn /germandbls /agrave /aacute /acircumflex /atilde /adieresis /aring
/ae /ccedilla /egrave /eacute /ecircumflex /edieresis /igrave /iacute /icircumflex /idieresis
/eth /ntilde /ograve /oacute /ocircumflex /otilde /odieresis /divide /oslash /ugrave
/uacute /ucircumflex /udieresis /yacute /thorn /ydieresis] /isolatin1encoding exch def
/cp {closepath} bind def
/c {curveto} bind def
/f {fill} bind def
/a {arc} bind def
/ef {eofill} bind def
/ex {exch} bind def
/gr {grestore} bind def
/gs {gsave} bind def
/sa {save} bind def
/rs {restore} bind def
/l {lineto} bind def
/m {moveto} bind def
/rm {rmoveto} bind def
/n {newpath} bind def
/s {stroke} bind def
/sh {show} bind def
/slc {setlinecap} bind def
/slj {setlinejoin} bind def
/slw {setlinewidth} bind def
/srgb {setrgbcolor} bind def
/rot {rotate} bind def
/sc {scale} bind def
/sd {setdash} bind def
/ff {findfont} bind def
/sf {setfont} bind def
/scf {scalefont} bind def
/sw {stringwidth pop} bind def
/tr {translate} bind def

/ellipsedict 8 dict def
ellipsedict /mtrx matrix put
/ellipse
{ ellipsedict begin
   /endangle exch def
   /startangle exch def
   /yrad exch def
   /xrad exch def
   /y exch def
   /x exch def   /savematrix mtrx currentmatrix def
   x y tr xrad yrad sc
   0 0 1 startangle endangle arc
   savematrix setmatrix
   end
} def

/mergeprocs {
dup length
3 -1 roll
dup
length
dup
5 1 roll
3 -1 roll
add
array cvx
dup
3 -1 roll
0 exch
putinterval
dup
4 2 roll
putinterval
} bind def
/dpi_x 300 def
/dpi_y 300 def
/conicto {
    /to_y exch def
    /to_x exch def
    /conic_cntrl_y exch def
    /conic_cntrl_x exch def
    currentpoint
    /p0_y exch def
    /p0_x exch def
    /p1_x p0_x conic_cntrl_x p0_x sub 2 3 div mul add def
    /p1_y p0_y conic_cntrl_y p0_y sub 2 3 div mul add def
    /p2_x p1_x to_x p0_x sub 1 3 div mul add def
    /p2_y p1_y to_y p0_y sub 1 3 div mul add def
    p1_x p1_y p2_x p2_y to_x to_y curveto
} bind def
/start_ol { gsave 1.1 dpi_x div dup scale} bind def
/end_ol { closepath fill grestore } bind def
28.346000 -28.346000 scale
-0.227503 -15.524247 translate
%%EndProlog


0.100000 slw
[] 0 sd
[] 0 sd
0 slj
1.000000 1.000000 1.000000 srgb
n 8.200000 6.950001 m 8.200000 13.093385 l 12.900000 13.093385 l 12.900000 6.950001 l f
0.000000 0.000000 0.000000 srgb
n 8.200000 6.950001 m 8.200000 13.093385 l 12.900000 13.093385 l 12.900000 6.950001 l cp s
gsave 8.650000 10.125000 translate 0.035278 -0.035278 scale
start_ol
192 3520 moveto
676 3520 lineto
1420 545 lineto
2162 3520 lineto
2700 3520 lineto
3444 545 lineto
4186 3520 lineto
4672 3520 lineto
3783 0 lineto
3181 0 lineto
2434 3056 lineto
1681 0 lineto
1079 0 lineto
192 3520 lineto
end_ol grestore 
gsave 9.281908 10.125000 translate 0.035278 -0.035278 scale
start_ol
1792 3712 moveto
1792 3328 lineto
1369 3328 lineto
1139 3328 1049 3237 conicto
960 3147 960 2912 conicto
960 2688 lineto
1664 2688 lineto
1664 2368 lineto
960 2368 lineto
960 0 lineto
512 0 lineto
512 2368 lineto
64 2368 lineto
64 2688 lineto
512 2688 lineto
512 2864 lineto
512 3307 718 3509 conicto
925 3712 1374 3712 conicto
1792 3712 lineto
end_ol grestore 
gsave 9.506696 10.125000 translate 0.035278 -0.035278 scale
start_ol
2624 3392 moveto
2624 2944 lineto
2352 3073 2111 3136 conicto
1870 3200 1645 3200 conicto
1255 3200 1043 3052 conicto
832 2904 832 2631 conicto
832 2402 969 2285 conicto
1107 2169 1491 2097 conicto
1773 2039 lineto
2308 1937 2562 1678 conicto
2816 1420 2816 986 conicto
2816 469 2468 202 conicto
2121 -64 1450 -64 conicto
1197 -64 911 0 conicto
626 65 320 192 conicto
320 704 lineto
613 513 893 416 conicto
1174 320 1445 320 conicto
1857 320 2080 485 conicto
2304 650 2304 955 conicto
2304 1221 2148 1371 conicto
1992 1522 1636 1597 conicto
1352 1652 lineto
807 1756 563 1978 conicto
320 2201 320 2597 conicto
320 3056 654 3320 conicto
989 3584 1576 3584 conicto
1828 3584 2089 3536 conicto
2351 3488 2624 3392 conicto
end_ol grestore 
gsave 9.913815 10.125000 translate 0.035278 -0.035278 scale
start_ol
2688 1646 moveto
2688 0 lineto
2240 0 lineto
2240 1632 lineto
2240 2001 2093 2184 conicto
1947 2368 1654 2368 conicto
1302 2368 1099 2146 conicto
896 1925 896 1542 conicto
896 0 lineto
448 0 lineto
448 3712 lineto
896 3712 lineto
896 2304 lineto
1053 2529 1266 2640 conicto
1479 2752 1757 2752 conicto
2217 2752 2452 2471 conicto
2688 2191 2688 1646 conicto
end_ol grestore 
gsave 10.318429 10.125000 translate 0.035278 -0.035278 scale
start_ol
2752 1480 moveto
2752 1280 lineto
704 1280 lineto
733 811 978 565 conicto
1223 320 1660 320 conicto
1914 320 2152 384 conicto
2390 448 2624 576 conicto
2624 192 lineto
2388 67 2140 1 conicto
1893 -64 1639 -64 conicto
1001 -64 628 309 conicto
256 683 256 1320 conicto
256 1979 613 2365 conicto
970 2752 1576 2752 conicto
2120 2752 2436 2410 conicto
2752 2068 2752 1480 conicto
2304 1600 moveto
2299 1950 2099 2159 conicto
1900 2368 1572 2368 conicto
1200 2368 976 2166 conicto
753 1964 719 1597 conicto
2304 1600 lineto
end_ol grestore 
gsave 10.713055 10.125000 translate 0.035278 -0.035278 scale
start_ol
2176 2304 moveto
2176 3712 lineto
2624 3712 lineto
2624 0 lineto
2176 0 lineto
2176 384 lineto
2040 157 1832 46 conicto
1624 -64 1332 -64 conicto
855 -64 555 324 conicto
256 712 256 1344 conicto
256 1976 555 2364 conicto
855 2752 1332 2752 conicto
1624 2752 1832 2641 conicto
2040 2531 2176 2304 conicto
704 1344 moveto
704 865 900 592 conicto
1096 320 1439 320 conicto
1782 320 1979 592 conicto
2176 865 2176 1344 conicto
2176 1823 1979 2095 conicto
1782 2368 1439 2368 conicto
1096 2368 900 2095 conicto
704 1823 704 1344 conicto
end_ol grestore 
gsave 11.120175 10.125000 translate 0.035278 -0.035278 scale
start_ol
448 1040 moveto
448 2688 lineto
896 2688 lineto
896 1057 lineto
896 689 1042 504 conicto
1188 320 1481 320 conicto
1832 320 2036 541 conicto
2240 763 2240 1145 conicto
2240 2688 lineto
2688 2688 lineto
2688 0 lineto
2240 0 lineto
2240 384 lineto
2081 157 1870 46 conicto
1660 -64 1382 -64 conicto
923 -64 685 217 conicto
448 499 448 1040 conicto
1554 2752 moveto
1554 2752 lineto
end_ol grestore 
gsave 11.524789 10.125000 translate 0.035278 -0.035278 scale
start_ol
448 3712 moveto
896 3712 lineto
896 0 lineto
448 0 lineto
448 3712 lineto
end_ol grestore 
gsave 11.702118 10.125000 translate 0.035278 -0.035278 scale
start_ol
2752 1480 moveto
2752 1280 lineto
704 1280 lineto
733 811 978 565 conicto
1223 320 1660 320 conicto
1914 320 2152 384 conicto
2390 448 2624 576 conicto
2624 192 lineto
2388 67 2140 1 conicto
1893 -64 1639 -64 conicto
1001 -64 628 309 conicto
256 683 256 1320 conicto
256 1979 613 2365 conicto
970 2752 1576 2752 conicto
2120 2752 2436 2410 conicto
2752 2068 2752 1480 conicto
2304 1600 moveto
2299 1950 2099 2159 conicto
1900 2368 1572 2368 conicto
1200 2368 976 2166 conicto
753 1964 719 1597 conicto
2304 1600 lineto
end_ol grestore 
gsave 12.096744 10.125000 translate 0.035278 -0.035278 scale
start_ol
1984 2304 moveto
1912 2337 1828 2352 conicto
1744 2368 1642 2368 conicto
1282 2368 1089 2127 conicto
896 1887 896 1437 conicto
896 0 lineto
448 0 lineto
448 2688 lineto
896 2688 lineto
896 2304 lineto
1030 2531 1245 2641 conicto
1460 2752 1767 2752 conicto
1811 2752 1864 2752 conicto
1917 2752 1982 2752 conicto
1984 2304 lineto
end_ol grestore 
0.100000 slw
[] 0 sd
[] 0 sd
0 slc
n 5.000000 8.600000 m 7.678414 9.286105 l s
[] 0 sd
0 slj
0 slc
n 8.041684 9.379160 m 7.495286 9.497267 l 7.678414 9.286105 l 7.619361 9.012906 l ef
n 8.041684 9.379160 m 7.495286 9.497267 l 7.678414 9.286105 l 7.619361 9.012906 l cp s
0.100000 slw
[] 0 sd
[] 0 sd
0 slc
n 4.469795 11.596053 m 7.679508 10.764955 l s
[] 0 sd
0 slj
0 slc
n 8.042536 10.670956 m 7.621165 11.038307 l 7.679508 10.764955 l 7.495833 10.554270 l ef
n 8.042536 10.670956 m 7.621165 11.038307 l 7.679508 10.764955 l 7.495833 10.554270 l cp s
0.100000 slw
[] 0 sd
[] 0 sd
0 slc
n 12.949829 9.954380 m 13.878524 9.928331 l s
[] 0 sd
0 slj
0 slc
n 14.253377 9.917817 m 13.760583 10.181737 l 13.878524 9.928331 l 13.746564 9.681934 l ef
n 14.253377 9.917817 m 13.760583 10.181737 l 13.878524 9.928331 l 13.746564 9.681934 l cp s
0.100000 slw
[] 0 sd
1.000000 1.000000 1.000000 srgb
n 1.600000 6.800001 m 4.980000 6.800001 l 5.580000 7.400001 l 5.580000 8.500001 l 1.600000 8.500001 l ef
0.000000 0.000000 0.000000 srgb
n 1.600000 6.800001 m 4.980000 6.800001 l 5.580000 7.400001 l 5.580000 8.500001 l 1.600000 8.500001 l cp s
0.050000 slw
n 4.980000 6.800001 m 4.980000 7.400001 l 5.580000 7.400001 l s
gsave 1.950000 8.045001 translate 0.035278 -0.035278 scale
start_ol
0 3520 moveto
470 3520 lineto
812 664 lineto
1218 2560 lineto
1722 2560 lineto
2132 660 lineto
2474 3520 lineto
2944 3520 lineto
2412 0 lineto
1956 0 lineto
1471 2097 lineto
988 0 lineto
532 0 lineto
0 3520 lineto
end_ol grestore 
gsave 2.334638 8.045001 translate 0.035278 -0.035278 scale
start_ol
1471 2368 moveto
1124 2368 946 2109 conicto
768 1851 768 1344 conicto
768 839 946 579 conicto
1124 320 1471 320 conicto
1820 320 1998 579 conicto
2176 839 2176 1344 conicto
2176 1851 1998 2109 conicto
1820 2368 1471 2368 conicto
1471 2752 moveto
2031 2752 2327 2390 conicto
2624 2029 2624 1344 conicto
2624 657 2328 296 conicto
2033 -64 1471 -64 conicto
911 -64 615 296 conicto
320 657 320 1344 conicto
320 2029 615 2390 conicto
911 2752 1471 2752 conicto
end_ol grestore 
gsave 2.719276 8.045001 translate 0.035278 -0.035278 scale
start_ol
2688 2112 moveto
2551 2246 2410 2307 conicto
2269 2368 2100 2368 conicto
1701 2368 1490 2099 conicto
1280 1831 1280 1323 conicto
1280 0 lineto
832 0 lineto
832 2688 lineto
1280 2688 lineto
1280 2147 lineto
1387 2440 1608 2596 conicto
1829 2752 2132 2752 conicto
2290 2752 2426 2705 conicto
2563 2659 2688 2560 conicto
2688 2112 lineto
end_ol grestore 
gsave 3.103914 8.045001 translate 0.035278 -0.035278 scale
start_ol
576 3712 moveto
1024 3712 lineto
1024 1572 lineto
2179 2688 lineto
2715 2688 lineto
1660 1675 lineto
2880 0 lineto
2342 0 lineto
1352 1387 lineto
1024 1077 lineto
1024 0 lineto
576 0 lineto
576 3712 lineto
end_ol grestore 
gsave 3.488552 8.045001 translate 0.035278 -0.035278 scale
start_ol
2496 3712 moveto
2496 3328 lineto
2010 3328 lineto
1779 3328 1689 3236 conicto
1600 3145 1600 2912 conicto
1600 2688 lineto
2496 2688 lineto
2496 2368 lineto
1600 2368 lineto
1600 0 lineto
1152 0 lineto
1152 2368 lineto
448 2368 lineto
448 2688 lineto
1152 2688 lineto
1152 2864 lineto
1152 3300 1353 3506 conicto
1555 3712 1982 3712 conicto
2496 3712 lineto
end_ol grestore 
gsave 3.873190 8.045001 translate 0.035278 -0.035278 scale
start_ol
1536 926 moveto
1536 625 1646 472 conicto
1757 320 1973 320 conicto
2496 320 lineto
2496 0 lineto
1930 0 lineto
1528 0 1308 242 conicto
1088 484 1088 926 conicto
1088 3392 lineto
192 3392 lineto
192 3712 lineto
1536 3712 lineto
1536 926 lineto
end_ol grestore 
gsave 4.257828 8.045001 translate 0.035278 -0.035278 scale
start_ol
1471 2368 moveto
1124 2368 946 2109 conicto
768 1851 768 1344 conicto
768 839 946 579 conicto
1124 320 1471 320 conicto
1820 320 1998 579 conicto
2176 839 2176 1344 conicto
2176 1851 1998 2109 conicto
1820 2368 1471 2368 conicto
1471 2752 moveto
2031 2752 2327 2390 conicto
2624 2029 2624 1344 conicto
2624 657 2328 296 conicto
2033 -64 1471 -64 conicto
911 -64 615 296 conicto
320 657 320 1344 conicto
320 2029 615 2390 conicto
911 2752 1471 2752 conicto
end_ol grestore 
gsave 4.642466 8.045001 translate 0.035278 -0.035278 scale
start_ol
0 2688 moveto
435 2688 lineto
900 521 lineto
1282 1920 lineto
1657 1920 lineto
2044 521 lineto
2509 2688 lineto
2944 2688 lineto
2318 0 lineto
1898 0 lineto
1471 1487 lineto
1046 0 lineto
626 0 lineto
0 2688 lineto
end_ol grestore 
0.100000 slw
[] 0 sd
1.000000 1.000000 1.000000 srgb
n 2.365000 11.024999 m 3.820000 11.024999 l 4.420000 11.624999 l 4.420000 12.724999 l 2.365000 12.724999 l ef
0.000000 0.000000 0.000000 srgb
n 2.365000 11.024999 m 3.820000 11.024999 l 4.420000 11.624999 l 4.420000 12.724999 l 2.365000 12.724999 l cp s
0.050000 slw
n 3.820000 11.024999 m 3.820000 11.624999 l 4.420000 11.624999 l s
gsave 2.715000 12.269999 translate 0.035278 -0.035278 scale
start_ol
1471 401 moveto
2314 3520 lineto
2816 3520 lineto
1766 0 lineto
1178 0 lineto
128 3520 lineto
630 3520 lineto
1471 401 lineto
end_ol grestore 
gsave 3.099638 12.269999 translate 0.035278 -0.035278 scale
start_ol
192 3520 moveto
836 3520 lineto
1438 1749 lineto
2044 3520 lineto
2688 3520 lineto
2688 0 lineto
2240 0 lineto
2240 3114 lineto
1620 1280 lineto
1263 1280 lineto
640 3114 lineto
640 0 lineto
192 0 lineto
192 3520 lineto
end_ol grestore 
gsave 3.484276 12.269999 translate 0.035278 -0.035278 scale
start_ol
2432 3392 moveto
2432 2880 lineto
2216 3039 1998 3119 conicto
1780 3200 1559 3200 conicto
1223 3200 1027 3039 conicto
832 2878 832 2605 conicto
832 2365 953 2239 conicto
1075 2114 1408 2029 conicto
1645 1973 lineto
2156 1859 2390 1615 conicto
2624 1371 2624 951 conicto
2624 456 2309 196 conicto
1995 -64 1394 -64 conicto
1144 -64 891 -16 conicto
639 32 384 128 conicto
384 640 lineto
650 474 887 397 conicto
1124 320 1365 320 conicto
1719 320 1915 478 conicto
2112 637 2112 922 conicto
2112 1181 1981 1317 conicto
1851 1454 1527 1528 conicto
1285 1586 lineto
778 1698 549 1924 conicto
320 2151 320 2533 conicto
320 3009 645 3296 conicto
971 3584 1510 3584 conicto
1718 3584 1948 3536 conicto
2178 3488 2432 3392 conicto
end_ol grestore 
0.100000 slw
[] 0 sd
1.000000 1.000000 1.000000 srgb
n 14.465000 9.200000 m 19.770000 9.200000 l 20.370000 9.800000 l 20.370000 10.900000 l 14.465000 10.900000 l ef
0.000000 0.000000 0.000000 srgb
n 14.465000 9.200000 m 19.770000 9.200000 l 20.370000 9.800000 l 20.370000 10.900000 l 14.465000 10.900000 l cp s
0.050000 slw
n 19.770000 9.200000 m 19.770000 9.800000 l 20.370000 9.800000 l s
gsave 14.815000 10.445000 translate 0.035278 -0.035278 scale
start_ol
448 3520 moveto
2560 3520 lineto
2560 3136 lineto
960 3136 lineto
960 2112 lineto
2496 2112 lineto
2496 1728 lineto
960 1728 lineto
960 384 lineto
2624 384 lineto
2624 0 lineto
448 0 lineto
448 3520 lineto
end_ol grestore 
gsave 15.199638 10.445000 translate 0.035278 -0.035278 scale
start_ol
2304 2624 moveto
2304 2176 lineto
2118 2272 1929 2320 conicto
1740 2368 1545 2368 conicto
1250 2368 1105 2274 conicto
960 2181 960 1990 conicto
960 1817 1067 1731 conicto
1174 1646 1599 1565 conicto
1770 1531 lineto
2096 1468 2264 1279 conicto
2432 1091 2432 789 conicto
2432 388 2154 162 conicto
1877 -64 1384 -64 conicto
1189 -64 975 -16 conicto
761 32 512 128 conicto
512 576 lineto
752 448 971 384 conicto
1191 320 1387 320 conicto
1671 320 1827 438 conicto
1984 557 1984 770 conicto
1984 1077 1415 1194 conicto
1396 1199 lineto
1236 1233 lineto
859 1306 685 1480 conicto
512 1655 512 1956 conicto
512 2337 770 2544 conicto
1029 2752 1508 2752 conicto
1721 2752 1917 2720 conicto
2114 2688 2304 2624 conicto
end_ol grestore 
gsave 15.584276 10.445000 translate 0.035278 -0.035278 scale
start_ol
2496 128 moveto
2321 32 2135 -16 conicto
1950 -64 1756 -64 conicto
1141 -64 794 309 conicto
448 683 448 1344 conicto
448 2005 794 2378 conicto
1141 2752 1756 2752 conicto
1947 2752 2129 2689 conicto
2312 2627 2496 2496 conicto
2496 2048 lineto
2322 2217 2147 2292 conicto
1972 2368 1751 2368 conicto
1339 2368 1117 2102 conicto
896 1837 896 1344 conicto
896 853 1118 586 conicto
1341 320 1751 320 conicto
1979 320 2160 382 conicto
2341 445 2496 576 conicto
2496 128 lineto
end_ol grestore 
gsave 15.968914 10.445000 translate 0.035278 -0.035278 scale
start_ol
1653 1344 moveto
1513 1344 lineto
1143 1344 955 1212 conicto
768 1080 768 818 conicto
768 582 908 451 conicto
1048 320 1297 320 conicto
1646 320 1846 566 conicto
2046 813 2048 1248 conicto
2048 1344 lineto
1653 1344 lineto
2496 1513 moveto
2496 0 lineto
2048 0 lineto
2048 416 lineto
1910 170 1701 53 conicto
1493 -64 1194 -64 conicto
796 -64 558 162 conicto
320 389 320 769 conicto
320 1209 614 1436 conicto
909 1664 1480 1664 conicto
2048 1664 lineto
2048 1737 lineto
2046 2069 1889 2218 conicto
1733 2368 1391 2368 conicto
1172 2368 948 2303 conicto
724 2238 512 2112 conicto
512 2560 lineto
752 2656 971 2704 conicto
1191 2752 1398 2752 conicto
1725 2752 1956 2652 conicto
2188 2552 2331 2352 conicto
2421 2230 2458 2051 conicto
2496 1872 2496 1513 conicto
end_ol grestore 
gsave 16.353552 10.445000 translate 0.035278 -0.035278 scale
start_ol
1536 926 moveto
1536 625 1646 472 conicto
1757 320 1973 320 conicto
2496 320 lineto
2496 0 lineto
1930 0 lineto
1528 0 1308 242 conicto
1088 484 1088 926 conicto
1088 3392 lineto
192 3392 lineto
192 3712 lineto
1536 3712 lineto
1536 926 lineto
end_ol grestore 
gsave 16.738190 10.445000 translate 0.035278 -0.035278 scale
start_ol
1471 2368 moveto
1124 2368 946 2109 conicto
768 1851 768 1344 conicto
768 839 946 579 conicto
1124 320 1471 320 conicto
1820 320 1998 579 conicto
2176 839 2176 1344 conicto
2176 1851 1998 2109 conicto
1820 2368 1471 2368 conicto
1471 2752 moveto
2031 2752 2327 2390 conicto
2624 2029 2624 1344 conicto
2624 657 2328 296 conicto
2033 -64 1471 -64 conicto
911 -64 615 296 conicto
320 657 320 1344 conicto
320 2029 615 2390 conicto
911 2752 1471 2752 conicto
end_ol grestore 
gsave 17.122828 10.445000 translate 0.035278 -0.035278 scale
start_ol
2496 1665 moveto
2496 0 lineto
2048 0 lineto
2048 1665 lineto
2048 2027 1922 2197 conicto
1797 2368 1530 2368 conicto
1225 2368 1060 2148 conicto
896 1929 896 1519 conicto
896 0 lineto
448 0 lineto
448 2688 lineto
896 2688 lineto
896 2284 lineto
1013 2514 1213 2633 conicto
1413 2752 1686 2752 conicto
2094 2752 2295 2482 conicto
2496 2212 2496 1665 conicto
end_ol grestore 
gsave 17.507466 10.445000 translate 0.035278 -0.035278 scale
start_ol
1653 1344 moveto
1513 1344 lineto
1143 1344 955 1212 conicto
768 1080 768 818 conicto
768 582 908 451 conicto
1048 320 1297 320 conicto
1646 320 1846 566 conicto
2046 813 2048 1248 conicto
2048 1344 lineto
1653 1344 lineto
2496 1513 moveto
2496 0 lineto
2048 0 lineto
2048 416 lineto
1910 170 1701 53 conicto
1493 -64 1194 -64 conicto
796 -64 558 162 conicto
320 389 320 769 conicto
320 1209 614 1436 conicto
909 1664 1480 1664 conicto
2048 1664 lineto
2048 1737 lineto
2046 2069 1889 2218 conicto
1733 2368 1391 2368 conicto
1172 2368 948 2303 conicto
724 2238 512 2112 conicto
512 2560 lineto
752 2656 971 2704 conicto
1191 2752 1398 2752 conicto
1725 2752 1956 2652 conicto
2188 2552 2331 2352 conicto
2421 2230 2458 2051 conicto
2496 1872 2496 1513 conicto
end_ol grestore 
gsave 17.892104 10.445000 translate 0.035278 -0.035278 scale
start_ol
1598 2401 moveto
1679 2580 1803 2666 conicto
1928 2752 2104 2752 conicto
2424 2752 2556 2499 conicto
2688 2247 2688 1548 conicto
2688 0 lineto
2304 0 lineto
2304 1529 lineto
2304 2094 2239 2231 conicto
2175 2368 2004 2368 conicto
1808 2368 1736 2221 conicto
1664 2075 1664 1529 conicto
1664 0 lineto
1280 0 lineto
1280 1529 lineto
1280 2101 1210 2234 conicto
1140 2368 959 2368 conicto
780 2368 710 2221 conicto
640 2075 640 1529 conicto
640 0 lineto
256 0 lineto
256 2688 lineto
640 2688 lineto
640 2446 lineto
719 2595 837 2673 conicto
956 2752 1107 2752 conicto
1289 2752 1410 2665 conicto
1531 2578 1598 2401 conicto
end_ol grestore 
gsave 18.276742 10.445000 translate 0.035278 -0.035278 scale
start_ol
2688 1480 moveto
2688 1280 lineto
752 1280 lineto
752 1265 lineto
752 813 981 566 conicto
1210 320 1627 320 conicto
1838 320 2068 383 conicto
2299 447 2560 576 conicto
2560 128 lineto
2311 32 2080 -16 conicto
1850 -64 1634 -64 conicto
1016 -64 668 310 conicto
320 685 320 1344 conicto
320 1986 665 2369 conicto
1010 2752 1584 2752 conicto
2097 2752 2392 2411 conicto
2688 2070 2688 1480 conicto
2240 1600 moveto
2230 1976 2054 2172 conicto
1878 2368 1548 2368 conicto
1225 2368 1016 2164 conicto
807 1960 768 1597 conicto
2240 1600 lineto
end_ol grestore 
gsave 18.661380 10.445000 translate 0.035278 -0.035278 scale
start_ol
2496 1665 moveto
2496 0 lineto
2048 0 lineto
2048 1665 lineto
2048 2027 1922 2197 conicto
1797 2368 1530 2368 conicto
1225 2368 1060 2148 conicto
896 1929 896 1519 conicto
896 0 lineto
448 0 lineto
448 2688 lineto
896 2688 lineto
896 2284 lineto
1013 2514 1213 2633 conicto
1413 2752 1686 2752 conicto
2094 2752 2295 2482 conicto
2496 2212 2496 1665 conicto
end_ol grestore 
gsave 19.046018 10.445000 translate 0.035278 -0.035278 scale
start_ol
1472 3456 moveto
1472 2688 lineto
2496 2688 lineto
2496 2368 lineto
1472 2368 lineto
1472 868 lineto
1472 562 1587 441 conicto
1702 320 1989 320 conicto
2496 320 lineto
2496 0 lineto
1945 0 lineto
1439 0 1231 195 conicto
1024 390 1024 868 conicto
1024 2368 lineto
320 2368 lineto
320 2688 lineto
1024 2688 lineto
1024 3456 lineto
1472 3456 lineto
end_ol grestore 
gsave 19.430656 10.445000 translate 0.035278 -0.035278 scale
start_ol
1471 2368 moveto
1124 2368 946 2109 conicto
768 1851 768 1344 conicto
768 839 946 579 conicto
1124 320 1471 320 conicto
1820 320 1998 579 conicto
2176 839 2176 1344 conicto
2176 1851 1998 2109 conicto
1820 2368 1471 2368 conicto
1471 2752 moveto
2031 2752 2327 2390 conicto
2624 2029 2624 1344 conicto
2624 657 2328 296 conicto
2033 -64 1471 -64 conicto
911 -64 615 296 conicto
320 657 320 1344 conicto
320 2029 615 2390 conicto
911 2752 1471 2752 conicto
end_ol grestore 
0.100000 slw
[] 0 sd
[] 0 sd
0 slj
1.000000 1.000000 1.000000 srgb
n 22.665000 5.900000 m 22.665000 14.950000 l 41.900000 14.950000 l 41.900000 5.900000 l f
0.000000 0.000000 0.000000 srgb
n 22.665000 5.900000 m 22.665000 14.950000 l 41.900000 14.950000 l 41.900000 5.900000 l cp s
0.100000 slw
[] 0 sd
[] 0 sd
0 slj
1.000000 1.000000 1.000000 srgb
n 23.950000 8.975000 m 23.950000 11.425000 l 28.350000 11.425000 l 28.350000 8.975000 l f
0.000000 0.000000 0.000000 srgb
n 23.950000 8.975000 m 23.950000 11.425000 l 28.350000 11.425000 l 28.350000 8.975000 l cp s
0.100000 slw
[] 0 sd
[] 0 sd
0 slc
n 20.419830 10.101572 m 23.413520 10.152995 l s
[] 0 sd
0 slj
0 slc
n 23.788464 10.159436 m 23.284244 10.400811 l 23.413520 10.152995 l 23.292832 9.900885 l ef
n 23.788464 10.159436 m 23.284244 10.400811 l 23.413520 10.152995 l 23.292832 9.900885 l cp s
0.100000 slw
[] 0 sd
[] 0 sd
0 slc
n 13.195412 23.740186 18.739210 18.739210 245.048866 306.272056 ellipse s
[] 0 sd
0 slj
0 slc
n 24.582112 8.856855 m 24.033732 8.748322 l 24.285644 8.627221 l 24.339911 8.353031 l ef
n 24.582112 8.856855 m 24.033732 8.748322 l 24.285644 8.627221 l 24.339911 8.353031 l cp s
0.100000 slw
[] 0 sd
[] 0 sd
0 slc
n 13.410391 -0.266920 15.741168 15.741168 49.738454 124.616697 ellipse s
[] 0 sd
0 slj
0 slc
n 23.866957 11.499859 m 23.662966 12.020328 l 23.588422 11.750943 l 23.328187 11.648947 l ef
n 23.866957 11.499859 m 23.662966 12.020328 l 23.588422 11.750943 l 23.328187 11.648947 l cp s
gsave 24.615100 10.545000 translate 0.035278 -0.035278 scale
start_ol
2112 2560 moveto
2112 2176 lineto
1932 2272 1738 2320 conicto
1544 2368 1336 2368 conicto
1020 2368 862 2269 conicto
704 2170 704 1972 conicto
704 1821 814 1735 conicto
925 1649 1260 1571 conicto
1403 1538 lineto
1857 1438 2048 1255 conicto
2240 1072 2240 744 conicto
2240 371 1954 153 conicto
1668 -64 1167 -64 conicto
958 -64 732 -16 conicto
506 32 256 128 conicto
256 576 lineto
491 448 719 384 conicto
947 320 1170 320 conicto
1470 320 1631 425 conicto
1792 531 1792 722 conicto
1792 900 1678 994 conicto
1564 1089 1177 1177 conicto
1032 1212 lineto
621 1298 438 1476 conicto
256 1654 256 1964 conicto
256 2341 520 2546 conicto
784 2752 1269 2752 conicto
1509 2752 1721 2704 conicto
1933 2656 2112 2560 conicto
end_ol grestore 
gsave 24.947284 10.545000 translate 0.035278 -0.035278 scale
start_ol
448 2688 moveto
896 2688 lineto
896 0 lineto
448 0 lineto
448 2688 lineto
448 3712 moveto
896 3712 lineto
896 3136 lineto
448 3136 lineto
448 3712 lineto
end_ol grestore 
gsave 25.124613 10.545000 translate 0.035278 -0.035278 scale
start_ol
2549 2204 moveto
2714 2485 2942 2618 conicto
3171 2752 3482 2752 conicto
3899 2752 4125 2464 conicto
4352 2177 4352 1646 conicto
4352 0 lineto
3904 0 lineto
3904 1632 lineto
3904 2006 3769 2187 conicto
3634 2368 3356 2368 conicto
3017 2368 2820 2146 conicto
2624 1925 2624 1542 conicto
2624 0 lineto
2176 0 lineto
2176 1632 lineto
2176 2008 2041 2188 conicto
1906 2368 1624 2368 conicto
1289 2368 1092 2145 conicto
896 1922 896 1542 conicto
896 0 lineto
448 0 lineto
448 2688 lineto
896 2688 lineto
896 2304 lineto
1046 2534 1255 2643 conicto
1465 2752 1753 2752 conicto
2044 2752 2247 2611 conicto
2451 2471 2549 2204 conicto
end_ol grestore 
gsave 25.746524 10.545000 translate 0.035278 -0.035278 scale
start_ol
448 1040 moveto
448 2688 lineto
896 2688 lineto
896 1057 lineto
896 689 1042 504 conicto
1188 320 1481 320 conicto
1832 320 2036 541 conicto
2240 763 2240 1145 conicto
2240 2688 lineto
2688 2688 lineto
2688 0 lineto
2240 0 lineto
2240 384 lineto
2081 157 1870 46 conicto
1660 -64 1382 -64 conicto
923 -64 685 217 conicto
448 499 448 1040 conicto
1554 2752 moveto
1554 2752 lineto
end_ol grestore 
gsave 26.151139 10.545000 translate 0.035278 -0.035278 scale
start_ol
448 3712 moveto
896 3712 lineto
896 0 lineto
448 0 lineto
448 3712 lineto
end_ol grestore 
gsave 26.328467 10.545000 translate 0.035278 -0.035278 scale
start_ol
1622 1344 moveto
1104 1344 904 1225 conicto
704 1106 704 818 conicto
704 589 854 454 conicto
1004 320 1262 320 conicto
1618 320 1833 572 conicto
2048 825 2048 1244 conicto
2048 1344 lineto
1622 1344 lineto
2496 1513 moveto
2496 0 lineto
2048 0 lineto
2048 384 lineto
1900 154 1679 45 conicto
1458 -64 1138 -64 conicto
733 -64 494 162 conicto
256 389 256 769 conicto
256 1213 555 1438 conicto
854 1664 1448 1664 conicto
2048 1664 lineto
2048 1712 lineto
2048 2025 1851 2196 conicto
1655 2368 1300 2368 conicto
1074 2368 860 2320 conicto
646 2272 448 2176 conicto
448 2560 lineto
687 2656 912 2704 conicto
1138 2752 1351 2752 conicto
1927 2752 2211 2444 conicto
2496 2137 2496 1513 conicto
end_ol grestore 
gsave 26.720596 10.545000 translate 0.035278 -0.035278 scale
start_ol
2176 2304 moveto
2176 3712 lineto
2624 3712 lineto
2624 0 lineto
2176 0 lineto
2176 384 lineto
2040 157 1832 46 conicto
1624 -64 1332 -64 conicto
855 -64 555 324 conicto
256 712 256 1344 conicto
256 1976 555 2364 conicto
855 2752 1332 2752 conicto
1624 2752 1832 2641 conicto
2040 2531 2176 2304 conicto
704 1344 moveto
704 865 900 592 conicto
1096 320 1439 320 conicto
1782 320 1979 592 conicto
2176 865 2176 1344 conicto
2176 1823 1979 2095 conicto
1782 2368 1439 2368 conicto
1096 2368 900 2095 conicto
704 1823 704 1344 conicto
end_ol grestore 
gsave 27.127716 10.545000 translate 0.035278 -0.035278 scale
start_ol
1473 2368 moveto
1117 2368 910 2094 conicto
704 1820 704 1344 conicto
704 868 909 594 conicto
1115 320 1473 320 conicto
1827 320 2033 595 conicto
2240 870 2240 1344 conicto
2240 1816 2033 2092 conicto
1827 2368 1473 2368 conicto
1472 2752 moveto
2040 2752 2364 2378 conicto
2688 2005 2688 1344 conicto
2688 685 2364 310 conicto
2040 -64 1472 -64 conicto
902 -64 579 310 conicto
256 685 256 1344 conicto
256 2005 579 2378 conicto
902 2752 1472 2752 conicto
end_ol grestore 
gsave 27.519845 10.545000 translate 0.035278 -0.035278 scale
start_ol
1984 2304 moveto
1912 2337 1828 2352 conicto
1744 2368 1642 2368 conicto
1282 2368 1089 2127 conicto
896 1887 896 1437 conicto
896 0 lineto
448 0 lineto
448 2688 lineto
896 2688 lineto
896 2304 lineto
1030 2531 1245 2641 conicto
1460 2752 1767 2752 conicto
1811 2752 1864 2752 conicto
1917 2752 1982 2752 conicto
1984 2304 lineto
end_ol grestore 
0.100000 slw
[] 0 sd
[] 0 sd
0 slc
n 28.350000 10.200000 m 30.318549 10.219505 l s
[] 0 sd
0 slj
0 slc
n 30.693531 10.223220 m 30.191079 10.468254 l 30.318549 10.219505 l 30.196033 9.968279 l ef
n 30.693531 10.223220 m 30.191079 10.468254 l 30.318549 10.219505 l 30.196033 9.968279 l cp s
0.100000 slw
[] 0 sd
1.000000 1.000000 1.000000 srgb
n 30.855000 9.385000 m 32.310000 9.385000 l 32.910000 9.985000 l 32.910000 11.085000 l 30.855000 11.085000 l ef
0.000000 0.000000 0.000000 srgb
n 30.855000 9.385000 m 32.310000 9.385000 l 32.910000 9.985000 l 32.910000 11.085000 l 30.855000 11.085000 l cp s
0.050000 slw
n 32.310000 9.385000 m 32.310000 9.985000 l 32.910000 9.985000 l s
gsave 31.205000 10.630000 translate 0.035278 -0.035278 scale
start_ol
512 3520 moveto
1024 3520 lineto
1024 384 lineto
2688 384 lineto
2688 0 lineto
512 0 lineto
512 3520 lineto
end_ol grestore 
gsave 31.589638 10.630000 translate 0.035278 -0.035278 scale
start_ol
1471 2368 moveto
1124 2368 946 2109 conicto
768 1851 768 1344 conicto
768 839 946 579 conicto
1124 320 1471 320 conicto
1820 320 1998 579 conicto
2176 839 2176 1344 conicto
2176 1851 1998 2109 conicto
1820 2368 1471 2368 conicto
1471 2752 moveto
2031 2752 2327 2390 conicto
2624 2029 2624 1344 conicto
2624 657 2328 296 conicto
2033 -64 1471 -64 conicto
911 -64 615 296 conicto
320 657 320 1344 conicto
320 2029 615 2390 conicto
911 2752 1471 2752 conicto
end_ol grestore 
gsave 31.974276 10.630000 translate 0.035278 -0.035278 scale
start_ol
2176 1378 moveto
2176 1864 2000 2116 conicto
1825 2368 1489 2368 conicto
1138 2368 953 2116 conicto
768 1864 768 1378 conicto
768 893 954 638 conicto
1140 384 1494 384 conicto
1825 384 2000 639 conicto
2176 895 2176 1378 conicto
2624 201 moveto
2624 -402 2326 -713 conicto
2029 -1024 1452 -1024 conicto
1262 -1024 1054 -991 conicto
847 -959 640 -896 conicto
640 -448 lineto
887 -546 1088 -593 conicto
1290 -640 1458 -640 conicto
1834 -640 2005 -455 conicto
2176 -270 2176 133 conicto
2176 153 lineto
2176 461 lineto
2065 228 1873 114 conicto
1681 0 1406 0 conicto
911 0 615 374 conicto
320 748 320 1375 conicto
320 2004 615 2378 conicto
911 2752 1406 2752 conicto
1679 2752 1868 2646 conicto
2057 2541 2176 2321 conicto
2176 2688 lineto
2624 2688 lineto
2624 201 lineto
end_ol grestore 
0.100000 slw
[] 0 sd
[] 0 sd
0 slj
1.000000 1.000000 1.000000 srgb
n 34.955000 9.085000 m 34.955000 11.535000 l 39.800000 11.535000 l 39.800000 9.085000 l f
0.000000 0.000000 0.000000 srgb
n 34.955000 9.085000 m 34.955000 11.535000 l 39.800000 11.535000 l 39.800000 9.085000 l cp s
gsave 35.620100 10.530000 translate 0.035278 -0.035278 scale
start_ol
2368 2560 moveto
2368 2176 lineto
2180 2272 1991 2320 conicto
1803 2368 1611 2368 conicto
1180 2368 942 2099 conicto
704 1830 704 1344 conicto
704 858 942 589 conicto
1180 320 1611 320 conicto
1803 320 1991 368 conicto
2180 416 2368 512 conicto
2368 128 lineto
2184 32 1987 -16 conicto
1791 -64 1569 -64 conicto
966 -64 611 316 conicto
256 697 256 1344 conicto
256 2000 615 2376 conicto
974 2752 1598 2752 conicto
1801 2752 1994 2704 conicto
2187 2656 2368 2560 conicto
end_ol grestore 
gsave 35.972269 10.530000 translate 0.035278 -0.035278 scale
start_ol
1622 1344 moveto
1104 1344 904 1225 conicto
704 1106 704 818 conicto
704 589 854 454 conicto
1004 320 1262 320 conicto
1618 320 1833 572 conicto
2048 825 2048 1244 conicto
2048 1344 lineto
1622 1344 lineto
2496 1513 moveto
2496 0 lineto
2048 0 lineto
2048 384 lineto
1900 154 1679 45 conicto
1458 -64 1138 -64 conicto
733 -64 494 162 conicto
256 389 256 769 conicto
256 1213 555 1438 conicto
854 1664 1448 1664 conicto
2048 1664 lineto
2048 1712 lineto
2048 2025 1851 2196 conicto
1655 2368 1300 2368 conicto
1074 2368 860 2320 conicto
646 2272 448 2176 conicto
448 2560 lineto
687 2656 912 2704 conicto
1138 2752 1351 2752 conicto
1927 2752 2211 2444 conicto
2496 2137 2496 1513 conicto
end_ol grestore 
gsave 36.364398 10.530000 translate 0.035278 -0.035278 scale
start_ol
448 3712 moveto
896 3712 lineto
896 0 lineto
448 0 lineto
448 3712 lineto
end_ol grestore 
gsave 36.541726 10.530000 translate 0.035278 -0.035278 scale
start_ol
2368 2560 moveto
2368 2176 lineto
2180 2272 1991 2320 conicto
1803 2368 1611 2368 conicto
1180 2368 942 2099 conicto
704 1830 704 1344 conicto
704 858 942 589 conicto
1180 320 1611 320 conicto
1803 320 1991 368 conicto
2180 416 2368 512 conicto
2368 128 lineto
2184 32 1987 -16 conicto
1791 -64 1569 -64 conicto
966 -64 611 316 conicto
256 697 256 1344 conicto
256 2000 615 2376 conicto
974 2752 1598 2752 conicto
1801 2752 1994 2704 conicto
2187 2656 2368 2560 conicto
end_ol grestore 
gsave 36.893895 10.530000 translate 0.035278 -0.035278 scale
start_ol
448 1040 moveto
448 2688 lineto
896 2688 lineto
896 1057 lineto
896 689 1042 504 conicto
1188 320 1481 320 conicto
1832 320 2036 541 conicto
2240 763 2240 1145 conicto
2240 2688 lineto
2688 2688 lineto
2688 0 lineto
2240 0 lineto
2240 384 lineto
2081 157 1870 46 conicto
1660 -64 1382 -64 conicto
923 -64 685 217 conicto
448 499 448 1040 conicto
1554 2752 moveto
1554 2752 lineto
end_ol grestore 
gsave 37.298509 10.530000 translate 0.035278 -0.035278 scale
start_ol
448 3712 moveto
896 3712 lineto
896 0 lineto
448 0 lineto
448 3712 lineto
end_ol grestore 
gsave 37.475838 10.530000 translate 0.035278 -0.035278 scale
start_ol
1622 1344 moveto
1104 1344 904 1225 conicto
704 1106 704 818 conicto
704 589 854 454 conicto
1004 320 1262 320 conicto
1618 320 1833 572 conicto
2048 825 2048 1244 conicto
2048 1344 lineto
1622 1344 lineto
2496 1513 moveto
2496 0 lineto
2048 0 lineto
2048 384 lineto
1900 154 1679 45 conicto
1458 -64 1138 -64 conicto
733 -64 494 162 conicto
256 389 256 769 conicto
256 1213 555 1438 conicto
854 1664 1448 1664 conicto
2048 1664 lineto
2048 1712 lineto
2048 2025 1851 2196 conicto
1655 2368 1300 2368 conicto
1074 2368 860 2320 conicto
646 2272 448 2176 conicto
448 2560 lineto
687 2656 912 2704 conicto
1138 2752 1351 2752 conicto
1927 2752 2211 2444 conicto
2496 2137 2496 1513 conicto
end_ol grestore 
gsave 37.867967 10.530000 translate 0.035278 -0.035278 scale
start_ol
2176 2304 moveto
2176 3712 lineto
2624 3712 lineto
2624 0 lineto
2176 0 lineto
2176 384 lineto
2040 157 1832 46 conicto
1624 -64 1332 -64 conicto
855 -64 555 324 conicto
256 712 256 1344 conicto
256 1976 555 2364 conicto
855 2752 1332 2752 conicto
1624 2752 1832 2641 conicto
2040 2531 2176 2304 conicto
704 1344 moveto
704 865 900 592 conicto
1096 320 1439 320 conicto
1782 320 1979 592 conicto
2176 865 2176 1344 conicto
2176 1823 1979 2095 conicto
1782 2368 1439 2368 conicto
1096 2368 900 2095 conicto
704 1823 704 1344 conicto
end_ol grestore 
gsave 38.275086 10.530000 translate 0.035278 -0.035278 scale
start_ol
1473 2368 moveto
1117 2368 910 2094 conicto
704 1820 704 1344 conicto
704 868 909 594 conicto
1115 320 1473 320 conicto
1827 320 2033 595 conicto
2240 870 2240 1344 conicto
2240 1816 2033 2092 conicto
1827 2368 1473 2368 conicto
1472 2752 moveto
2040 2752 2364 2378 conicto
2688 2005 2688 1344 conicto
2688 685 2364 310 conicto
2040 -64 1472 -64 conicto
902 -64 579 310 conicto
256 685 256 1344 conicto
256 2005 579 2378 conicto
902 2752 1472 2752 conicto
end_ol grestore 
gsave 38.667215 10.530000 translate 0.035278 -0.035278 scale
start_ol
1984 2304 moveto
1912 2337 1828 2352 conicto
1744 2368 1642 2368 conicto
1282 2368 1089 2127 conicto
896 1887 896 1437 conicto
896 0 lineto
448 0 lineto
448 2688 lineto
896 2688 lineto
896 2304 lineto
1030 2531 1245 2641 conicto
1460 2752 1767 2752 conicto
1811 2752 1864 2752 conicto
1917 2752 1982 2752 conicto
1984 2304 lineto
end_ol grestore 
gsave 38.929467 10.530000 translate 0.035278 -0.035278 scale
start_ol
1622 1344 moveto
1104 1344 904 1225 conicto
704 1106 704 818 conicto
704 589 854 454 conicto
1004 320 1262 320 conicto
1618 320 1833 572 conicto
2048 825 2048 1244 conicto
2048 1344 lineto
1622 1344 lineto
2496 1513 moveto
2496 0 lineto
2048 0 lineto
2048 384 lineto
1900 154 1679 45 conicto
1458 -64 1138 -64 conicto
733 -64 494 162 conicto
256 389 256 769 conicto
256 1213 555 1438 conicto
854 1664 1448 1664 conicto
2048 1664 lineto
2048 1712 lineto
2048 2025 1851 2196 conicto
1655 2368 1300 2368 conicto
1074 2368 860 2320 conicto
646 2272 448 2176 conicto
448 2560 lineto
687 2656 912 2704 conicto
1138 2752 1351 2752 conicto
1927 2752 2211 2444 conicto
2496 2137 2496 1513 conicto
end_ol grestore 
0.100000 slw
[] 0 sd
[] 0 sd
0 slc
n 32.960102 10.249708 m 34.417925 10.269606 l s
[] 0 sd
0 slj
0 slc
n 34.792890 10.274723 m 34.289525 10.517876 l 34.417925 10.269606 l 34.296348 10.017923 l ef
n 34.792890 10.274723 m 34.289525 10.517876 l 34.417925 10.269606 l 34.296348 10.017923 l cp s
0.100000 slw
[] 0 sd
1.000000 1.000000 1.000000 srgb
n 45.329999 9.410000 m 47.554999 9.410000 l 48.154999 10.010000 l 48.154999 11.110000 l 45.329999 11.110000 l ef
0.000000 0.000000 0.000000 srgb
n 45.329999 9.410000 m 47.554999 9.410000 l 48.154999 10.010000 l 48.154999 11.110000 l 45.329999 11.110000 l cp s
0.050000 slw
n 47.554999 9.410000 m 47.554999 10.010000 l 48.154999 10.010000 l s
gsave 45.679999 10.655000 translate 0.035278 -0.035278 scale
start_ol
2432 3392 moveto
2432 2880 lineto
2216 3039 1998 3119 conicto
1780 3200 1559 3200 conicto
1223 3200 1027 3039 conicto
832 2878 832 2605 conicto
832 2365 953 2239 conicto
1075 2114 1408 2029 conicto
1645 1973 lineto
2156 1859 2390 1615 conicto
2624 1371 2624 951 conicto
2624 456 2309 196 conicto
1995 -64 1394 -64 conicto
1144 -64 891 -16 conicto
639 32 384 128 conicto
384 640 lineto
650 474 887 397 conicto
1124 320 1365 320 conicto
1719 320 1915 478 conicto
2112 637 2112 922 conicto
2112 1181 1981 1317 conicto
1851 1454 1527 1528 conicto
1285 1586 lineto
778 1698 549 1924 conicto
320 2151 320 2533 conicto
320 3009 645 3296 conicto
971 3584 1510 3584 conicto
1718 3584 1948 3536 conicto
2178 3488 2432 3392 conicto
end_ol grestore 
gsave 46.064637 10.655000 translate 0.035278 -0.035278 scale
start_ol
1653 1344 moveto
1513 1344 lineto
1143 1344 955 1212 conicto
768 1080 768 818 conicto
768 582 908 451 conicto
1048 320 1297 320 conicto
1646 320 1846 566 conicto
2046 813 2048 1248 conicto
2048 1344 lineto
1653 1344 lineto
2496 1513 moveto
2496 0 lineto
2048 0 lineto
2048 416 lineto
1910 170 1701 53 conicto
1493 -64 1194 -64 conicto
796 -64 558 162 conicto
320 389 320 769 conicto
320 1209 614 1436 conicto
909 1664 1480 1664 conicto
2048 1664 lineto
2048 1737 lineto
2046 2069 1889 2218 conicto
1733 2368 1391 2368 conicto
1172 2368 948 2303 conicto
724 2238 512 2112 conicto
512 2560 lineto
752 2656 971 2704 conicto
1191 2752 1398 2752 conicto
1725 2752 1956 2652 conicto
2188 2552 2331 2352 conicto
2421 2230 2458 2051 conicto
2496 1872 2496 1513 conicto
end_ol grestore 
gsave 46.449275 10.655000 translate 0.035278 -0.035278 scale
start_ol
576 2688 moveto
1728 2688 lineto
1728 320 lineto
2624 320 lineto
2624 0 lineto
384 0 lineto
384 320 lineto
1280 320 lineto
1280 2368 lineto
576 2368 lineto
576 2688 lineto
1828 3904 moveto
2304 3904 lineto
1522 3008 lineto
1152 3008 lineto
1828 3904 lineto
end_ol grestore 
gsave 46.833913 10.655000 translate 0.035278 -0.035278 scale
start_ol
2176 2335 moveto
2176 3712 lineto
2624 3712 lineto
2624 0 lineto
2176 0 lineto
2176 353 lineto
2060 149 1866 42 conicto
1673 -64 1421 -64 conicto
908 -64 614 313 conicto
320 690 320 1354 conicto
320 2007 615 2379 conicto
911 2752 1421 2752 conicto
1676 2752 1870 2645 conicto
2065 2539 2176 2335 conicto
768 1344 moveto
768 837 945 578 conicto
1122 320 1468 320 conicto
1814 320 1995 580 conicto
2176 841 2176 1344 conicto
2176 1849 1995 2108 conicto
1814 2368 1468 2368 conicto
1122 2368 945 2109 conicto
768 1851 768 1344 conicto
end_ol grestore 
gsave 47.218551 10.655000 translate 0.035278 -0.035278 scale
start_ol
1653 1344 moveto
1513 1344 lineto
1143 1344 955 1212 conicto
768 1080 768 818 conicto
768 582 908 451 conicto
1048 320 1297 320 conicto
1646 320 1846 566 conicto
2046 813 2048 1248 conicto
2048 1344 lineto
1653 1344 lineto
2496 1513 moveto
2496 0 lineto
2048 0 lineto
2048 416 lineto
1910 170 1701 53 conicto
1493 -64 1194 -64 conicto
796 -64 558 162 conicto
320 389 320 769 conicto
320 1209 614 1436 conicto
909 1664 1480 1664 conicto
2048 1664 lineto
2048 1737 lineto
2046 2069 1889 2218 conicto
1733 2368 1391 2368 conicto
1172 2368 948 2303 conicto
724 2238 512 2112 conicto
512 2560 lineto
752 2656 971 2704 conicto
1191 2752 1398 2752 conicto
1725 2752 1956 2652 conicto
2188 2552 2331 2352 conicto
2421 2230 2458 2051 conicto
2496 1872 2496 1513 conicto
end_ol grestore 
0.100000 slw
[] 0 sd
[] 0 sd
0 slc
n 39.849645 10.296801 m 44.938750 10.269630 l s
[] 0 sd
0 slj
0 slc
n 45.313744 10.267628 m 44.815086 10.520294 l 44.938750 10.269630 l 44.812417 10.020301 l ef
n 45.313744 10.267628 m 44.815086 10.520294 l 44.938750 10.269630 l 44.812417 10.020301 l cp s
gsave 44.374998 13.025000 translate 0.035278 -0.035278 scale
start_ol
3136 3264 moveto
3136 2752 lineto
2892 2977 2616 3088 conicto
2340 3200 2030 3200 conicto
1418 3200 1093 2829 conicto
768 2459 768 1759 conicto
768 1061 1093 690 conicto
1418 320 2030 320 conicto
2340 320 2616 431 conicto
2892 543 3136 768 conicto
3136 256 lineto
2882 96 2599 16 conicto
2316 -64 2000 -64 conicto
1189 -64 722 424 conicto
256 913 256 1759 conicto
256 2607 722 3095 conicto
1189 3584 2000 3584 conicto
2320 3584 2603 3504 conicto
2887 3424 3136 3264 conicto
end_ol grestore 
gsave 44.822078 13.025000 translate 0.035278 -0.035278 scale
start_ol
448 1040 moveto
448 2688 lineto
896 2688 lineto
896 1057 lineto
896 689 1042 504 conicto
1188 320 1481 320 conicto
1832 320 2036 541 conicto
2240 763 2240 1145 conicto
2240 2688 lineto
2688 2688 lineto
2688 0 lineto
2240 0 lineto
2240 384 lineto
2081 157 1870 46 conicto
1660 -64 1382 -64 conicto
923 -64 685 217 conicto
448 499 448 1040 conicto
1554 2752 moveto
1554 2752 lineto
end_ol grestore 
gsave 45.226692 13.025000 translate 0.035278 -0.035278 scale
start_ol
2112 2560 moveto
2112 2176 lineto
1932 2272 1738 2320 conicto
1544 2368 1336 2368 conicto
1020 2368 862 2269 conicto
704 2170 704 1972 conicto
704 1821 814 1735 conicto
925 1649 1260 1571 conicto
1403 1538 lineto
1857 1438 2048 1255 conicto
2240 1072 2240 744 conicto
2240 371 1954 153 conicto
1668 -64 1167 -64 conicto
958 -64 732 -16 conicto
506 32 256 128 conicto
256 576 lineto
491 448 719 384 conicto
947 320 1170 320 conicto
1470 320 1631 425 conicto
1792 531 1792 722 conicto
1792 900 1678 994 conicto
1564 1089 1177 1177 conicto
1032 1212 lineto
621 1298 438 1476 conicto
256 1654 256 1964 conicto
256 2341 520 2546 conicto
784 2752 1269 2752 conicto
1509 2752 1721 2704 conicto
1933 2656 2112 2560 conicto
end_ol grestore 
gsave 45.558876 13.025000 translate 0.035278 -0.035278 scale
start_ol
896 3456 moveto
896 2688 lineto
1792 2688 lineto
1792 2368 lineto
896 2368 lineto
896 902 lineto
896 572 984 478 conicto
1073 384 1345 384 conicto
1792 384 lineto
1792 0 lineto
1345 0 lineto
836 0 642 194 conicto
448 389 448 902 conicto
448 2368 lineto
128 2368 lineto
128 2688 lineto
448 2688 lineto
448 3456 lineto
896 3456 lineto
end_ol grestore 
gsave 45.808643 13.025000 translate 0.035278 -0.035278 scale
start_ol
1473 2368 moveto
1117 2368 910 2094 conicto
704 1820 704 1344 conicto
704 868 909 594 conicto
1115 320 1473 320 conicto
1827 320 2033 595 conicto
2240 870 2240 1344 conicto
2240 1816 2033 2092 conicto
1827 2368 1473 2368 conicto
1472 2752 moveto
2040 2752 2364 2378 conicto
2688 2005 2688 1344 conicto
2688 685 2364 310 conicto
2040 -64 1472 -64 conicto
902 -64 579 310 conicto
256 685 256 1344 conicto
256 2005 579 2378 conicto
902 2752 1472 2752 conicto
end_ol grestore 
gsave 46.200772 13.025000 translate 0.035278 -0.035278 scale
start_ol
end_ol grestore 
gsave 46.403079 13.025000 translate 0.035278 -0.035278 scale
start_ol
2176 2304 moveto
2176 3712 lineto
2624 3712 lineto
2624 0 lineto
2176 0 lineto
2176 384 lineto
2040 157 1832 46 conicto
1624 -64 1332 -64 conicto
855 -64 555 324 conicto
256 712 256 1344 conicto
256 1976 555 2364 conicto
855 2752 1332 2752 conicto
1624 2752 1832 2641 conicto
2040 2531 2176 2304 conicto
704 1344 moveto
704 865 900 592 conicto
1096 320 1439 320 conicto
1782 320 1979 592 conicto
2176 865 2176 1344 conicto
2176 1823 1979 2095 conicto
1782 2368 1439 2368 conicto
1096 2368 900 2095 conicto
704 1823 704 1344 conicto
end_ol grestore 
gsave 46.810198 13.025000 translate 0.035278 -0.035278 scale
start_ol
1622 1344 moveto
1104 1344 904 1225 conicto
704 1106 704 818 conicto
704 589 854 454 conicto
1004 320 1262 320 conicto
1618 320 1833 572 conicto
2048 825 2048 1244 conicto
2048 1344 lineto
1622 1344 lineto
2496 1513 moveto
2496 0 lineto
2048 0 lineto
2048 384 lineto
1900 154 1679 45 conicto
1458 -64 1138 -64 conicto
733 -64 494 162 conicto
256 389 256 769 conicto
256 1213 555 1438 conicto
854 1664 1448 1664 conicto
2048 1664 lineto
2048 1712 lineto
2048 2025 1851 2196 conicto
1655 2368 1300 2368 conicto
1074 2368 860 2320 conicto
646 2272 448 2176 conicto
448 2560 lineto
687 2656 912 2704 conicto
1138 2752 1351 2752 conicto
1927 2752 2211 2444 conicto
2496 2137 2496 1513 conicto
end_ol grestore 
gsave 47.202327 13.025000 translate 0.035278 -0.035278 scale
start_ol
2112 2560 moveto
2112 2176 lineto
1932 2272 1738 2320 conicto
1544 2368 1336 2368 conicto
1020 2368 862 2269 conicto
704 2170 704 1972 conicto
704 1821 814 1735 conicto
925 1649 1260 1571 conicto
1403 1538 lineto
1857 1438 2048 1255 conicto
2240 1072 2240 744 conicto
2240 371 1954 153 conicto
1668 -64 1167 -64 conicto
958 -64 732 -16 conicto
506 32 256 128 conicto
256 576 lineto
491 448 719 384 conicto
947 320 1170 320 conicto
1470 320 1631 425 conicto
1792 531 1792 722 conicto
1792 900 1678 994 conicto
1564 1089 1177 1177 conicto
1032 1212 lineto
621 1298 438 1476 conicto
256 1654 256 1964 conicto
256 2341 520 2546 conicto
784 2752 1269 2752 conicto
1509 2752 1721 2704 conicto
1933 2656 2112 2560 conicto
end_ol grestore 
gsave 47.534511 13.025000 translate 0.035278 -0.035278 scale
start_ol
end_ol grestore 
gsave 47.736819 13.025000 translate 0.035278 -0.035278 scale
start_ol
128 2688 moveto
586 2688 lineto
1408 432 lineto
2230 2688 lineto
2688 2688 lineto
1702 0 lineto
1114 0 lineto
128 2688 lineto
end_ol grestore 
gsave 48.116463 13.025000 translate 0.035278 -0.035278 scale
start_ol
2549 2204 moveto
2714 2485 2942 2618 conicto
3171 2752 3482 2752 conicto
3899 2752 4125 2464 conicto
4352 2177 4352 1646 conicto
4352 0 lineto
3904 0 lineto
3904 1632 lineto
3904 2006 3769 2187 conicto
3634 2368 3356 2368 conicto
3017 2368 2820 2146 conicto
2624 1925 2624 1542 conicto
2624 0 lineto
2176 0 lineto
2176 1632 lineto
2176 2008 2041 2188 conicto
1906 2368 1624 2368 conicto
1289 2368 1092 2145 conicto
896 1922 896 1542 conicto
896 0 lineto
448 0 lineto
448 2688 lineto
896 2688 lineto
896 2304 lineto
1046 2534 1255 2643 conicto
1465 2752 1753 2752 conicto
2044 2752 2247 2611 conicto
2451 2471 2549 2204 conicto
end_ol grestore 
gsave 48.738374 13.025000 translate 0.035278 -0.035278 scale
start_ol
2112 2560 moveto
2112 2176 lineto
1932 2272 1738 2320 conicto
1544 2368 1336 2368 conicto
1020 2368 862 2269 conicto
704 2170 704 1972 conicto
704 1821 814 1735 conicto
925 1649 1260 1571 conicto
1403 1538 lineto
1857 1438 2048 1255 conicto
2240 1072 2240 744 conicto
2240 371 1954 153 conicto
1668 -64 1167 -64 conicto
958 -64 732 -16 conicto
506 32 256 128 conicto
256 576 lineto
491 448 719 384 conicto
947 320 1170 320 conicto
1470 320 1631 425 conicto
1792 531 1792 722 conicto
1792 900 1678 994 conicto
1564 1089 1177 1177 conicto
1032 1212 lineto
621 1298 438 1476 conicto
256 1654 256 1964 conicto
256 2341 520 2546 conicto
784 2752 1269 2752 conicto
1509 2752 1721 2704 conicto
1933 2656 2112 2560 conicto
end_ol grestore 
gsave 43.305000 12.030000 translate 0.035278 -0.035278 scale
start_ol
3136 3264 moveto
3136 2752 lineto
2892 2977 2616 3088 conicto
2340 3200 2030 3200 conicto
1418 3200 1093 2829 conicto
768 2459 768 1759 conicto
768 1061 1093 690 conicto
1418 320 2030 320 conicto
2340 320 2616 431 conicto
2892 543 3136 768 conicto
3136 256 lineto
2882 96 2599 16 conicto
2316 -64 2000 -64 conicto
1189 -64 722 424 conicto
256 913 256 1759 conicto
256 2607 722 3095 conicto
1189 3584 2000 3584 conicto
2320 3584 2603 3504 conicto
2887 3424 3136 3264 conicto
end_ol grestore 
gsave 43.752080 12.030000 translate 0.035278 -0.035278 scale
start_ol
448 1040 moveto
448 2688 lineto
896 2688 lineto
896 1057 lineto
896 689 1042 504 conicto
1188 320 1481 320 conicto
1832 320 2036 541 conicto
2240 763 2240 1145 conicto
2240 2688 lineto
2688 2688 lineto
2688 0 lineto
2240 0 lineto
2240 384 lineto
2081 157 1870 46 conicto
1660 -64 1382 -64 conicto
923 -64 685 217 conicto
448 499 448 1040 conicto
1554 2752 moveto
1554 2752 lineto
end_ol grestore 
gsave 44.156694 12.030000 translate 0.035278 -0.035278 scale
start_ol
2112 2560 moveto
2112 2176 lineto
1932 2272 1738 2320 conicto
1544 2368 1336 2368 conicto
1020 2368 862 2269 conicto
704 2170 704 1972 conicto
704 1821 814 1735 conicto
925 1649 1260 1571 conicto
1403 1538 lineto
1857 1438 2048 1255 conicto
2240 1072 2240 744 conicto
2240 371 1954 153 conicto
1668 -64 1167 -64 conicto
958 -64 732 -16 conicto
506 32 256 128 conicto
256 576 lineto
491 448 719 384 conicto
947 320 1170 320 conicto
1470 320 1631 425 conicto
1792 531 1792 722 conicto
1792 900 1678 994 conicto
1564 1089 1177 1177 conicto
1032 1212 lineto
621 1298 438 1476 conicto
256 1654 256 1964 conicto
256 2341 520 2546 conicto
784 2752 1269 2752 conicto
1509 2752 1721 2704 conicto
1933 2656 2112 2560 conicto
end_ol grestore 
gsave 44.488878 12.030000 translate 0.035278 -0.035278 scale
start_ol
896 3456 moveto
896 2688 lineto
1792 2688 lineto
1792 2368 lineto
896 2368 lineto
896 902 lineto
896 572 984 478 conicto
1073 384 1345 384 conicto
1792 384 lineto
1792 0 lineto
1345 0 lineto
836 0 642 194 conicto
448 389 448 902 conicto
448 2368 lineto
128 2368 lineto
128 2688 lineto
448 2688 lineto
448 3456 lineto
896 3456 lineto
end_ol grestore 
gsave 44.738645 12.030000 translate 0.035278 -0.035278 scale
start_ol
1473 2368 moveto
1117 2368 910 2094 conicto
704 1820 704 1344 conicto
704 868 909 594 conicto
1115 320 1473 320 conicto
1827 320 2033 595 conicto
2240 870 2240 1344 conicto
2240 1816 2033 2092 conicto
1827 2368 1473 2368 conicto
1472 2752 moveto
2040 2752 2364 2378 conicto
2688 2005 2688 1344 conicto
2688 685 2364 310 conicto
2040 -64 1472 -64 conicto
902 -64 579 310 conicto
256 685 256 1344 conicto
256 2005 579 2378 conicto
902 2752 1472 2752 conicto
end_ol grestore 
gsave 45.130774 12.030000 translate 0.035278 -0.035278 scale
start_ol
end_ol grestore 
gsave 45.333081 12.030000 translate 0.035278 -0.035278 scale
start_ol
2176 2304 moveto
2176 3712 lineto
2624 3712 lineto
2624 0 lineto
2176 0 lineto
2176 384 lineto
2040 157 1832 46 conicto
1624 -64 1332 -64 conicto
855 -64 555 324 conicto
256 712 256 1344 conicto
256 1976 555 2364 conicto
855 2752 1332 2752 conicto
1624 2752 1832 2641 conicto
2040 2531 2176 2304 conicto
704 1344 moveto
704 865 900 592 conicto
1096 320 1439 320 conicto
1782 320 1979 592 conicto
2176 865 2176 1344 conicto
2176 1823 1979 2095 conicto
1782 2368 1439 2368 conicto
1096 2368 900 2095 conicto
704 1823 704 1344 conicto
end_ol grestore 
gsave 45.740200 12.030000 translate 0.035278 -0.035278 scale
start_ol
2752 1480 moveto
2752 1280 lineto
704 1280 lineto
733 811 978 565 conicto
1223 320 1660 320 conicto
1914 320 2152 384 conicto
2390 448 2624 576 conicto
2624 192 lineto
2388 67 2140 1 conicto
1893 -64 1639 -64 conicto
1001 -64 628 309 conicto
256 683 256 1320 conicto
256 1979 613 2365 conicto
970 2752 1576 2752 conicto
2120 2752 2436 2410 conicto
2752 2068 2752 1480 conicto
2304 1600 moveto
2299 1950 2099 2159 conicto
1900 2368 1572 2368 conicto
1200 2368 976 2166 conicto
753 1964 719 1597 conicto
2304 1600 lineto
end_ol grestore 
gsave 46.134826 12.030000 translate 0.035278 -0.035278 scale
start_ol
end_ol grestore 
gsave 46.337133 12.030000 translate 0.035278 -0.035278 scale
start_ol
-64 3520 moveto
3008 3520 lineto
3008 3136 lineto
1728 3136 lineto
1728 0 lineto
1216 0 lineto
1216 3136 lineto
-64 3136 lineto
-64 3520 lineto
end_ol grestore 
gsave 46.631854 12.030000 translate 0.035278 -0.035278 scale
start_ol
1984 2304 moveto
1912 2337 1828 2352 conicto
1744 2368 1642 2368 conicto
1282 2368 1089 2127 conicto
896 1887 896 1437 conicto
896 0 lineto
448 0 lineto
448 2688 lineto
896 2688 lineto
896 2304 lineto
1030 2531 1245 2641 conicto
1460 2752 1767 2752 conicto
1811 2752 1864 2752 conicto
1917 2752 1982 2752 conicto
1984 2304 lineto
end_ol grestore 
gsave 46.894106 12.030000 translate 0.035278 -0.035278 scale
start_ol
1622 1344 moveto
1104 1344 904 1225 conicto
704 1106 704 818 conicto
704 589 854 454 conicto
1004 320 1262 320 conicto
1618 320 1833 572 conicto
2048 825 2048 1244 conicto
2048 1344 lineto
1622 1344 lineto
2496 1513 moveto
2496 0 lineto
2048 0 lineto
2048 384 lineto
1900 154 1679 45 conicto
1458 -64 1138 -64 conicto
733 -64 494 162 conicto
256 389 256 769 conicto
256 1213 555 1438 conicto
854 1664 1448 1664 conicto
2048 1664 lineto
2048 1712 lineto
2048 2025 1851 2196 conicto
1655 2368 1300 2368 conicto
1074 2368 860 2320 conicto
646 2272 448 2176 conicto
448 2560 lineto
687 2656 912 2704 conicto
1138 2752 1351 2752 conicto
1927 2752 2211 2444 conicto
2496 2137 2496 1513 conicto
end_ol grestore 
gsave 47.286235 12.030000 translate 0.035278 -0.035278 scale
start_ol
2688 1646 moveto
2688 0 lineto
2240 0 lineto
2240 1632 lineto
2240 2001 2093 2184 conicto
1947 2368 1654 2368 conicto
1302 2368 1099 2146 conicto
896 1925 896 1542 conicto
896 0 lineto
448 0 lineto
448 2688 lineto
896 2688 lineto
896 2304 lineto
1053 2529 1266 2640 conicto
1479 2752 1757 2752 conicto
2217 2752 2452 2471 conicto
2688 2191 2688 1646 conicto
end_ol grestore 
gsave 47.690849 12.030000 translate 0.035278 -0.035278 scale
start_ol
2112 2560 moveto
2112 2176 lineto
1932 2272 1738 2320 conicto
1544 2368 1336 2368 conicto
1020 2368 862 2269 conicto
704 2170 704 1972 conicto
704 1821 814 1735 conicto
925 1649 1260 1571 conicto
1403 1538 lineto
1857 1438 2048 1255 conicto
2240 1072 2240 744 conicto
2240 371 1954 153 conicto
1668 -64 1167 -64 conicto
958 -64 732 -16 conicto
506 32 256 128 conicto
256 576 lineto
491 448 719 384 conicto
947 320 1170 320 conicto
1470 320 1631 425 conicto
1792 531 1792 722 conicto
1792 900 1678 994 conicto
1564 1089 1177 1177 conicto
1032 1212 lineto
621 1298 438 1476 conicto
256 1654 256 1964 conicto
256 2341 520 2546 conicto
784 2752 1269 2752 conicto
1509 2752 1721 2704 conicto
1933 2656 2112 2560 conicto
end_ol grestore 
gsave 48.023033 12.030000 translate 0.035278 -0.035278 scale
start_ol
2549 2204 moveto
2714 2485 2942 2618 conicto
3171 2752 3482 2752 conicto
3899 2752 4125 2464 conicto
4352 2177 4352 1646 conicto
4352 0 lineto
3904 0 lineto
3904 1632 lineto
3904 2006 3769 2187 conicto
3634 2368 3356 2368 conicto
3017 2368 2820 2146 conicto
2624 1925 2624 1542 conicto
2624 0 lineto
2176 0 lineto
2176 1632 lineto
2176 2008 2041 2188 conicto
1906 2368 1624 2368 conicto
1289 2368 1092 2145 conicto
896 1922 896 1542 conicto
896 0 lineto
448 0 lineto
448 2688 lineto
896 2688 lineto
896 2304 lineto
1046 2534 1255 2643 conicto
1465 2752 1753 2752 conicto
2044 2752 2247 2611 conicto
2451 2471 2549 2204 conicto
end_ol grestore 
gsave 48.644945 12.030000 translate 0.035278 -0.035278 scale
start_ol
448 2688 moveto
896 2688 lineto
896 0 lineto
448 0 lineto
448 2688 lineto
448 3712 moveto
896 3712 lineto
896 3136 lineto
448 3136 lineto
448 3712 lineto
end_ol grestore 
gsave 48.822273 12.030000 translate 0.035278 -0.035278 scale
start_ol
2112 2560 moveto
2112 2176 lineto
1932 2272 1738 2320 conicto
1544 2368 1336 2368 conicto
1020 2368 862 2269 conicto
704 2170 704 1972 conicto
704 1821 814 1735 conicto
925 1649 1260 1571 conicto
1403 1538 lineto
1857 1438 2048 1255 conicto
2240 1072 2240 744 conicto
2240 371 1954 153 conicto
1668 -64 1167 -64 conicto
958 -64 732 -16 conicto
506 32 256 128 conicto
256 576 lineto
491 448 719 384 conicto
947 320 1170 320 conicto
1470 320 1631 425 conicto
1792 531 1792 722 conicto
1792 900 1678 994 conicto
1564 1089 1177 1177 conicto
1032 1212 lineto
621 1298 438 1476 conicto
256 1654 256 1964 conicto
256 2341 520 2546 conicto
784 2752 1269 2752 conicto
1509 2752 1721 2704 conicto
1933 2656 2112 2560 conicto
end_ol grestore 
gsave 49.154458 12.030000 translate 0.035278 -0.035278 scale
start_ol
2112 2560 moveto
2112 2176 lineto
1932 2272 1738 2320 conicto
1544 2368 1336 2368 conicto
1020 2368 862 2269 conicto
704 2170 704 1972 conicto
704 1821 814 1735 conicto
925 1649 1260 1571 conicto
1403 1538 lineto
1857 1438 2048 1255 conicto
2240 1072 2240 744 conicto
2240 371 1954 153 conicto
1668 -64 1167 -64 conicto
958 -64 732 -16 conicto
506 32 256 128 conicto
256 576 lineto
491 448 719 384 conicto
947 320 1170 320 conicto
1470 320 1631 425 conicto
1792 531 1792 722 conicto
1792 900 1678 994 conicto
1564 1089 1177 1177 conicto
1032 1212 lineto
621 1298 438 1476 conicto
256 1654 256 1964 conicto
256 2341 520 2546 conicto
784 2752 1269 2752 conicto
1509 2752 1721 2704 conicto
1933 2656 2112 2560 conicto
end_ol grestore 
gsave 49.486642 12.030000 translate 0.035278 -0.035278 scale
start_ol
1622 1344 moveto
1104 1344 904 1225 conicto
704 1106 704 818 conicto
704 589 854 454 conicto
1004 320 1262 320 conicto
1618 320 1833 572 conicto
2048 825 2048 1244 conicto
2048 1344 lineto
1622 1344 lineto
2496 1513 moveto
2496 0 lineto
2048 0 lineto
2048 384 lineto
1900 154 1679 45 conicto
1458 -64 1138 -64 conicto
733 -64 494 162 conicto
256 389 256 769 conicto
256 1213 555 1438 conicto
854 1664 1448 1664 conicto
2048 1664 lineto
2048 1712 lineto
2048 2025 1851 2196 conicto
1655 2368 1300 2368 conicto
1074 2368 860 2320 conicto
646 2272 448 2176 conicto
448 2560 lineto
687 2656 912 2704 conicto
1138 2752 1351 2752 conicto
1927 2752 2211 2444 conicto
2496 2137 2496 1513 conicto
1367 3226 moveto
1233 3364 lineto
1182 3411 1143 3433 conicto
1104 3456 1074 3456 conicto
985 3456 943 3365 conicto
901 3275 896 3072 conicto
576 3072 lineto
581 3409 704 3592 conicto
828 3776 1048 3776 conicto
1140 3776 1217 3740 conicto
1295 3705 1385 3622 conicto
1519 3484 lineto
1570 3437 1609 3414 conicto
1648 3392 1678 3392 conicto
1767 3392 1809 3482 conicto
1851 3573 1856 3776 conicto
2176 3776 lineto
2171 3439 2047 3255 conicto
1924 3072 1704 3072 conicto
1612 3072 1534 3107 conicto
1457 3143 1367 3226 conicto
end_ol grestore 
gsave 49.878771 12.030000 translate 0.035278 -0.035278 scale
start_ol
1473 2368 moveto
1117 2368 910 2094 conicto
704 1820 704 1344 conicto
704 868 909 594 conicto
1115 320 1473 320 conicto
1827 320 2033 595 conicto
2240 870 2240 1344 conicto
2240 1816 2033 2092 conicto
1827 2368 1473 2368 conicto
1472 2752 moveto
2040 2752 2364 2378 conicto
2688 2005 2688 1344 conicto
2688 685 2364 310 conicto
2040 -64 1472 -64 conicto
902 -64 579 310 conicto
256 685 256 1344 conicto
256 2005 579 2378 conicto
902 2752 1472 2752 conicto
end_ol grestore 
gsave 45.155000 13.980000 translate 0.035278 -0.035278 scale
start_ol
448 3520 moveto
1202 3520 lineto
2079 1148 lineto
2961 3520 lineto
3712 3520 lineto
3712 0 lineto
3200 0 lineto
3200 3095 lineto
2314 704 lineto
1846 704 lineto
960 3095 lineto
960 0 lineto
448 0 lineto
448 3520 lineto
end_ol grestore 
gsave 45.706978 13.980000 translate 0.035278 -0.035278 scale
start_ol
1622 1344 moveto
1104 1344 904 1225 conicto
704 1106 704 818 conicto
704 589 854 454 conicto
1004 320 1262 320 conicto
1618 320 1833 572 conicto
2048 825 2048 1244 conicto
2048 1344 lineto
1622 1344 lineto
2496 1513 moveto
2496 0 lineto
2048 0 lineto
2048 384 lineto
1900 154 1679 45 conicto
1458 -64 1138 -64 conicto
733 -64 494 162 conicto
256 389 256 769 conicto
256 1213 555 1438 conicto
854 1664 1448 1664 conicto
2048 1664 lineto
2048 1712 lineto
2048 2025 1851 2196 conicto
1655 2368 1300 2368 conicto
1074 2368 860 2320 conicto
646 2272 448 2176 conicto
448 2560 lineto
687 2656 912 2704 conicto
1138 2752 1351 2752 conicto
1927 2752 2211 2444 conicto
2496 2137 2496 1513 conicto
end_ol grestore 
gsave 46.099107 13.980000 translate 0.035278 -0.035278 scale
start_ol
448 3712 moveto
896 3712 lineto
896 1529 lineto
2196 2688 lineto
2752 2688 lineto
1346 1430 lineto
2816 0 lineto
2246 0 lineto
896 1313 lineto
896 0 lineto
448 0 lineto
448 3712 lineto
end_ol grestore 
gsave 46.446282 13.980000 translate 0.035278 -0.035278 scale
start_ol
2752 1480 moveto
2752 1280 lineto
704 1280 lineto
733 811 978 565 conicto
1223 320 1660 320 conicto
1914 320 2152 384 conicto
2390 448 2624 576 conicto
2624 192 lineto
2388 67 2140 1 conicto
1893 -64 1639 -64 conicto
1001 -64 628 309 conicto
256 683 256 1320 conicto
256 1979 613 2365 conicto
970 2752 1576 2752 conicto
2120 2752 2436 2410 conicto
2752 2068 2752 1480 conicto
2304 1600 moveto
2299 1950 2099 2159 conicto
1900 2368 1572 2368 conicto
1200 2368 976 2166 conicto
753 1964 719 1597 conicto
2304 1600 lineto
end_ol grestore 
gsave 46.840908 13.980000 translate 0.035278 -0.035278 scale
start_ol
2112 2560 moveto
2112 2176 lineto
1932 2272 1738 2320 conicto
1544 2368 1336 2368 conicto
1020 2368 862 2269 conicto
704 2170 704 1972 conicto
704 1821 814 1735 conicto
925 1649 1260 1571 conicto
1403 1538 lineto
1857 1438 2048 1255 conicto
2240 1072 2240 744 conicto
2240 371 1954 153 conicto
1668 -64 1167 -64 conicto
958 -64 732 -16 conicto
506 32 256 128 conicto
256 576 lineto
491 448 719 384 conicto
947 320 1170 320 conicto
1470 320 1631 425 conicto
1792 531 1792 722 conicto
1792 900 1678 994 conicto
1564 1089 1177 1177 conicto
1032 1212 lineto
621 1298 438 1476 conicto
256 1654 256 1964 conicto
256 2341 520 2546 conicto
784 2752 1269 2752 conicto
1509 2752 1721 2704 conicto
1933 2656 2112 2560 conicto
end_ol grestore 
gsave 47.173092 13.980000 translate 0.035278 -0.035278 scale
start_ol
896 384 moveto
896 -1024 lineto
448 -1024 lineto
448 2688 lineto
896 2688 lineto
896 2304 lineto
1032 2531 1240 2641 conicto
1448 2752 1737 2752 conicto
2217 2752 2516 2364 conicto
2816 1976 2816 1344 conicto
2816 712 2516 324 conicto
2217 -64 1737 -64 conicto
1448 -64 1240 46 conicto
1032 157 896 384 conicto
2368 1344 moveto
2368 1823 2171 2095 conicto
1975 2368 1632 2368 conicto
1289 2368 1092 2095 conicto
896 1823 896 1344 conicto
896 865 1092 592 conicto
1289 320 1632 320 conicto
1975 320 2171 592 conicto
2368 865 2368 1344 conicto
end_ol grestore 
gsave 47.580212 13.980000 translate 0.035278 -0.035278 scale
start_ol
1622 1344 moveto
1104 1344 904 1225 conicto
704 1106 704 818 conicto
704 589 854 454 conicto
1004 320 1262 320 conicto
1618 320 1833 572 conicto
2048 825 2048 1244 conicto
2048 1344 lineto
1622 1344 lineto
2496 1513 moveto
2496 0 lineto
2048 0 lineto
2048 384 lineto
1900 154 1679 45 conicto
1458 -64 1138 -64 conicto
733 -64 494 162 conicto
256 389 256 769 conicto
256 1213 555 1438 conicto
854 1664 1448 1664 conicto
2048 1664 lineto
2048 1712 lineto
2048 2025 1851 2196 conicto
1655 2368 1300 2368 conicto
1074 2368 860 2320 conicto
646 2272 448 2176 conicto
448 2560 lineto
687 2656 912 2704 conicto
1138 2752 1351 2752 conicto
1927 2752 2211 2444 conicto
2496 2137 2496 1513 conicto
end_ol grestore 
gsave 47.972341 13.980000 translate 0.035278 -0.035278 scale
start_ol
2688 1646 moveto
2688 0 lineto
2240 0 lineto
2240 1632 lineto
2240 2001 2093 2184 conicto
1947 2368 1654 2368 conicto
1302 2368 1099 2146 conicto
896 1925 896 1542 conicto
896 0 lineto
448 0 lineto
448 2688 lineto
896 2688 lineto
896 2304 lineto
1053 2529 1266 2640 conicto
1479 2752 1757 2752 conicto
2217 2752 2452 2471 conicto
2688 2191 2688 1646 conicto
end_ol grestore 
gsave 30.100000 6.900000 translate 0.035278 -0.035278 scale
start_ol
3136 3264 moveto
3136 2752 lineto
2892 2977 2616 3088 conicto
2340 3200 2030 3200 conicto
1418 3200 1093 2829 conicto
768 2459 768 1759 conicto
768 1061 1093 690 conicto
1418 320 2030 320 conicto
2340 320 2616 431 conicto
2892 543 3136 768 conicto
3136 256 lineto
2882 96 2599 16 conicto
2316 -64 2000 -64 conicto
1189 -64 722 424 conicto
256 913 256 1759 conicto
256 2607 722 3095 conicto
1189 3584 2000 3584 conicto
2320 3584 2603 3504 conicto
2887 3424 3136 3264 conicto
end_ol grestore 
gsave 30.547080 6.900000 translate 0.035278 -0.035278 scale
start_ol
1622 1344 moveto
1104 1344 904 1225 conicto
704 1106 704 818 conicto
704 589 854 454 conicto
1004 320 1262 320 conicto
1618 320 1833 572 conicto
2048 825 2048 1244 conicto
2048 1344 lineto
1622 1344 lineto
2496 1513 moveto
2496 0 lineto
2048 0 lineto
2048 384 lineto
1900 154 1679 45 conicto
1458 -64 1138 -64 conicto
733 -64 494 162 conicto
256 389 256 769 conicto
256 1213 555 1438 conicto
854 1664 1448 1664 conicto
2048 1664 lineto
2048 1712 lineto
2048 2025 1851 2196 conicto
1655 2368 1300 2368 conicto
1074 2368 860 2320 conicto
646 2272 448 2176 conicto
448 2560 lineto
687 2656 912 2704 conicto
1138 2752 1351 2752 conicto
1927 2752 2211 2444 conicto
2496 2137 2496 1513 conicto
end_ol grestore 
gsave 30.939209 6.900000 translate 0.035278 -0.035278 scale
start_ol
448 3712 moveto
896 3712 lineto
896 0 lineto
448 0 lineto
448 3712 lineto
end_ol grestore 
gsave 31.116537 6.900000 translate 0.035278 -0.035278 scale
start_ol
2368 2560 moveto
2368 2176 lineto
2180 2272 1991 2320 conicto
1803 2368 1611 2368 conicto
1180 2368 942 2099 conicto
704 1830 704 1344 conicto
704 858 942 589 conicto
1180 320 1611 320 conicto
1803 320 1991 368 conicto
2180 416 2368 512 conicto
2368 128 lineto
2184 32 1987 -16 conicto
1791 -64 1569 -64 conicto
966 -64 611 316 conicto
256 697 256 1344 conicto
256 2000 615 2376 conicto
974 2752 1598 2752 conicto
1801 2752 1994 2704 conicto
2187 2656 2368 2560 conicto
end_ol grestore 
gsave 31.468706 6.900000 translate 0.035278 -0.035278 scale
start_ol
2624 3392 moveto
2624 2944 lineto
2352 3073 2111 3136 conicto
1870 3200 1645 3200 conicto
1255 3200 1043 3052 conicto
832 2904 832 2631 conicto
832 2402 969 2285 conicto
1107 2169 1491 2097 conicto
1773 2039 lineto
2308 1937 2562 1678 conicto
2816 1420 2816 986 conicto
2816 469 2468 202 conicto
2121 -64 1450 -64 conicto
1197 -64 911 0 conicto
626 65 320 192 conicto
320 704 lineto
613 513 893 416 conicto
1174 320 1445 320 conicto
1857 320 2080 485 conicto
2304 650 2304 955 conicto
2304 1221 2148 1371 conicto
1992 1522 1636 1597 conicto
1352 1652 lineto
807 1756 563 1978 conicto
320 2201 320 2597 conicto
320 3056 654 3320 conicto
989 3584 1576 3584 conicto
1828 3584 2089 3536 conicto
2351 3488 2624 3392 conicto
end_ol grestore 
gsave 31.875825 6.900000 translate 0.035278 -0.035278 scale
start_ol
2368 2560 moveto
2368 2176 lineto
2180 2272 1991 2320 conicto
1803 2368 1611 2368 conicto
1180 2368 942 2099 conicto
704 1830 704 1344 conicto
704 858 942 589 conicto
1180 320 1611 320 conicto
1803 320 1991 368 conicto
2180 416 2368 512 conicto
2368 128 lineto
2184 32 1987 -16 conicto
1791 -64 1569 -64 conicto
966 -64 611 316 conicto
256 697 256 1344 conicto
256 2000 615 2376 conicto
974 2752 1598 2752 conicto
1801 2752 1994 2704 conicto
2187 2656 2368 2560 conicto
end_ol grestore 
gsave 32.227994 6.900000 translate 0.035278 -0.035278 scale
start_ol
2688 1646 moveto
2688 0 lineto
2240 0 lineto
2240 1632 lineto
2240 2001 2093 2184 conicto
1947 2368 1654 2368 conicto
1302 2368 1099 2146 conicto
896 1925 896 1542 conicto
896 0 lineto
448 0 lineto
448 3712 lineto
896 3712 lineto
896 2304 lineto
1053 2529 1266 2640 conicto
1479 2752 1757 2752 conicto
2217 2752 2452 2471 conicto
2688 2191 2688 1646 conicto
end_ol grestore 
gsave 32.632608 6.900000 translate 0.035278 -0.035278 scale
start_ol
2752 1480 moveto
2752 1280 lineto
704 1280 lineto
733 811 978 565 conicto
1223 320 1660 320 conicto
1914 320 2152 384 conicto
2390 448 2624 576 conicto
2624 192 lineto
2388 67 2140 1 conicto
1893 -64 1639 -64 conicto
1001 -64 628 309 conicto
256 683 256 1320 conicto
256 1979 613 2365 conicto
970 2752 1576 2752 conicto
2120 2752 2436 2410 conicto
2752 2068 2752 1480 conicto
2304 1600 moveto
2299 1950 2099 2159 conicto
1900 2368 1572 2368 conicto
1200 2368 976 2166 conicto
753 1964 719 1597 conicto
2304 1600 lineto
end_ol grestore 
gsave 33.027234 6.900000 translate 0.035278 -0.035278 scale
start_ol
2176 2304 moveto
2176 3712 lineto
2624 3712 lineto
2624 0 lineto
2176 0 lineto
2176 384 lineto
2040 157 1832 46 conicto
1624 -64 1332 -64 conicto
855 -64 555 324 conicto
256 712 256 1344 conicto
256 1976 555 2364 conicto
855 2752 1332 2752 conicto
1624 2752 1832 2641 conicto
2040 2531 2176 2304 conicto
704 1344 moveto
704 865 900 592 conicto
1096 320 1439 320 conicto
1782 320 1979 592 conicto
2176 865 2176 1344 conicto
2176 1823 1979 2095 conicto
1782 2368 1439 2368 conicto
1096 2368 900 2095 conicto
704 1823 704 1344 conicto
end_ol grestore 
gsave 33.434354 6.900000 translate 0.035278 -0.035278 scale
start_ol
448 1040 moveto
448 2688 lineto
896 2688 lineto
896 1057 lineto
896 689 1042 504 conicto
1188 320 1481 320 conicto
1832 320 2036 541 conicto
2240 763 2240 1145 conicto
2240 2688 lineto
2688 2688 lineto
2688 0 lineto
2240 0 lineto
2240 384 lineto
2081 157 1870 46 conicto
1660 -64 1382 -64 conicto
923 -64 685 217 conicto
448 499 448 1040 conicto
1554 2752 moveto
1554 2752 lineto
end_ol grestore 
gsave 33.838968 6.900000 translate 0.035278 -0.035278 scale
start_ol
448 3712 moveto
896 3712 lineto
896 0 lineto
448 0 lineto
448 3712 lineto
end_ol grestore 
gsave 34.016296 6.900000 translate 0.035278 -0.035278 scale
start_ol
2752 1480 moveto
2752 1280 lineto
704 1280 lineto
733 811 978 565 conicto
1223 320 1660 320 conicto
1914 320 2152 384 conicto
2390 448 2624 576 conicto
2624 192 lineto
2388 67 2140 1 conicto
1893 -64 1639 -64 conicto
1001 -64 628 309 conicto
256 683 256 1320 conicto
256 1979 613 2365 conicto
970 2752 1576 2752 conicto
2120 2752 2436 2410 conicto
2752 2068 2752 1480 conicto
2304 1600 moveto
2299 1950 2099 2159 conicto
1900 2368 1572 2368 conicto
1200 2368 976 2166 conicto
753 1964 719 1597 conicto
2304 1600 lineto
end_ol grestore 
gsave 34.410922 6.900000 translate 0.035278 -0.035278 scale
start_ol
1984 2304 moveto
1912 2337 1828 2352 conicto
1744 2368 1642 2368 conicto
1282 2368 1089 2127 conicto
896 1887 896 1437 conicto
896 0 lineto
448 0 lineto
448 2688 lineto
896 2688 lineto
896 2304 lineto
1030 2531 1245 2641 conicto
1460 2752 1767 2752 conicto
1811 2752 1864 2752 conicto
1917 2752 1982 2752 conicto
1984 2304 lineto
end_ol grestore 
0.100000 slw
[] 0 sd
[] 0 sd
0 slc
n 5.049993 10.043390 m 7.713208 10.025046 l s
[] 0 sd
0 slj
0 slc
n 8.088199 10.022463 m 7.589933 10.275901 l 7.713208 10.025046 l 7.586489 9.775913 l ef
n 8.088199 10.022463 m 7.589933 10.275901 l 7.713208 10.025046 l 7.586489 9.775913 l cp s
gsave 0.227503 9.743391 translate 0.035278 -0.035278 scale
start_ol
end_ol grestore 
gsave 0.429810 9.743391 translate 0.035278 -0.035278 scale
start_ol
end_ol grestore 
gsave 0.632117 9.743391 translate 0.035278 -0.035278 scale
start_ol
1696 3047 moveto
1042 1280 lineto
2352 1280 lineto
1696 3047 lineto
1424 3520 moveto
1970 3520 lineto
3328 0 lineto
2827 0 lineto
2502 896 lineto
897 896 lineto
572 0 lineto
64 0 lineto
1424 3520 lineto
end_ol grestore 
gsave 1.069208 9.743391 translate 0.035278 -0.035278 scale
start_ol
448 3712 moveto
896 3712 lineto
896 0 lineto
448 0 lineto
448 3712 lineto
end_ol grestore 
gsave 1.246537 9.743391 translate 0.035278 -0.035278 scale
start_ol
2176 1375 moveto
2176 1848 1982 2108 conicto
1789 2368 1439 2368 conicto
1091 2368 897 2108 conicto
704 1848 704 1375 conicto
704 904 897 644 conicto
1091 384 1439 384 conicto
1789 384 1982 644 conicto
2176 904 2176 1375 conicto
2624 347 moveto
2624 -347 2323 -685 conicto
2023 -1024 1404 -1024 conicto
1174 -1024 971 -992 conicto
768 -961 576 -896 conicto
576 -448 lineto
766 -546 951 -593 conicto
1137 -640 1329 -640 conicto
1754 -640 1965 -415 conicto
2176 -190 2176 264 conicto
2176 448 lineto
2042 223 1833 111 conicto
1624 0 1332 0 conicto
848 0 552 376 conicto
256 753 256 1375 conicto
256 1999 552 2375 conicto
848 2752 1332 2752 conicto
1624 2752 1833 2640 conicto
2042 2529 2176 2304 conicto
2176 2688 lineto
2624 2688 lineto
2624 347 lineto
end_ol grestore 
gsave 1.653656 9.743391 translate 0.035278 -0.035278 scale
start_ol
1473 2368 moveto
1117 2368 910 2094 conicto
704 1820 704 1344 conicto
704 868 909 594 conicto
1115 320 1473 320 conicto
1827 320 2033 595 conicto
2240 870 2240 1344 conicto
2240 1816 2033 2092 conicto
1827 2368 1473 2368 conicto
1472 2752 moveto
2040 2752 2364 2378 conicto
2688 2005 2688 1344 conicto
2688 685 2364 310 conicto
2040 -64 1472 -64 conicto
902 -64 579 310 conicto
256 685 256 1344 conicto
256 2005 579 2378 conicto
902 2752 1472 2752 conicto
end_ol grestore 
gsave 2.045785 9.743391 translate 0.035278 -0.035278 scale
start_ol
1984 2304 moveto
1912 2337 1828 2352 conicto
1744 2368 1642 2368 conicto
1282 2368 1089 2127 conicto
896 1887 896 1437 conicto
896 0 lineto
448 0 lineto
448 2688 lineto
896 2688 lineto
896 2304 lineto
1030 2531 1245 2641 conicto
1460 2752 1767 2752 conicto
1811 2752 1864 2752 conicto
1917 2752 1982 2752 conicto
1984 2304 lineto
end_ol grestore 
gsave 2.308037 9.743391 translate 0.035278 -0.035278 scale
start_ol
448 2688 moveto
896 2688 lineto
896 0 lineto
448 0 lineto
448 2688 lineto
448 3712 moveto
896 3712 lineto
896 3136 lineto
448 3136 lineto
448 3712 lineto
end_ol grestore 
gsave 2.485366 9.743391 translate 0.035278 -0.035278 scale
start_ol
896 3456 moveto
896 2688 lineto
1792 2688 lineto
1792 2368 lineto
896 2368 lineto
896 902 lineto
896 572 984 478 conicto
1073 384 1345 384 conicto
1792 384 lineto
1792 0 lineto
1345 0 lineto
836 0 642 194 conicto
448 389 448 902 conicto
448 2368 lineto
128 2368 lineto
128 2688 lineto
448 2688 lineto
448 3456 lineto
896 3456 lineto
end_ol grestore 
gsave 2.735132 9.743391 translate 0.035278 -0.035278 scale
start_ol
2549 2204 moveto
2714 2485 2942 2618 conicto
3171 2752 3482 2752 conicto
3899 2752 4125 2464 conicto
4352 2177 4352 1646 conicto
4352 0 lineto
3904 0 lineto
3904 1632 lineto
3904 2006 3769 2187 conicto
3634 2368 3356 2368 conicto
3017 2368 2820 2146 conicto
2624 1925 2624 1542 conicto
2624 0 lineto
2176 0 lineto
2176 1632 lineto
2176 2008 2041 2188 conicto
1906 2368 1624 2368 conicto
1289 2368 1092 2145 conicto
896 1922 896 1542 conicto
896 0 lineto
448 0 lineto
448 2688 lineto
896 2688 lineto
896 2304 lineto
1046 2534 1255 2643 conicto
1465 2752 1753 2752 conicto
2044 2752 2247 2611 conicto
2451 2471 2549 2204 conicto
end_ol grestore 
gsave 3.357044 9.743391 translate 0.035278 -0.035278 scale
start_ol
1473 2368 moveto
1117 2368 910 2094 conicto
704 1820 704 1344 conicto
704 868 909 594 conicto
1115 320 1473 320 conicto
1827 320 2033 595 conicto
2240 870 2240 1344 conicto
2240 1816 2033 2092 conicto
1827 2368 1473 2368 conicto
1472 2752 moveto
2040 2752 2364 2378 conicto
2688 2005 2688 1344 conicto
2688 685 2364 310 conicto
2040 -64 1472 -64 conicto
902 -64 579 310 conicto
256 685 256 1344 conicto
256 2005 579 2378 conicto
902 2752 1472 2752 conicto
end_ol grestore 
gsave 3.749173 9.743391 translate 0.035278 -0.035278 scale
start_ol
end_ol grestore 
gsave 3.951480 9.743391 translate 0.035278 -0.035278 scale
start_ol
2176 2304 moveto
2176 3712 lineto
2624 3712 lineto
2624 0 lineto
2176 0 lineto
2176 384 lineto
2040 157 1832 46 conicto
1624 -64 1332 -64 conicto
855 -64 555 324 conicto
256 712 256 1344 conicto
256 1976 555 2364 conicto
855 2752 1332 2752 conicto
1624 2752 1832 2641 conicto
2040 2531 2176 2304 conicto
704 1344 moveto
704 865 900 592 conicto
1096 320 1439 320 conicto
1782 320 1979 592 conicto
2176 865 2176 1344 conicto
2176 1823 1979 2095 conicto
1782 2368 1439 2368 conicto
1096 2368 900 2095 conicto
704 1823 704 1344 conicto
end_ol grestore 
gsave 4.358599 9.743391 translate 0.035278 -0.035278 scale
start_ol
2752 1480 moveto
2752 1280 lineto
704 1280 lineto
733 811 978 565 conicto
1223 320 1660 320 conicto
1914 320 2152 384 conicto
2390 448 2624 576 conicto
2624 192 lineto
2388 67 2140 1 conicto
1893 -64 1639 -64 conicto
1001 -64 628 309 conicto
256 683 256 1320 conicto
256 1979 613 2365 conicto
970 2752 1576 2752 conicto
2120 2752 2436 2410 conicto
2752 2068 2752 1480 conicto
2304 1600 moveto
2299 1950 2099 2159 conicto
1900 2368 1572 2368 conicto
1200 2368 976 2166 conicto
753 1964 719 1597 conicto
2304 1600 lineto
end_ol grestore 
gsave 4.753225 9.743391 translate 0.035278 -0.035278 scale
start_ol
end_ol grestore 
gsave 0.227503 10.543391 translate 0.035278 -0.035278 scale
start_ol
448 3520 moveto
2688 3520 lineto
2688 3136 lineto
960 3136 lineto
960 2112 lineto
2624 2112 lineto
2624 1728 lineto
960 1728 lineto
960 384 lineto
2752 384 lineto
2752 0 lineto
448 0 lineto
448 3520 lineto
end_ol grestore 
gsave 0.632117 10.543391 translate 0.035278 -0.035278 scale
start_ol
2112 2560 moveto
2112 2176 lineto
1932 2272 1738 2320 conicto
1544 2368 1336 2368 conicto
1020 2368 862 2269 conicto
704 2170 704 1972 conicto
704 1821 814 1735 conicto
925 1649 1260 1571 conicto
1403 1538 lineto
1857 1438 2048 1255 conicto
2240 1072 2240 744 conicto
2240 371 1954 153 conicto
1668 -64 1167 -64 conicto
958 -64 732 -16 conicto
506 32 256 128 conicto
256 576 lineto
491 448 719 384 conicto
947 320 1170 320 conicto
1470 320 1631 425 conicto
1792 531 1792 722 conicto
1792 900 1678 994 conicto
1564 1089 1177 1177 conicto
1032 1212 lineto
621 1298 438 1476 conicto
256 1654 256 1964 conicto
256 2341 520 2546 conicto
784 2752 1269 2752 conicto
1509 2752 1721 2704 conicto
1933 2656 2112 2560 conicto
end_ol grestore 
gsave 0.964301 10.543391 translate 0.035278 -0.035278 scale
start_ol
2368 2560 moveto
2368 2176 lineto
2180 2272 1991 2320 conicto
1803 2368 1611 2368 conicto
1180 2368 942 2099 conicto
704 1830 704 1344 conicto
704 858 942 589 conicto
1180 320 1611 320 conicto
1803 320 1991 368 conicto
2180 416 2368 512 conicto
2368 128 lineto
2184 32 1987 -16 conicto
1791 -64 1569 -64 conicto
966 -64 611 316 conicto
256 697 256 1344 conicto
256 2000 615 2376 conicto
974 2752 1598 2752 conicto
1801 2752 1994 2704 conicto
2187 2656 2368 2560 conicto
end_ol grestore 
gsave 1.316470 10.543391 translate 0.035278 -0.035278 scale
start_ol
1622 1344 moveto
1104 1344 904 1225 conicto
704 1106 704 818 conicto
704 589 854 454 conicto
1004 320 1262 320 conicto
1618 320 1833 572 conicto
2048 825 2048 1244 conicto
2048 1344 lineto
1622 1344 lineto
2496 1513 moveto
2496 0 lineto
2048 0 lineto
2048 384 lineto
1900 154 1679 45 conicto
1458 -64 1138 -64 conicto
733 -64 494 162 conicto
256 389 256 769 conicto
256 1213 555 1438 conicto
854 1664 1448 1664 conicto
2048 1664 lineto
2048 1712 lineto
2048 2025 1851 2196 conicto
1655 2368 1300 2368 conicto
1074 2368 860 2320 conicto
646 2272 448 2176 conicto
448 2560 lineto
687 2656 912 2704 conicto
1138 2752 1351 2752 conicto
1927 2752 2211 2444 conicto
2496 2137 2496 1513 conicto
end_ol grestore 
gsave 1.708599 10.543391 translate 0.035278 -0.035278 scale
start_ol
448 3712 moveto
896 3712 lineto
896 0 lineto
448 0 lineto
448 3712 lineto
end_ol grestore 
gsave 1.885927 10.543391 translate 0.035278 -0.035278 scale
start_ol
1473 2368 moveto
1117 2368 910 2094 conicto
704 1820 704 1344 conicto
704 868 909 594 conicto
1115 320 1473 320 conicto
1827 320 2033 595 conicto
2240 870 2240 1344 conicto
2240 1816 2033 2092 conicto
1827 2368 1473 2368 conicto
1472 2752 moveto
2040 2752 2364 2378 conicto
2688 2005 2688 1344 conicto
2688 685 2364 310 conicto
2040 -64 1472 -64 conicto
902 -64 579 310 conicto
256 685 256 1344 conicto
256 2005 579 2378 conicto
902 2752 1472 2752 conicto
end_ol grestore 
gsave 2.278056 10.543391 translate 0.035278 -0.035278 scale
start_ol
2688 1646 moveto
2688 0 lineto
2240 0 lineto
2240 1632 lineto
2240 2001 2093 2184 conicto
1947 2368 1654 2368 conicto
1302 2368 1099 2146 conicto
896 1925 896 1542 conicto
896 0 lineto
448 0 lineto
448 2688 lineto
896 2688 lineto
896 2304 lineto
1053 2529 1266 2640 conicto
1479 2752 1757 2752 conicto
2217 2752 2452 2471 conicto
2688 2191 2688 1646 conicto
end_ol grestore 
gsave 2.682671 10.543391 translate 0.035278 -0.035278 scale
start_ol
1622 1344 moveto
1104 1344 904 1225 conicto
704 1106 704 818 conicto
704 589 854 454 conicto
1004 320 1262 320 conicto
1618 320 1833 572 conicto
2048 825 2048 1244 conicto
2048 1344 lineto
1622 1344 lineto
2496 1513 moveto
2496 0 lineto
2048 0 lineto
2048 384 lineto
1900 154 1679 45 conicto
1458 -64 1138 -64 conicto
733 -64 494 162 conicto
256 389 256 769 conicto
256 1213 555 1438 conicto
854 1664 1448 1664 conicto
2048 1664 lineto
2048 1712 lineto
2048 2025 1851 2196 conicto
1655 2368 1300 2368 conicto
1074 2368 860 2320 conicto
646 2272 448 2176 conicto
448 2560 lineto
687 2656 912 2704 conicto
1138 2752 1351 2752 conicto
1927 2752 2211 2444 conicto
2496 2137 2496 1513 conicto
end_ol grestore 
gsave 3.074800 10.543391 translate 0.035278 -0.035278 scale
start_ol
2549 2204 moveto
2714 2485 2942 2618 conicto
3171 2752 3482 2752 conicto
3899 2752 4125 2464 conicto
4352 2177 4352 1646 conicto
4352 0 lineto
3904 0 lineto
3904 1632 lineto
3904 2006 3769 2187 conicto
3634 2368 3356 2368 conicto
3017 2368 2820 2146 conicto
2624 1925 2624 1542 conicto
2624 0 lineto
2176 0 lineto
2176 1632 lineto
2176 2008 2041 2188 conicto
1906 2368 1624 2368 conicto
1289 2368 1092 2145 conicto
896 1922 896 1542 conicto
896 0 lineto
448 0 lineto
448 2688 lineto
896 2688 lineto
896 2304 lineto
1046 2534 1255 2643 conicto
1465 2752 1753 2752 conicto
2044 2752 2247 2611 conicto
2451 2471 2549 2204 conicto
end_ol grestore 
gsave 3.696711 10.543391 translate 0.035278 -0.035278 scale
start_ol
2752 1480 moveto
2752 1280 lineto
704 1280 lineto
733 811 978 565 conicto
1223 320 1660 320 conicto
1914 320 2152 384 conicto
2390 448 2624 576 conicto
2624 192 lineto
2388 67 2140 1 conicto
1893 -64 1639 -64 conicto
1001 -64 628 309 conicto
256 683 256 1320 conicto
256 1979 613 2365 conicto
970 2752 1576 2752 conicto
2120 2752 2436 2410 conicto
2752 2068 2752 1480 conicto
2304 1600 moveto
2299 1950 2099 2159 conicto
1900 2368 1572 2368 conicto
1200 2368 976 2166 conicto
753 1964 719 1597 conicto
2304 1600 lineto
end_ol grestore 
gsave 4.091337 10.543391 translate 0.035278 -0.035278 scale
start_ol
2688 1646 moveto
2688 0 lineto
2240 0 lineto
2240 1632 lineto
2240 2001 2093 2184 conicto
1947 2368 1654 2368 conicto
1302 2368 1099 2146 conicto
896 1925 896 1542 conicto
896 0 lineto
448 0 lineto
448 2688 lineto
896 2688 lineto
896 2304 lineto
1053 2529 1266 2640 conicto
1479 2752 1757 2752 conicto
2217 2752 2452 2471 conicto
2688 2191 2688 1646 conicto
end_ol grestore 
gsave 4.495951 10.543391 translate 0.035278 -0.035278 scale
start_ol
896 3456 moveto
896 2688 lineto
1792 2688 lineto
1792 2368 lineto
896 2368 lineto
896 902 lineto
896 572 984 478 conicto
1073 384 1345 384 conicto
1792 384 lineto
1792 0 lineto
1345 0 lineto
836 0 642 194 conicto
448 389 448 902 conicto
448 2368 lineto
128 2368 lineto
128 2688 lineto
448 2688 lineto
448 3456 lineto
896 3456 lineto
end_ol grestore 
gsave 4.745718 10.543391 translate 0.035278 -0.035278 scale
start_ol
1473 2368 moveto
1117 2368 910 2094 conicto
704 1820 704 1344 conicto
704 868 909 594 conicto
1115 320 1473 320 conicto
1827 320 2033 595 conicto
2240 870 2240 1344 conicto
2240 1816 2033 2092 conicto
1827 2368 1473 2368 conicto
1472 2752 moveto
2040 2752 2364 2378 conicto
2688 2005 2688 1344 conicto
2688 685 2364 310 conicto
2040 -64 1472 -64 conicto
902 -64 579 310 conicto
256 685 256 1344 conicto
256 2005 579 2378 conicto
902 2752 1472 2752 conicto
end_ol grestore 
showpage
