%!PS-Adobe-2.0 EPSF-2.0
%%Title: /home-03/drhachmann/Documentos/2012/PRM/Final/broker-calculator/tech-report/02/data/log.dia
%%Creator: Dia v0.97.2
%%CreationDate: Mon Nov 19 10:40:24 2012
%%For: drhachmann
%%Orientation: Portrait
%%Magnification: 1.0000
%%BoundingBox: 0 0 1487 303
%%BeginSetup
%%EndSetup
%%EndComments
%%BeginProlog
[ /.notdef /.notdef /.notdef /.notdef /.notdef /.notdef /.notdef /.notdef /.notdef /.notdef
/.notdef /.notdef /.notdef /.notdef /.notdef /.notdef /.notdef /.notdef /.notdef /.notdef
/.notdef /.notdef /.notdef /.notdef /.notdef /.notdef /.notdef /.notdef /.notdef /.notdef
/.notdef /.notdef /space /exclam /quotedbl /numbersign /dollar /percent /ampersand /quoteright
/parenleft /parenright /asterisk /plus /comma /hyphen /period /slash /zero /one
/two /three /four /five /six /seven /eight /nine /colon /semicolon
/less /equal /greater /question /at /A /B /C /D /E
/F /G /H /I /J /K /L /M /N /O
/P /Q /R /S /T /U /V /W /X /Y
/Z /bracketleft /backslash /bracketright /asciicircum /underscore /quoteleft /a /b /c
/d /e /f /g /h /i /j /k /l /m
/n /o /p /q /r /s /t /u /v /w
/x /y /z /braceleft /bar /braceright /asciitilde /.notdef /.notdef /.notdef
/.notdef /.notdef /.notdef /.notdef /.notdef /.notdef /.notdef /.notdef /.notdef /.notdef
/.notdef /.notdef /.notdef /.notdef /.notdef /.notdef /.notdef /.notdef /.notdef /.notdef
/.notdef /.notdef /.notdef /.notdef /.notdef /.notdef /.notdef /.notdef /.notdef /.notdef
/space /exclamdown /cent /sterling /currency /yen /brokenbar /section /dieresis /copyright
/ordfeminine /guillemotleft /logicalnot /hyphen /registered /macron /degree /plusminus /twosuperior /threesuperior
/acute /mu /paragraph /periodcentered /cedilla /onesuperior /ordmasculine /guillemotright /onequarter /onehalf
/threequarters /questiondown /Agrave /Aacute /Acircumflex /Atilde /Adieresis /Aring /AE /Ccedilla
/Egrave /Eacute /Ecircumflex /Edieresis /Igrave /Iacute /Icircumflex /Idieresis /Eth /Ntilde
/Ograve /Oacute /Ocircumflex /Otilde /Odieresis /multiply /Oslash /Ugrave /Uacute /Ucircumflex
/Udieresis /Yacute /Thorn /germandbls /agrave /aacute /acircumflex /atilde /adieresis /aring
/ae /ccedilla /egrave /eacute /ecircumflex /edieresis /igrave /iacute /icircumflex /idieresis
/eth /ntilde /ograve /oacute /ocircumflex /otilde /odieresis /divide /oslash /ugrave
/uacute /ucircumflex /udieresis /yacute /thorn /ydieresis] /isolatin1encoding exch def
/cp {closepath} bind def
/c {curveto} bind def
/f {fill} bind def
/a {arc} bind def
/ef {eofill} bind def
/ex {exch} bind def
/gr {grestore} bind def
/gs {gsave} bind def
/sa {save} bind def
/rs {restore} bind def
/l {lineto} bind def
/m {moveto} bind def
/rm {rmoveto} bind def
/n {newpath} bind def
/s {stroke} bind def
/sh {show} bind def
/slc {setlinecap} bind def
/slj {setlinejoin} bind def
/slw {setlinewidth} bind def
/srgb {setrgbcolor} bind def
/rot {rotate} bind def
/sc {scale} bind def
/sd {setdash} bind def
/ff {findfont} bind def
/sf {setfont} bind def
/scf {scalefont} bind def
/sw {stringwidth pop} bind def
/tr {translate} bind def

/ellipsedict 8 dict def
ellipsedict /mtrx matrix put
/ellipse
{ ellipsedict begin
   /endangle exch def
   /startangle exch def
   /yrad exch def
   /xrad exch def
   /y exch def
   /x exch def   /savematrix mtrx currentmatrix def
   x y tr xrad yrad sc
   0 0 1 startangle endangle arc
   savematrix setmatrix
   end
} def

/mergeprocs {
dup length
3 -1 roll
dup
length
dup
5 1 roll
3 -1 roll
add
array cvx
dup
3 -1 roll
0 exch
putinterval
dup
4 2 roll
putinterval
} bind def
/dpi_x 300 def
/dpi_y 300 def
/conicto {
    /to_y exch def
    /to_x exch def
    /conic_cntrl_y exch def
    /conic_cntrl_x exch def
    currentpoint
    /p0_y exch def
    /p0_x exch def
    /p1_x p0_x conic_cntrl_x p0_x sub 2 3 div mul add def
    /p1_y p0_y conic_cntrl_y p0_y sub 2 3 div mul add def
    /p2_x p1_x to_x p0_x sub 1 3 div mul add def
    /p2_y p1_y to_y p0_y sub 1 3 div mul add def
    p1_x p1_y p2_x p2_y to_x to_y curveto
} bind def
/start_ol { gsave 1.1 dpi_x div dup scale} bind def
/end_ol { closepath fill grestore } bind def
28.346000 -28.346000 scale
-6.599958 -29.628320 translate
%%EndProlog


0.100000 slw
[] 0 sd
[] 0 sd
0 slc
0.000000 0.000000 0.000000 srgb
n 6.650000 21.700000 m 58.443557 21.743620 l s
[] 0 sd
0 slj
0 slc
n 58.818557 21.743935 m 58.318347 21.993514 l 58.443557 21.743620 l 58.318768 21.493514 l ef
n 58.818557 21.743935 m 58.318347 21.993514 l 58.443557 21.743620 l 58.318768 21.493514 l cp s
gsave 6.794746 22.781782 translate 0.035278 -0.035278 scale
start_ol
0 5056 moveto
4288 5056 lineto
4288 4480 lineto
2496 4480 lineto
2496 0 lineto
1792 0 lineto
1792 4480 lineto
0 4480 lineto
0 5056 lineto
end_ol grestore 
gsave 7.199360 22.781782 translate 0.035278 -0.035278 scale
start_ol
3904 2112 moveto
3904 1792 lineto
1024 1792 lineto
1065 1104 1416 744 conicto
1768 384 2395 384 conicto
2758 384 3099 480 conicto
3440 576 3776 768 conicto
3776 192 lineto
3439 36 3084 -46 conicto
2729 -128 2365 -128 conicto
1451 -128 917 415 conicto
384 959 384 1885 conicto
384 2843 887 3405 conicto
1391 3968 2246 3968 conicto
3012 3968 3458 3469 conicto
3904 2970 3904 2112 conicto
3264 2304 moveto
3257 2830 2978 3143 conicto
2699 3456 2239 3456 conicto
1717 3456 1404 3153 conicto
1091 2850 1044 2301 conicto
3264 2304 lineto
end_ol grestore 
gsave 7.766329 22.781782 translate 0.035278 -0.035278 scale
start_ol
3605 3123 moveto
3837 3556 4159 3762 conicto
4482 3968 4918 3968 conicto
5506 3968 5825 3542 conicto
6144 3117 6144 2332 conicto
6144 0 lineto
5504 0 lineto
5504 2312 lineto
5504 2861 5315 3126 conicto
5126 3392 4737 3392 conicto
4263 3392 3987 3068 conicto
3712 2744 3712 2184 conicto
3712 0 lineto
3072 0 lineto
3072 2312 lineto
3072 2864 2883 3128 conicto
2694 3392 2299 3392 conicto
1831 3392 1555 3066 conicto
1280 2740 1280 2184 conicto
1280 0 lineto
640 0 lineto
640 3840 lineto
1280 3840 lineto
1280 3264 lineto
1491 3625 1786 3796 conicto
2081 3968 2486 3968 conicto
2895 3968 3181 3751 conicto
3468 3535 3605 3123 conicto
end_ol grestore 
gsave 8.662986 22.781782 translate 0.035278 -0.035278 scale
start_ol
1280 512 moveto
1280 -1472 lineto
640 -1472 lineto
640 3840 lineto
1280 3840 lineto
1280 3328 lineto
1475 3653 1773 3810 conicto
2072 3968 2486 3968 conicto
3173 3968 3602 3404 conicto
4032 2840 4032 1920 conicto
4032 1000 3602 436 conicto
3173 -128 2486 -128 conicto
2072 -128 1773 29 conicto
1475 187 1280 512 conicto
3392 1920 moveto
3392 2638 3110 3047 conicto
2829 3456 2336 3456 conicto
1843 3456 1561 3047 conicto
1280 2638 1280 1920 conicto
1280 1202 1561 793 conicto
1843 384 2336 384 conicto
2829 384 3110 793 conicto
3392 1202 3392 1920 conicto
end_ol grestore 
gsave 9.247434 22.781782 translate 0.035278 -0.035278 scale
start_ol
2146 3456 moveto
1627 3456 1325 3045 conicto
1024 2635 1024 1920 conicto
1024 1205 1323 794 conicto
1623 384 2146 384 conicto
2661 384 2962 796 conicto
3264 1209 3264 1920 conicto
3264 2628 2962 3042 conicto
2661 3456 2146 3456 conicto
2144 3968 moveto
2966 3968 3435 3424 conicto
3904 2881 3904 1920 conicto
3904 962 3435 417 conicto
2966 -128 2144 -128 conicto
1319 -128 851 417 conicto
384 962 384 1920 conicto
384 2881 851 3424 conicto
1319 3968 2144 3968 conicto
end_ol grestore 
0.100000 slw
[] 0 sd
[] 0 sd
0 slj
1.000000 1.000000 1.000000 srgb
n 9.962357 19.006338 m 9.962357 20.519394 l 18.444642 20.519394 l 18.444642 19.006338 l f
0.000000 0.000000 0.000000 srgb
n 9.962357 19.006338 m 9.962357 20.519394 l 18.444642 20.519394 l 18.444642 19.006338 l cp s
gsave 12.002690 20.004116 translate 0.035278 -0.035278 scale
start_ol
1024 3392 moveto
1024 1984 lineto
1705 1984 lineto
2083 1984 2289 2167 conicto
2496 2350 2496 2689 conicto
2496 3026 2289 3209 conicto
2083 3392 1705 3392 conicto
1024 3392 lineto
512 3840 moveto
1705 3840 lineto
2349 3840 2678 3547 conicto
3008 3254 3008 2689 conicto
3008 2119 2678 1827 conicto
2349 1536 1705 1536 conicto
1024 1536 lineto
1024 0 lineto
512 0 lineto
512 3840 lineto
end_ol grestore 
gsave 12.409810 20.004116 translate 0.035278 -0.035278 scale
start_ol
2112 2432 moveto
2032 2498 1937 2529 conicto
1843 2560 1730 2560 conicto
1327 2560 1111 2290 conicto
896 2021 896 1517 conicto
896 0 lineto
448 0 lineto
448 2880 lineto
896 2880 lineto
896 2432 lineto
1046 2692 1286 2818 conicto
1526 2944 1869 2944 conicto
1918 2944 1977 2944 conicto
2037 2944 2109 2944 conicto
2112 2432 lineto
end_ol grestore 
gsave 12.682049 20.004116 translate 0.035278 -0.035278 scale
start_ol
1633 2560 moveto
1263 2560 1047 2260 conicto
832 1961 832 1440 conicto
832 919 1046 619 conicto
1260 320 1633 320 conicto
2001 320 2216 620 conicto
2432 921 2432 1440 conicto
2432 1956 2216 2258 conicto
2001 2560 1633 2560 conicto
1632 2944 moveto
2245 2944 2594 2545 conicto
2944 2146 2944 1440 conicto
2944 737 2594 336 conicto
2245 -64 1632 -64 conicto
1017 -64 668 336 conicto
320 737 320 1440 conicto
320 2146 668 2545 conicto
1017 2944 1632 2944 conicto
end_ol grestore 
gsave 13.109145 20.004116 translate 0.035278 -0.035278 scale
start_ol
2560 2816 moveto
2560 2368 lineto
2365 2464 2169 2512 conicto
1973 2560 1773 2560 conicto
1326 2560 1079 2265 conicto
832 1971 832 1440 conicto
832 909 1079 614 conicto
1326 320 1773 320 conicto
1973 320 2169 368 conicto
2365 416 2560 512 conicto
2560 64 lineto
2365 0 2156 -32 conicto
1948 -64 1713 -64 conicto
1073 -64 696 342 conicto
320 749 320 1440 conicto
320 2141 700 2542 conicto
1081 2944 1743 2944 conicto
1958 2944 2163 2912 conicto
2368 2880 2560 2816 conicto
end_ol grestore 
gsave 13.491286 20.004116 translate 0.035278 -0.035278 scale
start_ol
3008 1584 moveto
3008 1344 lineto
832 1344 lineto
863 844 1124 582 conicto
1385 320 1852 320 conicto
2123 320 2376 384 conicto
2630 448 2880 576 conicto
2880 128 lineto
2625 34 2357 -15 conicto
2090 -64 1815 -64 conicto
1125 -64 722 335 conicto
320 734 320 1414 conicto
320 2118 704 2531 conicto
1089 2944 1742 2944 conicto
2327 2944 2667 2578 conicto
3008 2212 3008 1584 conicto
2560 1728 moveto
2555 2108 2339 2334 conicto
2124 2560 1769 2560 conicto
1367 2560 1126 2341 conicto
885 2123 848 1726 conicto
2560 1728 lineto
end_ol grestore 
gsave 13.920878 20.004116 translate 0.035278 -0.035278 scale
start_ol
2368 2816 moveto
2368 2368 lineto
2163 2464 1943 2512 conicto
1723 2560 1487 2560 conicto
1127 2560 947 2452 conicto
768 2344 768 2128 conicto
768 1963 898 1869 conicto
1029 1775 1423 1690 conicto
1590 1653 lineto
2082 1545 2289 1349 conicto
2496 1153 2496 802 conicto
2496 402 2182 169 conicto
1868 -64 1319 -64 conicto
1090 -64 842 -32 conicto
595 0 320 64 conicto
320 576 lineto
584 448 840 384 conicto
1097 320 1349 320 conicto
1685 320 1866 434 conicto
2048 548 2048 756 conicto
2048 949 1913 1051 conicto
1779 1154 1324 1249 conicto
1154 1288 lineto
712 1380 516 1571 conicto
320 1763 320 2097 conicto
320 2502 611 2723 conicto
902 2944 1438 2944 conicto
1703 2944 1936 2912 conicto
2170 2880 2368 2816 conicto
end_ol grestore 
gsave 14.283035 20.004116 translate 0.035278 -0.035278 scale
start_ol
2368 2816 moveto
2368 2368 lineto
2163 2464 1943 2512 conicto
1723 2560 1487 2560 conicto
1127 2560 947 2452 conicto
768 2344 768 2128 conicto
768 1963 898 1869 conicto
1029 1775 1423 1690 conicto
1590 1653 lineto
2082 1545 2289 1349 conicto
2496 1153 2496 802 conicto
2496 402 2182 169 conicto
1868 -64 1319 -64 conicto
1090 -64 842 -32 conicto
595 0 320 64 conicto
320 576 lineto
584 448 840 384 conicto
1097 320 1349 320 conicto
1685 320 1866 434 conicto
2048 548 2048 756 conicto
2048 949 1913 1051 conicto
1779 1154 1324 1249 conicto
1154 1288 lineto
712 1380 516 1571 conicto
320 1763 320 2097 conicto
320 2502 611 2723 conicto
902 2944 1438 2944 conicto
1703 2944 1936 2912 conicto
2170 2880 2368 2816 conicto
end_ol grestore 
gsave 14.645192 20.004116 translate 0.035278 -0.035278 scale
start_ol
1818 1408 moveto
1225 1408 996 1281 conicto
768 1155 768 849 conicto
768 606 939 463 conicto
1111 320 1406 320 conicto
1812 320 2058 590 conicto
2304 860 2304 1308 conicto
2304 1408 lineto
1818 1408 lineto
2752 1611 moveto
2752 0 lineto
2304 0 lineto
2304 448 lineto
2140 186 1895 61 conicto
1650 -64 1296 -64 conicto
849 -64 584 179 conicto
320 423 320 831 conicto
320 1308 646 1550 conicto
972 1792 1618 1792 conicto
2304 1792 lineto
2304 1840 lineto
2304 2184 2084 2372 conicto
1864 2560 1466 2560 conicto
1213 2560 973 2496 conicto
733 2432 512 2304 conicto
512 2752 lineto
774 2848 1020 2896 conicto
1266 2944 1500 2944 conicto
2130 2944 2441 2613 conicto
2752 2283 2752 1611 conicto
end_ol grestore 
gsave 15.072287 20.004116 translate 0.035278 -0.035278 scale
start_ol
2677 2327 moveto
2853 2643 3098 2793 conicto
3344 2944 3676 2944 conicto
4123 2944 4365 2630 conicto
4608 2317 4608 1738 conicto
4608 0 lineto
4160 0 lineto
4160 1722 lineto
4160 2148 4011 2354 conicto
3863 2560 3558 2560 conicto
3185 2560 2968 2309 conicto
2752 2059 2752 1627 conicto
2752 0 lineto
2304 0 lineto
2304 1722 lineto
2304 2150 2155 2355 conicto
2007 2560 1696 2560 conicto
1329 2560 1112 2308 conicto
896 2057 896 1627 conicto
896 0 lineto
448 0 lineto
448 2880 lineto
896 2880 lineto
896 2432 lineto
1058 2694 1283 2819 conicto
1509 2944 1820 2944 conicto
2133 2944 2352 2786 conicto
2572 2628 2677 2327 conicto
end_ol grestore 
gsave 15.751646 20.004116 translate 0.035278 -0.035278 scale
start_ol
3008 1584 moveto
3008 1344 lineto
832 1344 lineto
863 844 1124 582 conicto
1385 320 1852 320 conicto
2123 320 2376 384 conicto
2630 448 2880 576 conicto
2880 128 lineto
2625 34 2357 -15 conicto
2090 -64 1815 -64 conicto
1125 -64 722 335 conicto
320 734 320 1414 conicto
320 2118 704 2531 conicto
1089 2944 1742 2944 conicto
2327 2944 2667 2578 conicto
3008 2212 3008 1584 conicto
2560 1728 moveto
2555 2108 2339 2334 conicto
2124 2560 1769 2560 conicto
1367 2560 1126 2341 conicto
885 2123 848 1726 conicto
2560 1728 lineto
end_ol grestore 
gsave 16.181238 20.004116 translate 0.035278 -0.035278 scale
start_ol
2880 1738 moveto
2880 0 lineto
2432 0 lineto
2432 1722 lineto
2432 2142 2264 2351 conicto
2097 2560 1763 2560 conicto
1360 2560 1128 2309 conicto
896 2059 896 1627 conicto
896 0 lineto
448 0 lineto
448 2880 lineto
896 2880 lineto
896 2432 lineto
1070 2689 1306 2816 conicto
1542 2944 1850 2944 conicto
2358 2944 2619 2638 conicto
2880 2332 2880 1738 conicto
end_ol grestore 
gsave 16.623324 20.004116 translate 0.035278 -0.035278 scale
start_ol
896 3712 moveto
896 2880 lineto
1856 2880 lineto
1856 2496 lineto
896 2496 lineto
896 936 lineto
896 584 991 484 conicto
1086 384 1377 384 conicto
1856 384 lineto
1856 0 lineto
1377 0 lineto
849 0 648 201 conicto
448 403 448 936 conicto
448 2496 lineto
128 2496 lineto
128 2880 lineto
448 2880 lineto
448 3712 lineto
896 3712 lineto
end_ol grestore 
gsave 16.895564 20.004116 translate 0.035278 -0.035278 scale
start_ol
1633 2560 moveto
1263 2560 1047 2260 conicto
832 1961 832 1440 conicto
832 919 1046 619 conicto
1260 320 1633 320 conicto
2001 320 2216 620 conicto
2432 921 2432 1440 conicto
2432 1956 2216 2258 conicto
2001 2560 1633 2560 conicto
1632 2944 moveto
2245 2944 2594 2545 conicto
2944 2146 2944 1440 conicto
2944 737 2594 336 conicto
2245 -64 1632 -64 conicto
1017 -64 668 336 conicto
320 737 320 1440 conicto
320 2146 668 2545 conicto
1017 2944 1632 2944 conicto
end_ol grestore 
0.100000 slw
[] 0 sd
[] 0 sd
0 slj
1.000000 1.000000 1.000000 srgb
n 18.435037 19.006338 m 18.435037 20.519394 l 29.540388 20.519394 l 29.540388 19.006338 l f
0.000000 0.000000 0.000000 srgb
n 18.435037 19.006338 m 18.435037 20.519394 l 29.540388 20.519394 l 29.540388 19.006338 l cp s
gsave 21.300674 20.004116 translate 0.035278 -0.035278 scale
start_ol
1024 3392 moveto
1024 1984 lineto
1705 1984 lineto
2083 1984 2289 2167 conicto
2496 2350 2496 2689 conicto
2496 3026 2289 3209 conicto
2083 3392 1705 3392 conicto
1024 3392 lineto
512 3840 moveto
1705 3840 lineto
2349 3840 2678 3547 conicto
3008 3254 3008 2689 conicto
3008 2119 2678 1827 conicto
2349 1536 1705 1536 conicto
1024 1536 lineto
1024 0 lineto
512 0 lineto
512 3840 lineto
end_ol grestore 
gsave 21.707793 20.004116 translate 0.035278 -0.035278 scale
start_ol
2112 2432 moveto
2032 2498 1937 2529 conicto
1843 2560 1730 2560 conicto
1327 2560 1111 2290 conicto
896 2021 896 1517 conicto
896 0 lineto
448 0 lineto
448 2880 lineto
896 2880 lineto
896 2432 lineto
1046 2692 1286 2818 conicto
1526 2944 1869 2944 conicto
1918 2944 1977 2944 conicto
2037 2944 2109 2944 conicto
2112 2432 lineto
end_ol grestore 
gsave 21.980033 20.004116 translate 0.035278 -0.035278 scale
start_ol
1633 2560 moveto
1263 2560 1047 2260 conicto
832 1961 832 1440 conicto
832 919 1046 619 conicto
1260 320 1633 320 conicto
2001 320 2216 620 conicto
2432 921 2432 1440 conicto
2432 1956 2216 2258 conicto
2001 2560 1633 2560 conicto
1632 2944 moveto
2245 2944 2594 2545 conicto
2944 2146 2944 1440 conicto
2944 737 2594 336 conicto
2245 -64 1632 -64 conicto
1017 -64 668 336 conicto
320 737 320 1440 conicto
320 2146 668 2545 conicto
1017 2944 1632 2944 conicto
end_ol grestore 
gsave 22.407128 20.004116 translate 0.035278 -0.035278 scale
start_ol
2560 2816 moveto
2560 2368 lineto
2365 2464 2169 2512 conicto
1973 2560 1773 2560 conicto
1326 2560 1079 2265 conicto
832 1971 832 1440 conicto
832 909 1079 614 conicto
1326 320 1773 320 conicto
1973 320 2169 368 conicto
2365 416 2560 512 conicto
2560 64 lineto
2365 0 2156 -32 conicto
1948 -64 1713 -64 conicto
1073 -64 696 342 conicto
320 749 320 1440 conicto
320 2141 700 2542 conicto
1081 2944 1743 2944 conicto
1958 2944 2163 2912 conicto
2368 2880 2560 2816 conicto
end_ol grestore 
gsave 22.789269 20.004116 translate 0.035278 -0.035278 scale
start_ol
3008 1584 moveto
3008 1344 lineto
832 1344 lineto
863 844 1124 582 conicto
1385 320 1852 320 conicto
2123 320 2376 384 conicto
2630 448 2880 576 conicto
2880 128 lineto
2625 34 2357 -15 conicto
2090 -64 1815 -64 conicto
1125 -64 722 335 conicto
320 734 320 1414 conicto
320 2118 704 2531 conicto
1089 2944 1742 2944 conicto
2327 2944 2667 2578 conicto
3008 2212 3008 1584 conicto
2560 1728 moveto
2555 2108 2339 2334 conicto
2124 2560 1769 2560 conicto
1367 2560 1126 2341 conicto
885 2123 848 1726 conicto
2560 1728 lineto
end_ol grestore 
gsave 23.218862 20.004116 translate 0.035278 -0.035278 scale
start_ol
2368 2816 moveto
2368 2368 lineto
2163 2464 1943 2512 conicto
1723 2560 1487 2560 conicto
1127 2560 947 2452 conicto
768 2344 768 2128 conicto
768 1963 898 1869 conicto
1029 1775 1423 1690 conicto
1590 1653 lineto
2082 1545 2289 1349 conicto
2496 1153 2496 802 conicto
2496 402 2182 169 conicto
1868 -64 1319 -64 conicto
1090 -64 842 -32 conicto
595 0 320 64 conicto
320 576 lineto
584 448 840 384 conicto
1097 320 1349 320 conicto
1685 320 1866 434 conicto
2048 548 2048 756 conicto
2048 949 1913 1051 conicto
1779 1154 1324 1249 conicto
1154 1288 lineto
712 1380 516 1571 conicto
320 1763 320 2097 conicto
320 2502 611 2723 conicto
902 2944 1438 2944 conicto
1703 2944 1936 2912 conicto
2170 2880 2368 2816 conicto
end_ol grestore 
gsave 23.581018 20.004116 translate 0.035278 -0.035278 scale
start_ol
2368 2816 moveto
2368 2368 lineto
2163 2464 1943 2512 conicto
1723 2560 1487 2560 conicto
1127 2560 947 2452 conicto
768 2344 768 2128 conicto
768 1963 898 1869 conicto
1029 1775 1423 1690 conicto
1590 1653 lineto
2082 1545 2289 1349 conicto
2496 1153 2496 802 conicto
2496 402 2182 169 conicto
1868 -64 1319 -64 conicto
1090 -64 842 -32 conicto
595 0 320 64 conicto
320 576 lineto
584 448 840 384 conicto
1097 320 1349 320 conicto
1685 320 1866 434 conicto
2048 548 2048 756 conicto
2048 949 1913 1051 conicto
1779 1154 1324 1249 conicto
1154 1288 lineto
712 1380 516 1571 conicto
320 1763 320 2097 conicto
320 2502 611 2723 conicto
902 2944 1438 2944 conicto
1703 2944 1936 2912 conicto
2170 2880 2368 2816 conicto
end_ol grestore 
gsave 23.943175 20.004116 translate 0.035278 -0.035278 scale
start_ol
1818 1408 moveto
1225 1408 996 1281 conicto
768 1155 768 849 conicto
768 606 939 463 conicto
1111 320 1406 320 conicto
1812 320 2058 590 conicto
2304 860 2304 1308 conicto
2304 1408 lineto
1818 1408 lineto
2752 1611 moveto
2752 0 lineto
2304 0 lineto
2304 448 lineto
2140 186 1895 61 conicto
1650 -64 1296 -64 conicto
849 -64 584 179 conicto
320 423 320 831 conicto
320 1308 646 1550 conicto
972 1792 1618 1792 conicto
2304 1792 lineto
2304 1840 lineto
2304 2184 2084 2372 conicto
1864 2560 1466 2560 conicto
1213 2560 973 2496 conicto
733 2432 512 2304 conicto
512 2752 lineto
774 2848 1020 2896 conicto
1266 2944 1500 2944 conicto
2130 2944 2441 2613 conicto
2752 2283 2752 1611 conicto
end_ol grestore 
gsave 24.370270 20.004116 translate 0.035278 -0.035278 scale
start_ol
2677 2327 moveto
2853 2643 3098 2793 conicto
3344 2944 3676 2944 conicto
4123 2944 4365 2630 conicto
4608 2317 4608 1738 conicto
4608 0 lineto
4160 0 lineto
4160 1722 lineto
4160 2148 4011 2354 conicto
3863 2560 3558 2560 conicto
3185 2560 2968 2309 conicto
2752 2059 2752 1627 conicto
2752 0 lineto
2304 0 lineto
2304 1722 lineto
2304 2150 2155 2355 conicto
2007 2560 1696 2560 conicto
1329 2560 1112 2308 conicto
896 2057 896 1627 conicto
896 0 lineto
448 0 lineto
448 2880 lineto
896 2880 lineto
896 2432 lineto
1058 2694 1283 2819 conicto
1509 2944 1820 2944 conicto
2133 2944 2352 2786 conicto
2572 2628 2677 2327 conicto
end_ol grestore 
gsave 25.049629 20.004116 translate 0.035278 -0.035278 scale
start_ol
3008 1584 moveto
3008 1344 lineto
832 1344 lineto
863 844 1124 582 conicto
1385 320 1852 320 conicto
2123 320 2376 384 conicto
2630 448 2880 576 conicto
2880 128 lineto
2625 34 2357 -15 conicto
2090 -64 1815 -64 conicto
1125 -64 722 335 conicto
320 734 320 1414 conicto
320 2118 704 2531 conicto
1089 2944 1742 2944 conicto
2327 2944 2667 2578 conicto
3008 2212 3008 1584 conicto
2560 1728 moveto
2555 2108 2339 2334 conicto
2124 2560 1769 2560 conicto
1367 2560 1126 2341 conicto
885 2123 848 1726 conicto
2560 1728 lineto
end_ol grestore 
gsave 25.479222 20.004116 translate 0.035278 -0.035278 scale
start_ol
2880 1738 moveto
2880 0 lineto
2432 0 lineto
2432 1722 lineto
2432 2142 2264 2351 conicto
2097 2560 1763 2560 conicto
1360 2560 1128 2309 conicto
896 2059 896 1627 conicto
896 0 lineto
448 0 lineto
448 2880 lineto
896 2880 lineto
896 2432 lineto
1070 2689 1306 2816 conicto
1542 2944 1850 2944 conicto
2358 2944 2619 2638 conicto
2880 2332 2880 1738 conicto
end_ol grestore 
gsave 25.921308 20.004116 translate 0.035278 -0.035278 scale
start_ol
896 3712 moveto
896 2880 lineto
1856 2880 lineto
1856 2496 lineto
896 2496 lineto
896 936 lineto
896 584 991 484 conicto
1086 384 1377 384 conicto
1856 384 lineto
1856 0 lineto
1377 0 lineto
849 0 648 201 conicto
448 403 448 936 conicto
448 2496 lineto
128 2496 lineto
128 2880 lineto
448 2880 lineto
448 3712 lineto
896 3712 lineto
end_ol grestore 
gsave 26.193547 20.004116 translate 0.035278 -0.035278 scale
start_ol
1633 2560 moveto
1263 2560 1047 2260 conicto
832 1961 832 1440 conicto
832 919 1046 619 conicto
1260 320 1633 320 conicto
2001 320 2216 620 conicto
2432 921 2432 1440 conicto
2432 1956 2216 2258 conicto
2001 2560 1633 2560 conicto
1632 2944 moveto
2245 2944 2594 2545 conicto
2944 2146 2944 1440 conicto
2944 737 2594 336 conicto
2245 -64 1632 -64 conicto
1017 -64 668 336 conicto
320 737 320 1440 conicto
320 2146 668 2545 conicto
1017 2944 1632 2944 conicto
end_ol grestore 
0.100000 slw
[] 0 sd
[] 0 sd
0 slj
1.000000 1.000000 1.000000 srgb
n 18.389187 22.284627 m 18.389187 23.797683 l 26.789377 23.797683 l 26.789377 22.284627 l f
0.000000 0.000000 0.000000 srgb
n 18.389187 22.284627 m 18.389187 23.797683 l 26.789377 23.797683 l 26.789377 22.284627 l cp s
gsave 20.200269 23.282405 translate 0.035278 -0.035278 scale
start_ol
0 3840 moveto
3200 3840 lineto
3200 3392 lineto
1856 3392 lineto
1856 0 lineto
1344 0 lineto
1344 3392 lineto
0 3392 lineto
0 3840 lineto
end_ol grestore 
gsave 20.522466 23.282405 translate 0.035278 -0.035278 scale
start_ol
2112 2432 moveto
2032 2498 1937 2529 conicto
1843 2560 1730 2560 conicto
1327 2560 1111 2290 conicto
896 2021 896 1517 conicto
896 0 lineto
448 0 lineto
448 2880 lineto
896 2880 lineto
896 2432 lineto
1046 2692 1286 2818 conicto
1526 2944 1869 2944 conicto
1918 2944 1977 2944 conicto
2037 2944 2109 2944 conicto
2112 2432 lineto
end_ol grestore 
gsave 20.809696 23.282405 translate 0.035278 -0.035278 scale
start_ol
1818 1408 moveto
1225 1408 996 1281 conicto
768 1155 768 849 conicto
768 606 939 463 conicto
1111 320 1406 320 conicto
1812 320 2058 590 conicto
2304 860 2304 1308 conicto
2304 1408 lineto
1818 1408 lineto
2752 1611 moveto
2752 0 lineto
2304 0 lineto
2304 448 lineto
2140 186 1895 61 conicto
1650 -64 1296 -64 conicto
849 -64 584 179 conicto
320 423 320 831 conicto
320 1308 646 1550 conicto
972 1792 1618 1792 conicto
2304 1792 lineto
2304 1840 lineto
2304 2184 2084 2372 conicto
1864 2560 1466 2560 conicto
1213 2560 973 2496 conicto
733 2432 512 2304 conicto
512 2752 lineto
774 2848 1020 2896 conicto
1266 2944 1500 2944 conicto
2130 2944 2441 2613 conicto
2752 2283 2752 1611 conicto
end_ol grestore 
gsave 21.236791 23.282405 translate 0.035278 -0.035278 scale
start_ol
2880 1738 moveto
2880 0 lineto
2432 0 lineto
2432 1722 lineto
2432 2142 2264 2351 conicto
2097 2560 1763 2560 conicto
1360 2560 1128 2309 conicto
896 2059 896 1627 conicto
896 0 lineto
448 0 lineto
448 2880 lineto
896 2880 lineto
896 2432 lineto
1070 2689 1306 2816 conicto
1542 2944 1850 2944 conicto
2358 2944 2619 2638 conicto
2880 2332 2880 1738 conicto
end_ol grestore 
gsave 21.678877 23.282405 translate 0.035278 -0.035278 scale
start_ol
2368 2816 moveto
2368 2368 lineto
2163 2464 1943 2512 conicto
1723 2560 1487 2560 conicto
1127 2560 947 2452 conicto
768 2344 768 2128 conicto
768 1963 898 1869 conicto
1029 1775 1423 1690 conicto
1590 1653 lineto
2082 1545 2289 1349 conicto
2496 1153 2496 802 conicto
2496 402 2182 169 conicto
1868 -64 1319 -64 conicto
1090 -64 842 -32 conicto
595 0 320 64 conicto
320 576 lineto
584 448 840 384 conicto
1097 320 1349 320 conicto
1685 320 1866 434 conicto
2048 548 2048 756 conicto
2048 949 1913 1051 conicto
1779 1154 1324 1249 conicto
1154 1288 lineto
712 1380 516 1571 conicto
320 1763 320 2097 conicto
320 2502 611 2723 conicto
902 2944 1438 2944 conicto
1703 2944 1936 2912 conicto
2170 2880 2368 2816 conicto
end_ol grestore 
gsave 22.041033 23.282405 translate 0.035278 -0.035278 scale
start_ol
2677 2327 moveto
2853 2643 3098 2793 conicto
3344 2944 3676 2944 conicto
4123 2944 4365 2630 conicto
4608 2317 4608 1738 conicto
4608 0 lineto
4160 0 lineto
4160 1722 lineto
4160 2148 4011 2354 conicto
3863 2560 3558 2560 conicto
3185 2560 2968 2309 conicto
2752 2059 2752 1627 conicto
2752 0 lineto
2304 0 lineto
2304 1722 lineto
2304 2150 2155 2355 conicto
2007 2560 1696 2560 conicto
1329 2560 1112 2308 conicto
896 2057 896 1627 conicto
896 0 lineto
448 0 lineto
448 2880 lineto
896 2880 lineto
896 2432 lineto
1058 2694 1283 2819 conicto
1509 2944 1820 2944 conicto
2133 2944 2352 2786 conicto
2572 2628 2677 2327 conicto
end_ol grestore 
gsave 22.720392 23.282405 translate 0.035278 -0.035278 scale
start_ol
448 2880 moveto
896 2880 lineto
896 0 lineto
448 0 lineto
448 2880 lineto
448 3968 moveto
896 3968 lineto
896 3392 lineto
448 3392 lineto
448 3968 lineto
end_ol grestore 
gsave 22.915208 23.282405 translate 0.035278 -0.035278 scale
start_ol
2368 2816 moveto
2368 2368 lineto
2163 2464 1943 2512 conicto
1723 2560 1487 2560 conicto
1127 2560 947 2452 conicto
768 2344 768 2128 conicto
768 1963 898 1869 conicto
1029 1775 1423 1690 conicto
1590 1653 lineto
2082 1545 2289 1349 conicto
2496 1153 2496 802 conicto
2496 402 2182 169 conicto
1868 -64 1319 -64 conicto
1090 -64 842 -32 conicto
595 0 320 64 conicto
320 576 lineto
584 448 840 384 conicto
1097 320 1349 320 conicto
1685 320 1866 434 conicto
2048 548 2048 756 conicto
2048 949 1913 1051 conicto
1779 1154 1324 1249 conicto
1154 1288 lineto
712 1380 516 1571 conicto
320 1763 320 2097 conicto
320 2502 611 2723 conicto
902 2944 1438 2944 conicto
1703 2944 1936 2912 conicto
2170 2880 2368 2816 conicto
end_ol grestore 
gsave 23.277365 23.282405 translate 0.035278 -0.035278 scale
start_ol
2368 2816 moveto
2368 2368 lineto
2163 2464 1943 2512 conicto
1723 2560 1487 2560 conicto
1127 2560 947 2452 conicto
768 2344 768 2128 conicto
768 1963 898 1869 conicto
1029 1775 1423 1690 conicto
1590 1653 lineto
2082 1545 2289 1349 conicto
2496 1153 2496 802 conicto
2496 402 2182 169 conicto
1868 -64 1319 -64 conicto
1090 -64 842 -32 conicto
595 0 320 64 conicto
320 576 lineto
584 448 840 384 conicto
1097 320 1349 320 conicto
1685 320 1866 434 conicto
2048 548 2048 756 conicto
2048 949 1913 1051 conicto
1779 1154 1324 1249 conicto
1154 1288 lineto
712 1380 516 1571 conicto
320 1763 320 2097 conicto
320 2502 611 2723 conicto
902 2944 1438 2944 conicto
1703 2944 1936 2912 conicto
2170 2880 2368 2816 conicto
end_ol grestore 
gsave 23.639522 23.282405 translate 0.035278 -0.035278 scale
start_ol
1818 1408 moveto
1225 1408 996 1281 conicto
768 1155 768 849 conicto
768 606 939 463 conicto
1111 320 1406 320 conicto
1812 320 2058 590 conicto
2304 860 2304 1308 conicto
2304 1408 lineto
1818 1408 lineto
2752 1611 moveto
2752 0 lineto
2304 0 lineto
2304 448 lineto
2140 186 1895 61 conicto
1650 -64 1296 -64 conicto
849 -64 584 179 conicto
320 423 320 831 conicto
320 1308 646 1550 conicto
972 1792 1618 1792 conicto
2304 1792 lineto
2304 1840 lineto
2304 2184 2084 2372 conicto
1864 2560 1466 2560 conicto
1213 2560 973 2496 conicto
733 2432 512 2304 conicto
512 2752 lineto
774 2848 1020 2896 conicto
1266 2944 1500 2944 conicto
2130 2944 2441 2613 conicto
2752 2283 2752 1611 conicto
1526 3546 moveto
1384 3684 lineto
1329 3731 1288 3753 conicto
1247 3776 1214 3776 conicto
1119 3776 1074 3685 conicto
1029 3595 1024 3392 conicto
704 3392 lineto
709 3729 837 3912 conicto
966 4096 1196 4096 conicto
1291 4096 1372 4060 conicto
1453 4025 1546 3942 conicto
1688 3804 lineto
1743 3757 1784 3734 conicto
1826 3712 1858 3712 conicto
1953 3712 1998 3802 conicto
2043 3893 2048 4096 conicto
2368 4096 lineto
2363 3759 2234 3575 conicto
2106 3392 1876 3392 conicto
1781 3392 1700 3427 conicto
1619 3463 1526 3546 conicto
end_ol grestore 
gsave 24.066617 23.282405 translate 0.035278 -0.035278 scale
start_ol
1633 2560 moveto
1263 2560 1047 2260 conicto
832 1961 832 1440 conicto
832 919 1046 619 conicto
1260 320 1633 320 conicto
2001 320 2216 620 conicto
2432 921 2432 1440 conicto
2432 1956 2216 2258 conicto
2001 2560 1633 2560 conicto
1632 2944 moveto
2245 2944 2594 2545 conicto
2944 2146 2944 1440 conicto
2944 737 2594 336 conicto
2245 -64 1632 -64 conicto
1017 -64 668 336 conicto
320 737 320 1440 conicto
320 2146 668 2545 conicto
1017 2944 1632 2944 conicto
end_ol grestore 
0.100000 slw
[] 0 sd
[] 0 sd
0 slj
1.000000 1.000000 1.000000 srgb
n 29.576633 22.284627 m 29.576633 23.797683 l 34.904861 23.797683 l 34.904861 22.284627 l f
0.000000 0.000000 0.000000 srgb
n 29.576633 22.284627 m 29.576633 23.797683 l 34.904861 23.797683 l 34.904861 22.284627 l cp s
gsave 30.201937 23.282405 translate 0.035278 -0.035278 scale
start_ol
0 3840 moveto
3200 3840 lineto
3200 3392 lineto
1856 3392 lineto
1856 0 lineto
1344 0 lineto
1344 3392 lineto
0 3392 lineto
0 3840 lineto
end_ol grestore 
gsave 30.524133 23.282405 translate 0.035278 -0.035278 scale
start_ol
2112 2432 moveto
2032 2498 1937 2529 conicto
1843 2560 1730 2560 conicto
1327 2560 1111 2290 conicto
896 2021 896 1517 conicto
896 0 lineto
448 0 lineto
448 2880 lineto
896 2880 lineto
896 2432 lineto
1046 2692 1286 2818 conicto
1526 2944 1869 2944 conicto
1918 2944 1977 2944 conicto
2037 2944 2109 2944 conicto
2112 2432 lineto
end_ol grestore 
gsave 30.811363 23.282405 translate 0.035278 -0.035278 scale
start_ol
1818 1408 moveto
1225 1408 996 1281 conicto
768 1155 768 849 conicto
768 606 939 463 conicto
1111 320 1406 320 conicto
1812 320 2058 590 conicto
2304 860 2304 1308 conicto
2304 1408 lineto
1818 1408 lineto
2752 1611 moveto
2752 0 lineto
2304 0 lineto
2304 448 lineto
2140 186 1895 61 conicto
1650 -64 1296 -64 conicto
849 -64 584 179 conicto
320 423 320 831 conicto
320 1308 646 1550 conicto
972 1792 1618 1792 conicto
2304 1792 lineto
2304 1840 lineto
2304 2184 2084 2372 conicto
1864 2560 1466 2560 conicto
1213 2560 973 2496 conicto
733 2432 512 2304 conicto
512 2752 lineto
774 2848 1020 2896 conicto
1266 2944 1500 2944 conicto
2130 2944 2441 2613 conicto
2752 2283 2752 1611 conicto
end_ol grestore 
gsave 31.238459 23.282405 translate 0.035278 -0.035278 scale
start_ol
2880 1738 moveto
2880 0 lineto
2432 0 lineto
2432 1722 lineto
2432 2142 2264 2351 conicto
2097 2560 1763 2560 conicto
1360 2560 1128 2309 conicto
896 2059 896 1627 conicto
896 0 lineto
448 0 lineto
448 2880 lineto
896 2880 lineto
896 2432 lineto
1070 2689 1306 2816 conicto
1542 2944 1850 2944 conicto
2358 2944 2619 2638 conicto
2880 2332 2880 1738 conicto
end_ol grestore 
gsave 31.680544 23.282405 translate 0.035278 -0.035278 scale
start_ol
2368 2816 moveto
2368 2368 lineto
2163 2464 1943 2512 conicto
1723 2560 1487 2560 conicto
1127 2560 947 2452 conicto
768 2344 768 2128 conicto
768 1963 898 1869 conicto
1029 1775 1423 1690 conicto
1590 1653 lineto
2082 1545 2289 1349 conicto
2496 1153 2496 802 conicto
2496 402 2182 169 conicto
1868 -64 1319 -64 conicto
1090 -64 842 -32 conicto
595 0 320 64 conicto
320 576 lineto
584 448 840 384 conicto
1097 320 1349 320 conicto
1685 320 1866 434 conicto
2048 548 2048 756 conicto
2048 949 1913 1051 conicto
1779 1154 1324 1249 conicto
1154 1288 lineto
712 1380 516 1571 conicto
320 1763 320 2097 conicto
320 2502 611 2723 conicto
902 2944 1438 2944 conicto
1703 2944 1936 2912 conicto
2170 2880 2368 2816 conicto
end_ol grestore 
gsave 32.042701 23.282405 translate 0.035278 -0.035278 scale
start_ol
2677 2327 moveto
2853 2643 3098 2793 conicto
3344 2944 3676 2944 conicto
4123 2944 4365 2630 conicto
4608 2317 4608 1738 conicto
4608 0 lineto
4160 0 lineto
4160 1722 lineto
4160 2148 4011 2354 conicto
3863 2560 3558 2560 conicto
3185 2560 2968 2309 conicto
2752 2059 2752 1627 conicto
2752 0 lineto
2304 0 lineto
2304 1722 lineto
2304 2150 2155 2355 conicto
2007 2560 1696 2560 conicto
1329 2560 1112 2308 conicto
896 2057 896 1627 conicto
896 0 lineto
448 0 lineto
448 2880 lineto
896 2880 lineto
896 2432 lineto
1058 2694 1283 2819 conicto
1509 2944 1820 2944 conicto
2133 2944 2352 2786 conicto
2572 2628 2677 2327 conicto
end_ol grestore 
gsave 32.722060 23.282405 translate 0.035278 -0.035278 scale
start_ol
448 2880 moveto
896 2880 lineto
896 0 lineto
448 0 lineto
448 2880 lineto
448 3968 moveto
896 3968 lineto
896 3392 lineto
448 3392 lineto
448 3968 lineto
end_ol grestore 
gsave 32.916876 23.282405 translate 0.035278 -0.035278 scale
start_ol
2368 2816 moveto
2368 2368 lineto
2163 2464 1943 2512 conicto
1723 2560 1487 2560 conicto
1127 2560 947 2452 conicto
768 2344 768 2128 conicto
768 1963 898 1869 conicto
1029 1775 1423 1690 conicto
1590 1653 lineto
2082 1545 2289 1349 conicto
2496 1153 2496 802 conicto
2496 402 2182 169 conicto
1868 -64 1319 -64 conicto
1090 -64 842 -32 conicto
595 0 320 64 conicto
320 576 lineto
584 448 840 384 conicto
1097 320 1349 320 conicto
1685 320 1866 434 conicto
2048 548 2048 756 conicto
2048 949 1913 1051 conicto
1779 1154 1324 1249 conicto
1154 1288 lineto
712 1380 516 1571 conicto
320 1763 320 2097 conicto
320 2502 611 2723 conicto
902 2944 1438 2944 conicto
1703 2944 1936 2912 conicto
2170 2880 2368 2816 conicto
end_ol grestore 
gsave 33.279033 23.282405 translate 0.035278 -0.035278 scale
start_ol
2368 2816 moveto
2368 2368 lineto
2163 2464 1943 2512 conicto
1723 2560 1487 2560 conicto
1127 2560 947 2452 conicto
768 2344 768 2128 conicto
768 1963 898 1869 conicto
1029 1775 1423 1690 conicto
1590 1653 lineto
2082 1545 2289 1349 conicto
2496 1153 2496 802 conicto
2496 402 2182 169 conicto
1868 -64 1319 -64 conicto
1090 -64 842 -32 conicto
595 0 320 64 conicto
320 576 lineto
584 448 840 384 conicto
1097 320 1349 320 conicto
1685 320 1866 434 conicto
2048 548 2048 756 conicto
2048 949 1913 1051 conicto
1779 1154 1324 1249 conicto
1154 1288 lineto
712 1380 516 1571 conicto
320 1763 320 2097 conicto
320 2502 611 2723 conicto
902 2944 1438 2944 conicto
1703 2944 1936 2912 conicto
2170 2880 2368 2816 conicto
end_ol grestore 
gsave 33.641189 23.282405 translate 0.035278 -0.035278 scale
start_ol
1818 1408 moveto
1225 1408 996 1281 conicto
768 1155 768 849 conicto
768 606 939 463 conicto
1111 320 1406 320 conicto
1812 320 2058 590 conicto
2304 860 2304 1308 conicto
2304 1408 lineto
1818 1408 lineto
2752 1611 moveto
2752 0 lineto
2304 0 lineto
2304 448 lineto
2140 186 1895 61 conicto
1650 -64 1296 -64 conicto
849 -64 584 179 conicto
320 423 320 831 conicto
320 1308 646 1550 conicto
972 1792 1618 1792 conicto
2304 1792 lineto
2304 1840 lineto
2304 2184 2084 2372 conicto
1864 2560 1466 2560 conicto
1213 2560 973 2496 conicto
733 2432 512 2304 conicto
512 2752 lineto
774 2848 1020 2896 conicto
1266 2944 1500 2944 conicto
2130 2944 2441 2613 conicto
2752 2283 2752 1611 conicto
1526 3546 moveto
1384 3684 lineto
1329 3731 1288 3753 conicto
1247 3776 1214 3776 conicto
1119 3776 1074 3685 conicto
1029 3595 1024 3392 conicto
704 3392 lineto
709 3729 837 3912 conicto
966 4096 1196 4096 conicto
1291 4096 1372 4060 conicto
1453 4025 1546 3942 conicto
1688 3804 lineto
1743 3757 1784 3734 conicto
1826 3712 1858 3712 conicto
1953 3712 1998 3802 conicto
2043 3893 2048 4096 conicto
2368 4096 lineto
2363 3759 2234 3575 conicto
2106 3392 1876 3392 conicto
1781 3392 1700 3427 conicto
1619 3463 1526 3546 conicto
end_ol grestore 
gsave 34.068285 23.282405 translate 0.035278 -0.035278 scale
start_ol
1633 2560 moveto
1263 2560 1047 2260 conicto
832 1961 832 1440 conicto
832 919 1046 619 conicto
1260 320 1633 320 conicto
2001 320 2216 620 conicto
2432 921 2432 1440 conicto
2432 1956 2216 2258 conicto
2001 2560 1633 2560 conicto
1632 2944 moveto
2245 2944 2594 2545 conicto
2944 2146 2944 1440 conicto
2944 737 2594 336 conicto
2245 -64 1632 -64 conicto
1017 -64 668 336 conicto
320 737 320 1440 conicto
320 2146 668 2545 conicto
1017 2944 1632 2944 conicto
end_ol grestore 
0.100000 slw
[] 0 sd
[] 0 sd
0 slj
1.000000 1.000000 1.000000 srgb
n 40.067737 22.284627 m 40.067737 23.797683 l 46.358818 23.797683 l 46.358818 22.284627 l f
0.000000 0.000000 0.000000 srgb
n 40.067737 22.284627 m 40.067737 23.797683 l 46.358818 23.797683 l 46.358818 22.284627 l cp s
gsave 41.026441 23.282405 translate 0.035278 -0.035278 scale
start_ol
2381 1786 moveto
2540 1729 2691 1544 conicto
2842 1359 2994 1035 conicto
3520 0 lineto
2965 0 lineto
2506 971 lineto
2308 1351 2121 1475 conicto
1935 1600 1614 1600 conicto
1024 1600 lineto
1024 0 lineto
512 0 lineto
512 3840 lineto
1705 3840 lineto
2362 3840 2685 3563 conicto
3008 3286 3008 2726 conicto
3008 2361 2847 2120 conicto
2687 1879 2381 1786 conicto
1024 3392 moveto
1024 2048 lineto
1705 2048 lineto
2096 2048 2296 2219 conicto
2496 2390 2496 2723 conicto
2496 3055 2296 3223 conicto
2096 3392 1705 3392 conicto
1024 3392 lineto
end_ol grestore 
gsave 41.478515 23.282405 translate 0.035278 -0.035278 scale
start_ol
3008 1584 moveto
3008 1344 lineto
832 1344 lineto
863 844 1124 582 conicto
1385 320 1852 320 conicto
2123 320 2376 384 conicto
2630 448 2880 576 conicto
2880 128 lineto
2625 34 2357 -15 conicto
2090 -64 1815 -64 conicto
1125 -64 722 335 conicto
320 734 320 1414 conicto
320 2118 704 2531 conicto
1089 2944 1742 2944 conicto
2327 2944 2667 2578 conicto
3008 2212 3008 1584 conicto
2560 1728 moveto
2555 2108 2339 2334 conicto
2124 2560 1769 2560 conicto
1367 2560 1126 2341 conicto
885 2123 848 1726 conicto
2560 1728 lineto
end_ol grestore 
gsave 41.908107 23.282405 translate 0.035278 -0.035278 scale
start_ol
2560 2816 moveto
2560 2368 lineto
2365 2464 2169 2512 conicto
1973 2560 1773 2560 conicto
1326 2560 1079 2265 conicto
832 1971 832 1440 conicto
832 909 1079 614 conicto
1326 320 1773 320 conicto
1973 320 2169 368 conicto
2365 416 2560 512 conicto
2560 64 lineto
2365 0 2156 -32 conicto
1948 -64 1713 -64 conicto
1073 -64 696 342 conicto
320 749 320 1440 conicto
320 2141 700 2542 conicto
1081 2944 1743 2944 conicto
1958 2944 2163 2912 conicto
2368 2880 2560 2816 conicto
end_ol grestore 
gsave 42.290248 23.282405 translate 0.035278 -0.035278 scale
start_ol
3008 1584 moveto
3008 1344 lineto
832 1344 lineto
863 844 1124 582 conicto
1385 320 1852 320 conicto
2123 320 2376 384 conicto
2630 448 2880 576 conicto
2880 128 lineto
2625 34 2357 -15 conicto
2090 -64 1815 -64 conicto
1125 -64 722 335 conicto
320 734 320 1414 conicto
320 2118 704 2531 conicto
1089 2944 1742 2944 conicto
2327 2944 2667 2578 conicto
3008 2212 3008 1584 conicto
2560 1728 moveto
2555 2108 2339 2334 conicto
2124 2560 1769 2560 conicto
1367 2560 1126 2341 conicto
885 2123 848 1726 conicto
2560 1728 lineto
end_ol grestore 
gsave 42.719841 23.282405 translate 0.035278 -0.035278 scale
start_ol
2496 1440 moveto
2496 1964 2282 2262 conicto
2069 2560 1696 2560 conicto
1323 2560 1109 2262 conicto
896 1964 896 1440 conicto
896 916 1109 618 conicto
1323 320 1696 320 conicto
2069 320 2282 618 conicto
2496 916 2496 1440 conicto
896 2432 moveto
1046 2692 1274 2818 conicto
1503 2944 1821 2944 conicto
2349 2944 2678 2529 conicto
3008 2115 3008 1440 conicto
3008 765 2678 350 conicto
2349 -64 1821 -64 conicto
1503 -64 1274 62 conicto
1046 188 896 448 conicto
896 0 lineto
448 0 lineto
448 3968 lineto
896 3968 lineto
896 2432 lineto
end_ol grestore 
gsave 43.161926 23.282405 translate 0.035278 -0.035278 scale
start_ol
448 2880 moveto
896 2880 lineto
896 0 lineto
448 0 lineto
448 2880 lineto
448 3968 moveto
896 3968 lineto
896 3392 lineto
448 3392 lineto
448 3968 lineto
end_ol grestore 
gsave 43.356742 23.282405 translate 0.035278 -0.035278 scale
start_ol
2677 2327 moveto
2853 2643 3098 2793 conicto
3344 2944 3676 2944 conicto
4123 2944 4365 2630 conicto
4608 2317 4608 1738 conicto
4608 0 lineto
4160 0 lineto
4160 1722 lineto
4160 2148 4011 2354 conicto
3863 2560 3558 2560 conicto
3185 2560 2968 2309 conicto
2752 2059 2752 1627 conicto
2752 0 lineto
2304 0 lineto
2304 1722 lineto
2304 2150 2155 2355 conicto
2007 2560 1696 2560 conicto
1329 2560 1112 2308 conicto
896 2057 896 1627 conicto
896 0 lineto
448 0 lineto
448 2880 lineto
896 2880 lineto
896 2432 lineto
1058 2694 1283 2819 conicto
1509 2944 1820 2944 conicto
2133 2944 2352 2786 conicto
2572 2628 2677 2327 conicto
end_ol grestore 
gsave 44.036101 23.282405 translate 0.035278 -0.035278 scale
start_ol
3008 1584 moveto
3008 1344 lineto
832 1344 lineto
863 844 1124 582 conicto
1385 320 1852 320 conicto
2123 320 2376 384 conicto
2630 448 2880 576 conicto
2880 128 lineto
2625 34 2357 -15 conicto
2090 -64 1815 -64 conicto
1125 -64 722 335 conicto
320 734 320 1414 conicto
320 2118 704 2531 conicto
1089 2944 1742 2944 conicto
2327 2944 2667 2578 conicto
3008 2212 3008 1584 conicto
2560 1728 moveto
2555 2108 2339 2334 conicto
2124 2560 1769 2560 conicto
1367 2560 1126 2341 conicto
885 2123 848 1726 conicto
2560 1728 lineto
end_ol grestore 
gsave 44.465694 23.282405 translate 0.035278 -0.035278 scale
start_ol
2880 1738 moveto
2880 0 lineto
2432 0 lineto
2432 1722 lineto
2432 2142 2264 2351 conicto
2097 2560 1763 2560 conicto
1360 2560 1128 2309 conicto
896 2059 896 1627 conicto
896 0 lineto
448 0 lineto
448 2880 lineto
896 2880 lineto
896 2432 lineto
1070 2689 1306 2816 conicto
1542 2944 1850 2944 conicto
2358 2944 2619 2638 conicto
2880 2332 2880 1738 conicto
end_ol grestore 
gsave 44.907779 23.282405 translate 0.035278 -0.035278 scale
start_ol
896 3712 moveto
896 2880 lineto
1856 2880 lineto
1856 2496 lineto
896 2496 lineto
896 936 lineto
896 584 991 484 conicto
1086 384 1377 384 conicto
1856 384 lineto
1856 0 lineto
1377 0 lineto
849 0 648 201 conicto
448 403 448 936 conicto
448 2496 lineto
128 2496 lineto
128 2880 lineto
448 2880 lineto
448 3712 lineto
896 3712 lineto
end_ol grestore 
gsave 45.180019 23.282405 translate 0.035278 -0.035278 scale
start_ol
1633 2560 moveto
1263 2560 1047 2260 conicto
832 1961 832 1440 conicto
832 919 1046 619 conicto
1260 320 1633 320 conicto
2001 320 2216 620 conicto
2432 921 2432 1440 conicto
2432 1956 2216 2258 conicto
2001 2560 1633 2560 conicto
1632 2944 moveto
2245 2944 2594 2545 conicto
2944 2146 2944 1440 conicto
2944 737 2594 336 conicto
2245 -64 1632 -64 conicto
1017 -64 668 336 conicto
320 737 320 1440 conicto
320 2146 668 2545 conicto
1017 2944 1632 2944 conicto
end_ol grestore 
0.100000 slw
[] 0 sd
[] 0 sd
0 slj
1.000000 1.000000 1.000000 srgb
n 46.311953 19.006338 m 46.311953 20.519394 l 52.603034 20.519394 l 52.603034 19.006338 l f
0.000000 0.000000 0.000000 srgb
n 46.311953 19.006338 m 46.311953 20.519394 l 52.603034 20.519394 l 52.603034 19.006338 l cp s
gsave 46.995556 20.004116 translate 0.035278 -0.035278 scale
start_ol
1024 3392 moveto
1024 1984 lineto
1705 1984 lineto
2083 1984 2289 2167 conicto
2496 2350 2496 2689 conicto
2496 3026 2289 3209 conicto
2083 3392 1705 3392 conicto
1024 3392 lineto
512 3840 moveto
1705 3840 lineto
2349 3840 2678 3547 conicto
3008 3254 3008 2689 conicto
3008 2119 2678 1827 conicto
2349 1536 1705 1536 conicto
1024 1536 lineto
1024 0 lineto
512 0 lineto
512 3840 lineto
end_ol grestore 
gsave 47.402675 20.004116 translate 0.035278 -0.035278 scale
start_ol
2112 2432 moveto
2032 2498 1937 2529 conicto
1843 2560 1730 2560 conicto
1327 2560 1111 2290 conicto
896 2021 896 1517 conicto
896 0 lineto
448 0 lineto
448 2880 lineto
896 2880 lineto
896 2432 lineto
1046 2692 1286 2818 conicto
1526 2944 1869 2944 conicto
1918 2944 1977 2944 conicto
2037 2944 2109 2944 conicto
2112 2432 lineto
end_ol grestore 
gsave 47.674915 20.004116 translate 0.035278 -0.035278 scale
start_ol
1633 2560 moveto
1263 2560 1047 2260 conicto
832 1961 832 1440 conicto
832 919 1046 619 conicto
1260 320 1633 320 conicto
2001 320 2216 620 conicto
2432 921 2432 1440 conicto
2432 1956 2216 2258 conicto
2001 2560 1633 2560 conicto
1632 2944 moveto
2245 2944 2594 2545 conicto
2944 2146 2944 1440 conicto
2944 737 2594 336 conicto
2245 -64 1632 -64 conicto
1017 -64 668 336 conicto
320 737 320 1440 conicto
320 2146 668 2545 conicto
1017 2944 1632 2944 conicto
end_ol grestore 
gsave 48.102010 20.004116 translate 0.035278 -0.035278 scale
start_ol
2560 2816 moveto
2560 2368 lineto
2365 2464 2169 2512 conicto
1973 2560 1773 2560 conicto
1326 2560 1079 2265 conicto
832 1971 832 1440 conicto
832 909 1079 614 conicto
1326 320 1773 320 conicto
1973 320 2169 368 conicto
2365 416 2560 512 conicto
2560 64 lineto
2365 0 2156 -32 conicto
1948 -64 1713 -64 conicto
1073 -64 696 342 conicto
320 749 320 1440 conicto
320 2141 700 2542 conicto
1081 2944 1743 2944 conicto
1958 2944 2163 2912 conicto
2368 2880 2560 2816 conicto
end_ol grestore 
gsave 48.484151 20.004116 translate 0.035278 -0.035278 scale
start_ol
3008 1584 moveto
3008 1344 lineto
832 1344 lineto
863 844 1124 582 conicto
1385 320 1852 320 conicto
2123 320 2376 384 conicto
2630 448 2880 576 conicto
2880 128 lineto
2625 34 2357 -15 conicto
2090 -64 1815 -64 conicto
1125 -64 722 335 conicto
320 734 320 1414 conicto
320 2118 704 2531 conicto
1089 2944 1742 2944 conicto
2327 2944 2667 2578 conicto
3008 2212 3008 1584 conicto
2560 1728 moveto
2555 2108 2339 2334 conicto
2124 2560 1769 2560 conicto
1367 2560 1126 2341 conicto
885 2123 848 1726 conicto
2560 1728 lineto
end_ol grestore 
gsave 48.913744 20.004116 translate 0.035278 -0.035278 scale
start_ol
2368 2816 moveto
2368 2368 lineto
2163 2464 1943 2512 conicto
1723 2560 1487 2560 conicto
1127 2560 947 2452 conicto
768 2344 768 2128 conicto
768 1963 898 1869 conicto
1029 1775 1423 1690 conicto
1590 1653 lineto
2082 1545 2289 1349 conicto
2496 1153 2496 802 conicto
2496 402 2182 169 conicto
1868 -64 1319 -64 conicto
1090 -64 842 -32 conicto
595 0 320 64 conicto
320 576 lineto
584 448 840 384 conicto
1097 320 1349 320 conicto
1685 320 1866 434 conicto
2048 548 2048 756 conicto
2048 949 1913 1051 conicto
1779 1154 1324 1249 conicto
1154 1288 lineto
712 1380 516 1571 conicto
320 1763 320 2097 conicto
320 2502 611 2723 conicto
902 2944 1438 2944 conicto
1703 2944 1936 2912 conicto
2170 2880 2368 2816 conicto
end_ol grestore 
gsave 49.275901 20.004116 translate 0.035278 -0.035278 scale
start_ol
2368 2816 moveto
2368 2368 lineto
2163 2464 1943 2512 conicto
1723 2560 1487 2560 conicto
1127 2560 947 2452 conicto
768 2344 768 2128 conicto
768 1963 898 1869 conicto
1029 1775 1423 1690 conicto
1590 1653 lineto
2082 1545 2289 1349 conicto
2496 1153 2496 802 conicto
2496 402 2182 169 conicto
1868 -64 1319 -64 conicto
1090 -64 842 -32 conicto
595 0 320 64 conicto
320 576 lineto
584 448 840 384 conicto
1097 320 1349 320 conicto
1685 320 1866 434 conicto
2048 548 2048 756 conicto
2048 949 1913 1051 conicto
1779 1154 1324 1249 conicto
1154 1288 lineto
712 1380 516 1571 conicto
320 1763 320 2097 conicto
320 2502 611 2723 conicto
902 2944 1438 2944 conicto
1703 2944 1936 2912 conicto
2170 2880 2368 2816 conicto
end_ol grestore 
gsave 49.638057 20.004116 translate 0.035278 -0.035278 scale
start_ol
1818 1408 moveto
1225 1408 996 1281 conicto
768 1155 768 849 conicto
768 606 939 463 conicto
1111 320 1406 320 conicto
1812 320 2058 590 conicto
2304 860 2304 1308 conicto
2304 1408 lineto
1818 1408 lineto
2752 1611 moveto
2752 0 lineto
2304 0 lineto
2304 448 lineto
2140 186 1895 61 conicto
1650 -64 1296 -64 conicto
849 -64 584 179 conicto
320 423 320 831 conicto
320 1308 646 1550 conicto
972 1792 1618 1792 conicto
2304 1792 lineto
2304 1840 lineto
2304 2184 2084 2372 conicto
1864 2560 1466 2560 conicto
1213 2560 973 2496 conicto
733 2432 512 2304 conicto
512 2752 lineto
774 2848 1020 2896 conicto
1266 2944 1500 2944 conicto
2130 2944 2441 2613 conicto
2752 2283 2752 1611 conicto
end_ol grestore 
gsave 50.065153 20.004116 translate 0.035278 -0.035278 scale
start_ol
2677 2327 moveto
2853 2643 3098 2793 conicto
3344 2944 3676 2944 conicto
4123 2944 4365 2630 conicto
4608 2317 4608 1738 conicto
4608 0 lineto
4160 0 lineto
4160 1722 lineto
4160 2148 4011 2354 conicto
3863 2560 3558 2560 conicto
3185 2560 2968 2309 conicto
2752 2059 2752 1627 conicto
2752 0 lineto
2304 0 lineto
2304 1722 lineto
2304 2150 2155 2355 conicto
2007 2560 1696 2560 conicto
1329 2560 1112 2308 conicto
896 2057 896 1627 conicto
896 0 lineto
448 0 lineto
448 2880 lineto
896 2880 lineto
896 2432 lineto
1058 2694 1283 2819 conicto
1509 2944 1820 2944 conicto
2133 2944 2352 2786 conicto
2572 2628 2677 2327 conicto
end_ol grestore 
gsave 50.744512 20.004116 translate 0.035278 -0.035278 scale
start_ol
3008 1584 moveto
3008 1344 lineto
832 1344 lineto
863 844 1124 582 conicto
1385 320 1852 320 conicto
2123 320 2376 384 conicto
2630 448 2880 576 conicto
2880 128 lineto
2625 34 2357 -15 conicto
2090 -64 1815 -64 conicto
1125 -64 722 335 conicto
320 734 320 1414 conicto
320 2118 704 2531 conicto
1089 2944 1742 2944 conicto
2327 2944 2667 2578 conicto
3008 2212 3008 1584 conicto
2560 1728 moveto
2555 2108 2339 2334 conicto
2124 2560 1769 2560 conicto
1367 2560 1126 2341 conicto
885 2123 848 1726 conicto
2560 1728 lineto
end_ol grestore 
gsave 51.174104 20.004116 translate 0.035278 -0.035278 scale
start_ol
2880 1738 moveto
2880 0 lineto
2432 0 lineto
2432 1722 lineto
2432 2142 2264 2351 conicto
2097 2560 1763 2560 conicto
1360 2560 1128 2309 conicto
896 2059 896 1627 conicto
896 0 lineto
448 0 lineto
448 2880 lineto
896 2880 lineto
896 2432 lineto
1070 2689 1306 2816 conicto
1542 2944 1850 2944 conicto
2358 2944 2619 2638 conicto
2880 2332 2880 1738 conicto
end_ol grestore 
gsave 51.616190 20.004116 translate 0.035278 -0.035278 scale
start_ol
896 3712 moveto
896 2880 lineto
1856 2880 lineto
1856 2496 lineto
896 2496 lineto
896 936 lineto
896 584 991 484 conicto
1086 384 1377 384 conicto
1856 384 lineto
1856 0 lineto
1377 0 lineto
849 0 648 201 conicto
448 403 448 936 conicto
448 2496 lineto
128 2496 lineto
128 2880 lineto
448 2880 lineto
448 3712 lineto
896 3712 lineto
end_ol grestore 
gsave 51.888429 20.004116 translate 0.035278 -0.035278 scale
start_ol
1633 2560 moveto
1263 2560 1047 2260 conicto
832 1961 832 1440 conicto
832 919 1046 619 conicto
1260 320 1633 320 conicto
2001 320 2216 620 conicto
2432 921 2432 1440 conicto
2432 1956 2216 2258 conicto
2001 2560 1633 2560 conicto
1632 2944 moveto
2245 2944 2594 2545 conicto
2944 2146 2944 1440 conicto
2944 737 2594 336 conicto
2245 -64 1632 -64 conicto
1017 -64 668 336 conicto
320 737 320 1440 conicto
320 2146 668 2545 conicto
1017 2944 1632 2944 conicto
end_ol grestore 
gsave 9.719351 21.615433 translate 0.035278 -0.035278 scale
start_ol
704 5056 moveto
3392 5056 lineto
3392 4480 lineto
1408 4480 lineto
1408 3290 lineto
1553 3341 1698 3366 conicto
1843 3392 1988 3392 conicto
2813 3392 3294 2917 conicto
3776 2443 3776 1632 conicto
3776 797 3269 334 conicto
2762 -128 1840 -128 conicto
1522 -128 1192 -80 conicto
863 -32 512 64 conicto
512 768 lineto
814 606 1135 527 conicto
1457 448 1815 448 conicto
2395 448 2733 767 conicto
3072 1086 3072 1632 conicto
3072 2178 2731 2497 conicto
2390 2816 1805 2816 conicto
1532 2816 1260 2753 conicto
988 2691 704 2560 conicto
704 5056 lineto
end_ol grestore 
gsave 34.583009 21.601995 translate 0.035278 -0.035278 scale
start_ol
2772 2744 moveto
3275 2637 3557 2299 conicto
3840 1962 3840 1466 conicto
3840 705 3325 288 conicto
2811 -128 1863 -128 conicto
1545 -128 1208 -64 conicto
871 0 512 128 conicto
512 768 lineto
794 610 1129 529 conicto
1465 448 1831 448 conicto
2468 448 2802 707 conicto
3136 966 3136 1461 conicto
3136 1917 2829 2174 conicto
2523 2432 1977 2432 conicto
1408 2432 lineto
1408 3008 lineto
2004 3008 lineto
2491 3008 2749 3211 conicto
3008 3414 3008 3796 conicto
3008 4188 2741 4398 conicto
2474 4608 1977 4608 conicto
1690 4608 1362 4545 conicto
1034 4483 640 4352 conicto
640 4992 lineto
1031 5088 1373 5136 conicto
1715 5184 2018 5184 conicto
2800 5184 3256 4827 conicto
3712 4471 3712 3863 conicto
3712 3440 3467 3148 conicto
3223 2857 2772 2744 conicto
end_ol grestore 
gsave 35.169954 21.601995 translate 0.035278 -0.035278 scale
start_ol
2206 4608 moveto
1681 4608 1416 4088 conicto
1152 3569 1152 2526 conicto
1152 1487 1416 967 conicto
1681 448 2206 448 conicto
2735 448 2999 967 conicto
3264 1487 3264 2526 conicto
3264 3569 2999 4088 conicto
2735 4608 2206 4608 conicto
2208 5184 moveto
3064 5184 3516 4503 conicto
3968 3823 3968 2526 conicto
3968 1233 3516 552 conicto
3064 -128 2208 -128 conicto
1352 -128 900 552 conicto
448 1233 448 2526 conicto
448 3823 900 4503 conicto
1352 5184 2208 5184 conicto
end_ol grestore 
gsave 39.888776 21.601995 translate 0.035278 -0.035278 scale
start_ol
2772 2744 moveto
3275 2637 3557 2299 conicto
3840 1962 3840 1466 conicto
3840 705 3325 288 conicto
2811 -128 1863 -128 conicto
1545 -128 1208 -64 conicto
871 0 512 128 conicto
512 768 lineto
794 610 1129 529 conicto
1465 448 1831 448 conicto
2468 448 2802 707 conicto
3136 966 3136 1461 conicto
3136 1917 2829 2174 conicto
2523 2432 1977 2432 conicto
1408 2432 lineto
1408 3008 lineto
2004 3008 lineto
2491 3008 2749 3211 conicto
3008 3414 3008 3796 conicto
3008 4188 2741 4398 conicto
2474 4608 1977 4608 conicto
1690 4608 1362 4545 conicto
1034 4483 640 4352 conicto
640 4992 lineto
1031 5088 1373 5136 conicto
1715 5184 2018 5184 conicto
2800 5184 3256 4827 conicto
3712 4471 3712 3863 conicto
3712 3440 3467 3148 conicto
3223 2857 2772 2744 conicto
end_ol grestore 
gsave 40.475721 21.601995 translate 0.035278 -0.035278 scale
start_ol
2624 4466 moveto
881 1792 lineto
2624 1792 lineto
2624 4466 lineto
2455 5056 moveto
3328 5056 lineto
3328 1792 lineto
4032 1792 lineto
4032 1216 lineto
3328 1216 lineto
3328 0 lineto
2624 0 lineto
2624 1216 lineto
320 1216 lineto
320 1872 lineto
2455 5056 lineto
end_ol grestore 
gsave 52.176628 21.601995 translate 0.035278 -0.035278 scale
start_ol
2624 4466 moveto
881 1792 lineto
2624 1792 lineto
2624 4466 lineto
2455 5056 moveto
3328 5056 lineto
3328 1792 lineto
4032 1792 lineto
4032 1216 lineto
3328 1216 lineto
3328 0 lineto
2624 0 lineto
2624 1216 lineto
320 1216 lineto
320 1872 lineto
2455 5056 lineto
end_ol grestore 
gsave 52.763573 21.601995 translate 0.035278 -0.035278 scale
start_ol
2272 2816 moveto
1815 2816 1547 2499 conicto
1280 2183 1280 1632 conicto
1280 1084 1547 766 conicto
1815 448 2272 448 conicto
2729 448 2996 766 conicto
3264 1084 3264 1632 conicto
3264 2183 2996 2499 conicto
2729 2816 2272 2816 conicto
3648 4992 moveto
3648 4352 lineto
3389 4477 3125 4542 conicto
2861 4608 2603 4608 conicto
1922 4608 1562 4145 conicto
1203 3683 1152 2748 conicto
1352 3059 1654 3225 conicto
1956 3392 2319 3392 conicto
3082 3392 3525 2919 conicto
3968 2446 3968 1632 conicto
3968 835 3503 353 conicto
3039 -128 2268 -128 conicto
1383 -128 915 552 conicto
448 1233 448 2526 conicto
448 3740 1023 4462 conicto
1599 5184 2569 5184 conicto
2829 5184 3094 5136 conicto
3360 5088 3648 4992 conicto
end_ol grestore 
gsave 21.273599 25.187239 translate 0.035278 -0.035278 scale
start_ol
1355 576 moveto
3739 576 lineto
3739 0 lineto
512 0 lineto
512 576 lineto
901 983 1573 1668 conicto
2246 2353 2419 2551 conicto
2747 2923 2877 3181 conicto
3008 3439 3008 3689 conicto
3008 4095 2728 4351 conicto
2449 4608 2001 4608 conicto
1683 4608 1330 4497 conicto
977 4386 576 4160 conicto
576 4864 lineto
987 5022 1344 5103 conicto
1702 5184 1999 5184 conicto
2781 5184 3246 4788 conicto
3712 4392 3712 3730 conicto
3712 3416 3595 3134 conicto
3479 2853 3171 2470 conicto
3086 2371 2633 1898 conicto
2180 1426 1355 576 conicto
end_ol grestore 
gsave 21.860544 25.187239 translate 0.035278 -0.035278 scale
start_ol
4096 703 moveto
4096 2048 lineto
2944 2048 lineto
2944 2624 lineto
4800 2624 lineto
4800 455 lineto
4404 167 3926 19 conicto
3449 -128 2907 -128 conicto
1722 -128 1053 573 conicto
384 1275 384 2526 conicto
384 3781 1053 4482 conicto
1723 5184 2909 5184 conicto
3404 5184 3850 5054 conicto
4296 4924 4672 4672 conicto
4672 3968 lineto
4290 4286 3861 4447 conicto
3432 4608 2958 4608 conicto
2025 4608 1556 4085 conicto
1088 3562 1088 2526 conicto
1088 1494 1552 971 conicto
2016 448 2941 448 conicto
3303 448 3586 510 conicto
3870 572 4096 703 conicto
end_ol grestore 
gsave 22.574869 25.187239 translate 0.035278 -0.035278 scale
start_ol
1344 2432 moveto
1344 576 lineto
2430 576 lineto
2985 576 3252 805 conicto
3520 1034 3520 1506 conicto
3520 1981 3252 2206 conicto
2985 2432 2430 2432 conicto
1344 2432 lineto
1344 4480 moveto
1344 3008 lineto
2346 3008 lineto
2842 3008 3085 3189 conicto
3328 3371 3328 3744 conicto
3328 4114 3085 4297 conicto
2842 4480 2346 4480 conicto
1344 4480 lineto
640 5056 moveto
2396 5056 lineto
3182 5056 3607 4735 conicto
4032 4414 4032 3822 conicto
4032 3364 3811 3093 conicto
3591 2822 3164 2755 conicto
3667 2645 3945 2298 conicto
4224 1951 4224 1431 conicto
4224 746 3766 373 conicto
3308 0 2463 0 conicto
640 0 lineto
640 5056 lineto
end_ol grestore 
gsave 42.342342 25.187239 translate 0.035278 -0.035278 scale
start_ol
1355 576 moveto
3739 576 lineto
3739 0 lineto
512 0 lineto
512 576 lineto
901 983 1573 1668 conicto
2246 2353 2419 2551 conicto
2747 2923 2877 3181 conicto
3008 3439 3008 3689 conicto
3008 4095 2728 4351 conicto
2449 4608 2001 4608 conicto
1683 4608 1330 4497 conicto
977 4386 576 4160 conicto
576 4864 lineto
987 5022 1344 5103 conicto
1702 5184 1999 5184 conicto
2781 5184 3246 4788 conicto
3712 4392 3712 3730 conicto
3712 3416 3595 3134 conicto
3479 2853 3171 2470 conicto
3086 2371 2633 1898 conicto
2180 1426 1355 576 conicto
end_ol grestore 
gsave 42.929287 25.187239 translate 0.035278 -0.035278 scale
start_ol
4096 703 moveto
4096 2048 lineto
2944 2048 lineto
2944 2624 lineto
4800 2624 lineto
4800 455 lineto
4404 167 3926 19 conicto
3449 -128 2907 -128 conicto
1722 -128 1053 573 conicto
384 1275 384 2526 conicto
384 3781 1053 4482 conicto
1723 5184 2909 5184 conicto
3404 5184 3850 5054 conicto
4296 4924 4672 4672 conicto
4672 3968 lineto
4290 4286 3861 4447 conicto
3432 4608 2958 4608 conicto
2025 4608 1556 4085 conicto
1088 3562 1088 2526 conicto
1088 1494 1552 971 conicto
2016 448 2941 448 conicto
3303 448 3586 510 conicto
3870 572 4096 703 conicto
end_ol grestore 
gsave 43.643612 25.187239 translate 0.035278 -0.035278 scale
start_ol
1344 2432 moveto
1344 576 lineto
2430 576 lineto
2985 576 3252 805 conicto
3520 1034 3520 1506 conicto
3520 1981 3252 2206 conicto
2985 2432 2430 2432 conicto
1344 2432 lineto
1344 4480 moveto
1344 3008 lineto
2346 3008 lineto
2842 3008 3085 3189 conicto
3328 3371 3328 3744 conicto
3328 4114 3085 4297 conicto
2842 4480 2346 4480 conicto
1344 4480 lineto
640 5056 moveto
2396 5056 lineto
3182 5056 3607 4735 conicto
4032 4414 4032 3822 conicto
4032 3364 3811 3093 conicto
3591 2822 3164 2755 conicto
3667 2645 3945 2298 conicto
4224 1951 4224 1431 conicto
4224 746 3766 373 conicto
3308 0 2463 0 conicto
640 0 lineto
640 5056 lineto
end_ol grestore 
gsave 31.241430 25.187239 translate 0.035278 -0.035278 scale
start_ol
832 576 moveto
1984 576 lineto
1984 4480 lineto
768 4224 lineto
768 4800 lineto
1994 5056 lineto
2688 5056 lineto
2688 576 lineto
3840 576 lineto
3840 0 lineto
832 0 lineto
832 576 lineto
end_ol grestore 
gsave 31.828375 25.187239 translate 0.035278 -0.035278 scale
start_ol
4096 703 moveto
4096 2048 lineto
2944 2048 lineto
2944 2624 lineto
4800 2624 lineto
4800 455 lineto
4404 167 3926 19 conicto
3449 -128 2907 -128 conicto
1722 -128 1053 573 conicto
384 1275 384 2526 conicto
384 3781 1053 4482 conicto
1723 5184 2909 5184 conicto
3404 5184 3850 5054 conicto
4296 4924 4672 4672 conicto
4672 3968 lineto
4290 4286 3861 4447 conicto
3432 4608 2958 4608 conicto
2025 4608 1556 4085 conicto
1088 3562 1088 2526 conicto
1088 1494 1552 971 conicto
2016 448 2941 448 conicto
3303 448 3586 510 conicto
3870 572 4096 703 conicto
end_ol grestore 
gsave 32.542701 25.187239 translate 0.035278 -0.035278 scale
start_ol
1344 2432 moveto
1344 576 lineto
2430 576 lineto
2985 576 3252 805 conicto
3520 1034 3520 1506 conicto
3520 1981 3252 2206 conicto
2985 2432 2430 2432 conicto
1344 2432 lineto
1344 4480 moveto
1344 3008 lineto
2346 3008 lineto
2842 3008 3085 3189 conicto
3328 3371 3328 3744 conicto
3328 4114 3085 4297 conicto
2842 4480 2346 4480 conicto
1344 4480 lineto
640 5056 moveto
2396 5056 lineto
3182 5056 3607 4735 conicto
4032 4414 4032 3822 conicto
4032 3364 3811 3093 conicto
3591 2822 3164 2755 conicto
3667 2645 3945 2298 conicto
4224 1951 4224 1431 conicto
4224 746 3766 373 conicto
3308 0 2463 0 conicto
640 0 lineto
640 5056 lineto
end_ol grestore 
gsave 19.175742 27.763037 translate 0.035278 -0.035278 scale
start_ol
0 5056 moveto
4288 5056 lineto
4288 4480 lineto
2496 4480 lineto
2496 0 lineto
1792 0 lineto
1792 4480 lineto
0 4480 lineto
0 5056 lineto
end_ol grestore 
gsave 19.580356 27.763037 translate 0.035278 -0.035278 scale
start_ol
3904 2112 moveto
3904 1792 lineto
1024 1792 lineto
1065 1104 1416 744 conicto
1768 384 2395 384 conicto
2758 384 3099 480 conicto
3440 576 3776 768 conicto
3776 192 lineto
3439 36 3084 -46 conicto
2729 -128 2365 -128 conicto
1451 -128 917 415 conicto
384 959 384 1885 conicto
384 2843 887 3405 conicto
1391 3968 2246 3968 conicto
3012 3968 3458 3469 conicto
3904 2970 3904 2112 conicto
3264 2304 moveto
3257 2830 2978 3143 conicto
2699 3456 2239 3456 conicto
1717 3456 1404 3153 conicto
1091 2850 1044 2301 conicto
3264 2304 lineto
end_ol grestore 
gsave 20.147325 27.763037 translate 0.035278 -0.035278 scale
start_ol
3605 3123 moveto
3837 3556 4159 3762 conicto
4482 3968 4918 3968 conicto
5506 3968 5825 3542 conicto
6144 3117 6144 2332 conicto
6144 0 lineto
5504 0 lineto
5504 2312 lineto
5504 2861 5315 3126 conicto
5126 3392 4737 3392 conicto
4263 3392 3987 3068 conicto
3712 2744 3712 2184 conicto
3712 0 lineto
3072 0 lineto
3072 2312 lineto
3072 2864 2883 3128 conicto
2694 3392 2299 3392 conicto
1831 3392 1555 3066 conicto
1280 2740 1280 2184 conicto
1280 0 lineto
640 0 lineto
640 3840 lineto
1280 3840 lineto
1280 3264 lineto
1491 3625 1786 3796 conicto
2081 3968 2486 3968 conicto
2895 3968 3181 3751 conicto
3468 3535 3605 3123 conicto
end_ol grestore 
gsave 21.043981 27.763037 translate 0.035278 -0.035278 scale
start_ol
1280 512 moveto
1280 -1472 lineto
640 -1472 lineto
640 3840 lineto
1280 3840 lineto
1280 3328 lineto
1475 3653 1773 3810 conicto
2072 3968 2486 3968 conicto
3173 3968 3602 3404 conicto
4032 2840 4032 1920 conicto
4032 1000 3602 436 conicto
3173 -128 2486 -128 conicto
2072 -128 1773 29 conicto
1475 187 1280 512 conicto
3392 1920 moveto
3392 2638 3110 3047 conicto
2829 3456 2336 3456 conicto
1843 3456 1561 3047 conicto
1280 2638 1280 1920 conicto
1280 1202 1561 793 conicto
1843 384 2336 384 conicto
2829 384 3110 793 conicto
3392 1202 3392 1920 conicto
end_ol grestore 
gsave 21.628429 27.763037 translate 0.035278 -0.035278 scale
start_ol
2146 3456 moveto
1627 3456 1325 3045 conicto
1024 2635 1024 1920 conicto
1024 1205 1323 794 conicto
1623 384 2146 384 conicto
2661 384 2962 796 conicto
3264 1209 3264 1920 conicto
3264 2628 2962 3042 conicto
2661 3456 2146 3456 conicto
2144 3968 moveto
2966 3968 3435 3424 conicto
3904 2881 3904 1920 conicto
3904 962 3435 417 conicto
2966 -128 2144 -128 conicto
1319 -128 851 417 conicto
384 962 384 1920 conicto
384 2881 851 3424 conicto
1319 3968 2144 3968 conicto
end_ol grestore 
gsave 22.192901 27.763037 translate 0.035278 -0.035278 scale
start_ol
end_ol grestore 
gsave 22.485125 27.763037 translate 0.035278 -0.035278 scale
start_ol
0 5056 moveto
4288 5056 lineto
4288 4480 lineto
2496 4480 lineto
2496 0 lineto
1792 0 lineto
1792 4480 lineto
0 4480 lineto
0 5056 lineto
end_ol grestore 
gsave 22.889739 27.763037 translate 0.035278 -0.035278 scale
start_ol
2146 3456 moveto
1627 3456 1325 3045 conicto
1024 2635 1024 1920 conicto
1024 1205 1323 794 conicto
1623 384 2146 384 conicto
2661 384 2962 796 conicto
3264 1209 3264 1920 conicto
3264 2628 2962 3042 conicto
2661 3456 2146 3456 conicto
2144 3968 moveto
2966 3968 3435 3424 conicto
3904 2881 3904 1920 conicto
3904 962 3435 417 conicto
2966 -128 2144 -128 conicto
1319 -128 851 417 conicto
384 962 384 1920 conicto
384 2881 851 3424 conicto
1319 3968 2144 3968 conicto
end_ol grestore 
gsave 23.454211 27.763037 translate 0.035278 -0.035278 scale
start_ol
1280 4928 moveto
1280 3840 lineto
2560 3840 lineto
2560 3328 lineto
1280 3328 lineto
1280 1248 lineto
1280 779 1406 645 conicto
1533 512 1922 512 conicto
2560 512 lineto
2560 0 lineto
1922 0 lineto
1194 0 917 269 conicto
640 538 640 1248 conicto
640 3328 lineto
192 3328 lineto
192 3840 lineto
640 3840 lineto
640 4928 lineto
1280 4928 lineto
end_ol grestore 
gsave 23.816368 27.763037 translate 0.035278 -0.035278 scale
start_ol
2336 1920 moveto
1595 1920 1309 1741 conicto
1024 1562 1024 1131 conicto
1024 787 1238 585 conicto
1453 384 1821 384 conicto
2329 384 2636 765 conicto
2944 1147 2944 1780 conicto
2944 1920 lineto
2336 1920 lineto
3584 2190 moveto
3584 0 lineto
2944 0 lineto
2944 576 lineto
2732 215 2416 43 conicto
2101 -128 1644 -128 conicto
1066 -128 725 207 conicto
384 543 384 1107 conicto
384 1764 811 2098 conicto
1239 2432 2087 2432 conicto
2944 2432 lineto
2944 2498 lineto
2944 2955 2661 3205 conicto
2378 3456 1867 3456 conicto
1541 3456 1233 3376 conicto
925 3296 640 3136 conicto
640 3712 lineto
984 3840 1308 3904 conicto
1632 3968 1938 3968 conicto
2766 3968 3175 3527 conicto
3584 3086 3584 2190 conicto
end_ol grestore 
gsave 24.380840 27.763037 translate 0.035278 -0.035278 scale
start_ol
640 5312 moveto
1280 5312 lineto
1280 0 lineto
640 0 lineto
640 5312 lineto
end_ol grestore 
gsave 24.638098 27.763037 translate 0.035278 -0.035278 scale
start_ol
end_ol grestore 
gsave 24.930322 27.763037 translate 0.035278 -0.035278 scale
start_ol
2011 0 moveto
64 5056 lineto
785 5056 lineto
2400 799 lineto
4019 5056 lineto
4736 5056 lineto
2793 0 lineto
2011 0 lineto
end_ol grestore 
gsave 25.559732 27.763037 translate 0.035278 -0.035278 scale
start_ol
640 5056 moveto
1696 5056 lineto
2974 1605 lineto
4259 5056 lineto
5312 5056 lineto
5312 0 lineto
4608 0 lineto
4608 4438 lineto
3316 960 lineto
2636 960 lineto
1344 4438 lineto
1344 0 lineto
640 0 lineto
640 5056 lineto
end_ol grestore 
gsave 26.353987 27.763037 translate 0.035278 -0.035278 scale
start_ol
end_ol grestore 
gsave 26.646211 27.763037 translate 0.035278 -0.035278 scale
start_ol
832 896 moveto
1536 896 lineto
1536 0 lineto
832 0 lineto
832 896 lineto
832 3584 moveto
1536 3584 lineto
1536 2688 lineto
832 2688 lineto
832 3584 lineto
end_ol grestore 
gsave 26.955914 27.763037 translate 0.035278 -0.035278 scale
start_ol
end_ol grestore 
gsave 27.248138 27.763037 translate 0.035278 -0.035278 scale
start_ol
end_ol grestore 
gsave 27.540362 27.763037 translate 0.035278 -0.035278 scale
start_ol
end_ol grestore 
gsave 27.832586 27.763037 translate 0.035278 -0.035278 scale
start_ol
end_ol grestore 
gsave 28.124810 27.763037 translate 0.035278 -0.035278 scale
start_ol
end_ol grestore 
gsave 28.417034 27.763037 translate 0.035278 -0.035278 scale
start_ol
end_ol grestore 
gsave 28.709258 27.763037 translate 0.035278 -0.035278 scale
start_ol
end_ol grestore 
gsave 29.001482 27.763037 translate 0.035278 -0.035278 scale
start_ol
end_ol grestore 
gsave 29.293706 27.763037 translate 0.035278 -0.035278 scale
start_ol
end_ol grestore 
gsave 29.585930 27.763037 translate 0.035278 -0.035278 scale
start_ol
end_ol grestore 
gsave 29.878154 27.763037 translate 0.035278 -0.035278 scale
start_ol
end_ol grestore 
gsave 30.170378 27.763037 translate 0.035278 -0.035278 scale
start_ol
end_ol grestore 
gsave 30.462602 27.763037 translate 0.035278 -0.035278 scale
start_ol
end_ol grestore 
gsave 30.754826 27.763037 translate 0.035278 -0.035278 scale
start_ol
end_ol grestore 
gsave 31.047050 27.763037 translate 0.035278 -0.035278 scale
start_ol
end_ol grestore 
gsave 31.339274 27.763037 translate 0.035278 -0.035278 scale
start_ol
end_ol grestore 
gsave 31.631498 27.763037 translate 0.035278 -0.035278 scale
start_ol
end_ol grestore 
gsave 31.923722 27.763037 translate 0.035278 -0.035278 scale
start_ol
end_ol grestore 
gsave 32.215946 27.763037 translate 0.035278 -0.035278 scale
start_ol
1355 576 moveto
3739 576 lineto
3739 0 lineto
512 0 lineto
512 576 lineto
901 983 1573 1668 conicto
2246 2353 2419 2551 conicto
2747 2923 2877 3181 conicto
3008 3439 3008 3689 conicto
3008 4095 2728 4351 conicto
2449 4608 2001 4608 conicto
1683 4608 1330 4497 conicto
977 4386 576 4160 conicto
576 4864 lineto
987 5022 1344 5103 conicto
1702 5184 1999 5184 conicto
2781 5184 3246 4788 conicto
3712 4392 3712 3730 conicto
3712 3416 3595 3134 conicto
3479 2853 3171 2470 conicto
3086 2371 2633 1898 conicto
2180 1426 1355 576 conicto
end_ol grestore 
gsave 32.802891 27.763037 translate 0.035278 -0.035278 scale
start_ol
704 5056 moveto
3392 5056 lineto
3392 4480 lineto
1408 4480 lineto
1408 3290 lineto
1553 3341 1698 3366 conicto
1843 3392 1988 3392 conicto
2813 3392 3294 2917 conicto
3776 2443 3776 1632 conicto
3776 797 3269 334 conicto
2762 -128 1840 -128 conicto
1522 -128 1192 -80 conicto
863 -32 512 64 conicto
512 768 lineto
814 606 1135 527 conicto
1457 448 1815 448 conicto
2395 448 2733 767 conicto
3072 1086 3072 1632 conicto
3072 2178 2731 2497 conicto
2390 2816 1805 2816 conicto
1532 2816 1260 2753 conicto
988 2691 704 2560 conicto
704 5056 lineto
end_ol grestore 
gsave 33.389836 27.763037 translate 0.035278 -0.035278 scale
start_ol
end_ol grestore 
gsave 33.682060 27.763037 translate 0.035278 -0.035278 scale
start_ol
3264 4416 moveto
3264 2496 lineto
5184 2496 lineto
5184 1920 lineto
3264 1920 lineto
3264 0 lineto
2688 0 lineto
2688 1920 lineto
768 1920 lineto
768 2496 lineto
2688 2496 lineto
2688 4416 lineto
3264 4416 lineto
end_ol grestore 
gsave 34.453833 27.763037 translate 0.035278 -0.035278 scale
start_ol
end_ol grestore 
gsave 34.746057 27.763037 translate 0.035278 -0.035278 scale
start_ol
832 576 moveto
1984 576 lineto
1984 4480 lineto
768 4224 lineto
768 4800 lineto
1994 5056 lineto
2688 5056 lineto
2688 576 lineto
3840 576 lineto
3840 0 lineto
832 0 lineto
832 576 lineto
end_ol grestore 
gsave 35.333002 27.763037 translate 0.035278 -0.035278 scale
start_ol
1355 576 moveto
3739 576 lineto
3739 0 lineto
512 0 lineto
512 576 lineto
901 983 1573 1668 conicto
2246 2353 2419 2551 conicto
2747 2923 2877 3181 conicto
3008 3439 3008 3689 conicto
3008 4095 2728 4351 conicto
2449 4608 2001 4608 conicto
1683 4608 1330 4497 conicto
977 4386 576 4160 conicto
576 4864 lineto
987 5022 1344 5103 conicto
1702 5184 1999 5184 conicto
2781 5184 3246 4788 conicto
3712 4392 3712 3730 conicto
3712 3416 3595 3134 conicto
3479 2853 3171 2470 conicto
3086 2371 2633 1898 conicto
2180 1426 1355 576 conicto
end_ol grestore 
gsave 35.919947 27.763037 translate 0.035278 -0.035278 scale
start_ol
end_ol grestore 
gsave 36.212171 27.763037 translate 0.035278 -0.035278 scale
start_ol
768 3200 moveto
5120 3200 lineto
5120 2624 lineto
768 2624 lineto
768 3200 lineto
768 1792 moveto
5120 1792 lineto
5120 1216 lineto
768 1216 lineto
768 1792 lineto
end_ol grestore 
gsave 36.983944 27.763037 translate 0.035278 -0.035278 scale
start_ol
end_ol grestore 
gsave 37.276168 27.763037 translate 0.035278 -0.035278 scale
start_ol
2772 2744 moveto
3275 2637 3557 2299 conicto
3840 1962 3840 1466 conicto
3840 705 3325 288 conicto
2811 -128 1863 -128 conicto
1545 -128 1208 -64 conicto
871 0 512 128 conicto
512 768 lineto
794 610 1129 529 conicto
1465 448 1831 448 conicto
2468 448 2802 707 conicto
3136 966 3136 1461 conicto
3136 1917 2829 2174 conicto
2523 2432 1977 2432 conicto
1408 2432 lineto
1408 3008 lineto
2004 3008 lineto
2491 3008 2749 3211 conicto
3008 3414 3008 3796 conicto
3008 4188 2741 4398 conicto
2474 4608 1977 4608 conicto
1690 4608 1362 4545 conicto
1034 4483 640 4352 conicto
640 4992 lineto
1031 5088 1373 5136 conicto
1715 5184 2018 5184 conicto
2800 5184 3256 4827 conicto
3712 4471 3712 3863 conicto
3712 3440 3467 3148 conicto
3223 2857 2772 2744 conicto
end_ol grestore 
gsave 37.863114 27.763037 translate 0.035278 -0.035278 scale
start_ol
576 5056 moveto
3840 5056 lineto
3840 4765 lineto
1997 0 lineto
1280 0 lineto
3014 4480 lineto
576 4480 lineto
576 5056 lineto
end_ol grestore 
gsave 38.450059 27.763037 translate 0.035278 -0.035278 scale
start_ol
end_ol grestore 
gsave 38.742283 27.763037 translate 0.035278 -0.035278 scale
start_ol
3072 3776 moveto
3072 3200 lineto
2810 3328 2528 3392 conicto
2246 3456 1944 3456 conicto
1484 3456 1254 3310 conicto
1024 3164 1024 2871 conicto
1024 2649 1187 2522 conicto
1350 2395 1842 2280 conicto
2052 2230 lineto
2710 2082 2987 1813 conicto
3264 1544 3264 1062 conicto
3264 513 2848 192 conicto
2433 -128 1706 -128 conicto
1403 -128 1075 -64 conicto
747 0 384 128 conicto
384 768 lineto
727 576 1059 480 conicto
1391 384 1717 384 conicto
2154 384 2389 543 conicto
2624 703 2624 993 conicto
2624 1262 2456 1405 conicto
2288 1548 1719 1681 conicto
1506 1734 lineto
912 1859 648 2117 conicto
384 2375 384 2825 conicto
384 3372 766 3670 conicto
1148 3968 1851 3968 conicto
2199 3968 2506 3920 conicto
2813 3872 3072 3776 conicto
end_ol grestore 
gsave 39.221832 27.763037 translate 0.035278 -0.035278 scale
start_ol
3904 2112 moveto
3904 1792 lineto
1024 1792 lineto
1065 1104 1416 744 conicto
1768 384 2395 384 conicto
2758 384 3099 480 conicto
3440 576 3776 768 conicto
3776 192 lineto
3439 36 3084 -46 conicto
2729 -128 2365 -128 conicto
1451 -128 917 415 conicto
384 959 384 1885 conicto
384 2843 887 3405 conicto
1391 3968 2246 3968 conicto
3012 3968 3458 3469 conicto
3904 2970 3904 2112 conicto
3264 2304 moveto
3257 2830 2978 3143 conicto
2699 3456 2239 3456 conicto
1717 3456 1404 3153 conicto
1091 2850 1044 2301 conicto
3264 2304 lineto
end_ol grestore 
gsave 39.788801 27.763037 translate 0.035278 -0.035278 scale
start_ol
3136 1982 moveto
3136 2684 2858 3070 conicto
2580 3456 2078 3456 conicto
1580 3456 1302 3070 conicto
1024 2684 1024 1982 conicto
1024 1284 1302 898 conicto
1580 512 2078 512 conicto
2580 512 2858 898 conicto
3136 1284 3136 1982 conicto
3776 462 moveto
3776 -517 3344 -994 conicto
2913 -1472 2022 -1472 conicto
1692 -1472 1399 -1425 conicto
1107 -1378 832 -1280 conicto
832 -640 lineto
1106 -804 1372 -882 conicto
1639 -960 1916 -960 conicto
2528 -960 2832 -633 conicto
3136 -307 3136 352 conicto
3136 640 lineto
2944 318 2644 159 conicto
2344 0 1927 0 conicto
1233 0 808 543 conicto
384 1086 384 1982 conicto
384 2882 808 3425 conicto
1233 3968 1927 3968 conicto
2344 3968 2644 3809 conicto
2944 3650 3136 3328 conicto
3136 3840 lineto
3776 3840 lineto
3776 462 lineto
end_ol grestore 
gsave 40.373249 27.763037 translate 0.035278 -0.035278 scale
start_ol
640 1506 moveto
640 3840 lineto
1280 3840 lineto
1280 1530 lineto
1280 989 1489 718 conicto
1698 448 2115 448 conicto
2617 448 2908 771 conicto
3200 1095 3200 1654 conicto
3200 3840 lineto
3840 3840 lineto
3840 0 lineto
3200 0 lineto
3200 576 lineto
2973 219 2672 45 conicto
2372 -128 1974 -128 conicto
1319 -128 979 288 conicto
640 705 640 1506 conicto
2220 3968 moveto
2220 3968 lineto
end_ol grestore 
gsave 40.957697 27.763037 translate 0.035278 -0.035278 scale
start_ol
3840 2332 moveto
3840 0 lineto
3200 0 lineto
3200 2312 lineto
3200 2854 2991 3123 conicto
2782 3392 2363 3392 conicto
1860 3392 1570 3068 conicto
1280 2744 1280 2184 conicto
1280 0 lineto
640 0 lineto
640 3840 lineto
1280 3840 lineto
1280 3264 lineto
1504 3618 1808 3793 conicto
2113 3968 2511 3968 conicto
3167 3968 3503 3553 conicto
3840 3138 3840 2332 conicto
end_ol grestore 
gsave 41.542145 27.763037 translate 0.035278 -0.035278 scale
start_ol
3136 3328 moveto
3136 5312 lineto
3776 5312 lineto
3776 0 lineto
3136 0 lineto
3136 512 lineto
2941 187 2642 29 conicto
2344 -128 1927 -128 conicto
1243 -128 813 436 conicto
384 1000 384 1920 conicto
384 2840 813 3404 conicto
1243 3968 1927 3968 conicto
2344 3968 2642 3810 conicto
2941 3653 3136 3328 conicto
1024 1920 moveto
1024 1202 1305 793 conicto
1587 384 2078 384 conicto
2570 384 2853 793 conicto
3136 1202 3136 1920 conicto
3136 2638 2853 3047 conicto
2570 3456 2078 3456 conicto
1587 3456 1305 3047 conicto
1024 2638 1024 1920 conicto
end_ol grestore 
gsave 42.126593 27.763037 translate 0.035278 -0.035278 scale
start_ol
2146 3456 moveto
1627 3456 1325 3045 conicto
1024 2635 1024 1920 conicto
1024 1205 1323 794 conicto
1623 384 2146 384 conicto
2661 384 2962 796 conicto
3264 1209 3264 1920 conicto
3264 2628 2962 3042 conicto
2661 3456 2146 3456 conicto
2144 3968 moveto
2966 3968 3435 3424 conicto
3904 2881 3904 1920 conicto
3904 962 3435 417 conicto
2966 -128 2144 -128 conicto
1319 -128 851 417 conicto
384 962 384 1920 conicto
384 2881 851 3424 conicto
1319 3968 2144 3968 conicto
end_ol grestore 
gsave 42.691065 27.763037 translate 0.035278 -0.035278 scale
start_ol
3072 3776 moveto
3072 3200 lineto
2810 3328 2528 3392 conicto
2246 3456 1944 3456 conicto
1484 3456 1254 3310 conicto
1024 3164 1024 2871 conicto
1024 2649 1187 2522 conicto
1350 2395 1842 2280 conicto
2052 2230 lineto
2710 2082 2987 1813 conicto
3264 1544 3264 1062 conicto
3264 513 2848 192 conicto
2433 -128 1706 -128 conicto
1403 -128 1075 -64 conicto
747 0 384 128 conicto
384 768 lineto
727 576 1059 480 conicto
1391 384 1717 384 conicto
2154 384 2389 543 conicto
2624 703 2624 993 conicto
2624 1262 2456 1405 conicto
2288 1548 1719 1681 conicto
1506 1734 lineto
912 1859 648 2117 conicto
384 2375 384 2825 conicto
384 3372 766 3670 conicto
1148 3968 1851 3968 conicto
2199 3968 2506 3920 conicto
2813 3872 3072 3776 conicto
end_ol grestore 
gsave 43.170614 27.763037 translate 0.035278 -0.035278 scale
start_ol
end_ol grestore 
gsave 19.141325 29.410820 translate 0.035278 -0.035278 scale
start_ol
0 5056 moveto
4288 5056 lineto
4288 4480 lineto
2496 4480 lineto
2496 0 lineto
1792 0 lineto
1792 4480 lineto
0 4480 lineto
0 5056 lineto
end_ol grestore 
gsave 19.545939 29.410820 translate 0.035278 -0.035278 scale
start_ol
2146 3456 moveto
1627 3456 1325 3045 conicto
1024 2635 1024 1920 conicto
1024 1205 1323 794 conicto
1623 384 2146 384 conicto
2661 384 2962 796 conicto
3264 1209 3264 1920 conicto
3264 2628 2962 3042 conicto
2661 3456 2146 3456 conicto
2144 3968 moveto
2966 3968 3435 3424 conicto
3904 2881 3904 1920 conicto
3904 962 3435 417 conicto
2966 -128 2144 -128 conicto
1319 -128 851 417 conicto
384 962 384 1920 conicto
384 2881 851 3424 conicto
1319 3968 2144 3968 conicto
end_ol grestore 
gsave 20.110411 29.410820 translate 0.035278 -0.035278 scale
start_ol
1280 4928 moveto
1280 3840 lineto
2560 3840 lineto
2560 3328 lineto
1280 3328 lineto
1280 1248 lineto
1280 779 1406 645 conicto
1533 512 1922 512 conicto
2560 512 lineto
2560 0 lineto
1922 0 lineto
1194 0 917 269 conicto
640 538 640 1248 conicto
640 3328 lineto
192 3328 lineto
192 3840 lineto
640 3840 lineto
640 4928 lineto
1280 4928 lineto
end_ol grestore 
gsave 20.472567 29.410820 translate 0.035278 -0.035278 scale
start_ol
2336 1920 moveto
1595 1920 1309 1741 conicto
1024 1562 1024 1131 conicto
1024 787 1238 585 conicto
1453 384 1821 384 conicto
2329 384 2636 765 conicto
2944 1147 2944 1780 conicto
2944 1920 lineto
2336 1920 lineto
3584 2190 moveto
3584 0 lineto
2944 0 lineto
2944 576 lineto
2732 215 2416 43 conicto
2101 -128 1644 -128 conicto
1066 -128 725 207 conicto
384 543 384 1107 conicto
384 1764 811 2098 conicto
1239 2432 2087 2432 conicto
2944 2432 lineto
2944 2498 lineto
2944 2955 2661 3205 conicto
2378 3456 1867 3456 conicto
1541 3456 1233 3376 conicto
925 3296 640 3136 conicto
640 3712 lineto
984 3840 1308 3904 conicto
1632 3968 1938 3968 conicto
2766 3968 3175 3527 conicto
3584 3086 3584 2190 conicto
end_ol grestore 
gsave 21.037039 29.410820 translate 0.035278 -0.035278 scale
start_ol
640 5312 moveto
1280 5312 lineto
1280 0 lineto
640 0 lineto
640 5312 lineto
end_ol grestore 
gsave 21.294297 29.410820 translate 0.035278 -0.035278 scale
start_ol
end_ol grestore 
gsave 21.586521 29.410820 translate 0.035278 -0.035278 scale
start_ol
1344 4480 moveto
1344 576 lineto
2181 576 lineto
3240 576 3732 1047 conicto
4224 1518 4224 2533 conicto
4224 3542 3732 4011 conicto
3240 4480 2181 4480 conicto
1344 4480 lineto
640 5056 moveto
2074 5056 lineto
3549 5056 4238 4444 conicto
4928 3833 4928 2533 conicto
4928 1226 4235 613 conicto
3542 0 2074 0 conicto
640 0 lineto
640 5056 lineto
end_ol grestore 
gsave 22.295852 29.410820 translate 0.035278 -0.035278 scale
start_ol
2336 1920 moveto
1595 1920 1309 1741 conicto
1024 1562 1024 1131 conicto
1024 787 1238 585 conicto
1453 384 1821 384 conicto
2329 384 2636 765 conicto
2944 1147 2944 1780 conicto
2944 1920 lineto
2336 1920 lineto
3584 2190 moveto
3584 0 lineto
2944 0 lineto
2944 576 lineto
2732 215 2416 43 conicto
2101 -128 1644 -128 conicto
1066 -128 725 207 conicto
384 543 384 1107 conicto
384 1764 811 2098 conicto
1239 2432 2087 2432 conicto
2944 2432 lineto
2944 2498 lineto
2944 2955 2661 3205 conicto
2378 3456 1867 3456 conicto
1541 3456 1233 3376 conicto
925 3296 640 3136 conicto
640 3712 lineto
984 3840 1308 3904 conicto
1632 3968 1938 3968 conicto
2766 3968 3175 3527 conicto
3584 3086 3584 2190 conicto
end_ol grestore 
gsave 22.860324 29.410820 translate 0.035278 -0.035278 scale
start_ol
3136 3328 moveto
3136 5312 lineto
3776 5312 lineto
3776 0 lineto
3136 0 lineto
3136 512 lineto
2941 187 2642 29 conicto
2344 -128 1927 -128 conicto
1243 -128 813 436 conicto
384 1000 384 1920 conicto
384 2840 813 3404 conicto
1243 3968 1927 3968 conicto
2344 3968 2642 3810 conicto
2941 3653 3136 3328 conicto
1024 1920 moveto
1024 1202 1305 793 conicto
1587 384 2078 384 conicto
2570 384 2853 793 conicto
3136 1202 3136 1920 conicto
3136 2638 2853 3047 conicto
2570 3456 2078 3456 conicto
1587 3456 1305 3047 conicto
1024 2638 1024 1920 conicto
end_ol grestore 
gsave 23.444773 29.410820 translate 0.035278 -0.035278 scale
start_ol
2146 3456 moveto
1627 3456 1325 3045 conicto
1024 2635 1024 1920 conicto
1024 1205 1323 794 conicto
1623 384 2146 384 conicto
2661 384 2962 796 conicto
3264 1209 3264 1920 conicto
3264 2628 2962 3042 conicto
2661 3456 2146 3456 conicto
2144 3968 moveto
2966 3968 3435 3424 conicto
3904 2881 3904 1920 conicto
3904 962 3435 417 conicto
2966 -128 2144 -128 conicto
1319 -128 851 417 conicto
384 962 384 1920 conicto
384 2881 851 3424 conicto
1319 3968 2144 3968 conicto
end_ol grestore 
gsave 24.009245 29.410820 translate 0.035278 -0.035278 scale
start_ol
3072 3776 moveto
3072 3200 lineto
2810 3328 2528 3392 conicto
2246 3456 1944 3456 conicto
1484 3456 1254 3310 conicto
1024 3164 1024 2871 conicto
1024 2649 1187 2522 conicto
1350 2395 1842 2280 conicto
2052 2230 lineto
2710 2082 2987 1813 conicto
3264 1544 3264 1062 conicto
3264 513 2848 192 conicto
2433 -128 1706 -128 conicto
1403 -128 1075 -64 conicto
747 0 384 128 conicto
384 768 lineto
727 576 1059 480 conicto
1391 384 1717 384 conicto
2154 384 2389 543 conicto
2624 703 2624 993 conicto
2624 1262 2456 1405 conicto
2288 1548 1719 1681 conicto
1506 1734 lineto
912 1859 648 2117 conicto
384 2375 384 2825 conicto
384 3372 766 3670 conicto
1148 3968 1851 3968 conicto
2199 3968 2506 3920 conicto
2813 3872 3072 3776 conicto
end_ol grestore 
gsave 24.488794 29.410820 translate 0.035278 -0.035278 scale
start_ol
end_ol grestore 
gsave 24.781018 29.410820 translate 0.035278 -0.035278 scale
start_ol
0 5056 moveto
4288 5056 lineto
4288 4480 lineto
2496 4480 lineto
2496 0 lineto
1792 0 lineto
1792 4480 lineto
0 4480 lineto
0 5056 lineto
end_ol grestore 
gsave 25.208113 29.410820 translate 0.035278 -0.035278 scale
start_ol
2880 3264 moveto
2775 3330 2651 3361 conicto
2527 3392 2377 3392 conicto
1847 3392 1563 3042 conicto
1280 2692 1280 2036 conicto
1280 0 lineto
640 0 lineto
640 3840 lineto
1280 3840 lineto
1280 3264 lineto
1477 3621 1793 3794 conicto
2109 3968 2561 3968 conicto
2625 3968 2703 3952 conicto
2781 3936 2877 3904 conicto
2880 3264 lineto
end_ol grestore 
gsave 25.587757 29.410820 translate 0.035278 -0.035278 scale
start_ol
2336 1920 moveto
1595 1920 1309 1741 conicto
1024 1562 1024 1131 conicto
1024 787 1238 585 conicto
1453 384 1821 384 conicto
2329 384 2636 765 conicto
2944 1147 2944 1780 conicto
2944 1920 lineto
2336 1920 lineto
3584 2190 moveto
3584 0 lineto
2944 0 lineto
2944 576 lineto
2732 215 2416 43 conicto
2101 -128 1644 -128 conicto
1066 -128 725 207 conicto
384 543 384 1107 conicto
384 1764 811 2098 conicto
1239 2432 2087 2432 conicto
2944 2432 lineto
2944 2498 lineto
2944 2955 2661 3205 conicto
2378 3456 1867 3456 conicto
1541 3456 1233 3376 conicto
925 3296 640 3136 conicto
640 3712 lineto
984 3840 1308 3904 conicto
1632 3968 1938 3968 conicto
2766 3968 3175 3527 conicto
3584 3086 3584 2190 conicto
end_ol grestore 
gsave 26.152229 29.410820 translate 0.035278 -0.035278 scale
start_ol
3840 2332 moveto
3840 0 lineto
3200 0 lineto
3200 2312 lineto
3200 2854 2991 3123 conicto
2782 3392 2363 3392 conicto
1860 3392 1570 3068 conicto
1280 2744 1280 2184 conicto
1280 0 lineto
640 0 lineto
640 3840 lineto
1280 3840 lineto
1280 3264 lineto
1504 3618 1808 3793 conicto
2113 3968 2511 3968 conicto
3167 3968 3503 3553 conicto
3840 3138 3840 2332 conicto
end_ol grestore 
gsave 26.736677 29.410820 translate 0.035278 -0.035278 scale
start_ol
3605 3123 moveto
3837 3556 4159 3762 conicto
4482 3968 4918 3968 conicto
5506 3968 5825 3542 conicto
6144 3117 6144 2332 conicto
6144 0 lineto
5504 0 lineto
5504 2312 lineto
5504 2861 5315 3126 conicto
5126 3392 4737 3392 conicto
4263 3392 3987 3068 conicto
3712 2744 3712 2184 conicto
3712 0 lineto
3072 0 lineto
3072 2312 lineto
3072 2864 2883 3128 conicto
2694 3392 2299 3392 conicto
1831 3392 1555 3066 conicto
1280 2740 1280 2184 conicto
1280 0 lineto
640 0 lineto
640 3840 lineto
1280 3840 lineto
1280 3264 lineto
1491 3625 1786 3796 conicto
2081 3968 2486 3968 conicto
2895 3968 3181 3751 conicto
3468 3535 3605 3123 conicto
end_ol grestore 
gsave 27.633333 29.410820 translate 0.035278 -0.035278 scale
start_ol
640 3840 moveto
1280 3840 lineto
1280 0 lineto
640 0 lineto
640 3840 lineto
640 5312 moveto
1280 5312 lineto
1280 4544 lineto
640 4544 lineto
640 5312 lineto
end_ol grestore 
gsave 27.890591 29.410820 translate 0.035278 -0.035278 scale
start_ol
1280 4928 moveto
1280 3840 lineto
2560 3840 lineto
2560 3328 lineto
1280 3328 lineto
1280 1248 lineto
1280 779 1406 645 conicto
1533 512 1922 512 conicto
2560 512 lineto
2560 0 lineto
1922 0 lineto
1194 0 917 269 conicto
640 538 640 1248 conicto
640 3328 lineto
192 3328 lineto
192 3840 lineto
640 3840 lineto
640 4928 lineto
1280 4928 lineto
end_ol grestore 
gsave 28.252748 29.410820 translate 0.035278 -0.035278 scale
start_ol
640 3840 moveto
1280 3840 lineto
1280 0 lineto
640 0 lineto
640 3840 lineto
640 5312 moveto
1280 5312 lineto
1280 4544 lineto
640 4544 lineto
640 5312 lineto
end_ol grestore 
gsave 28.510005 29.410820 translate 0.035278 -0.035278 scale
start_ol
3136 3328 moveto
3136 5312 lineto
3776 5312 lineto
3776 0 lineto
3136 0 lineto
3136 512 lineto
2941 187 2642 29 conicto
2344 -128 1927 -128 conicto
1243 -128 813 436 conicto
384 1000 384 1920 conicto
384 2840 813 3404 conicto
1243 3968 1927 3968 conicto
2344 3968 2642 3810 conicto
2941 3653 3136 3328 conicto
1024 1920 moveto
1024 1202 1305 793 conicto
1587 384 2078 384 conicto
2570 384 2853 793 conicto
3136 1202 3136 1920 conicto
3136 2638 2853 3047 conicto
2570 3456 2078 3456 conicto
1587 3456 1305 3047 conicto
1024 2638 1024 1920 conicto
end_ol grestore 
gsave 29.094454 29.410820 translate 0.035278 -0.035278 scale
start_ol
2146 3456 moveto
1627 3456 1325 3045 conicto
1024 2635 1024 1920 conicto
1024 1205 1323 794 conicto
1623 384 2146 384 conicto
2661 384 2962 796 conicto
3264 1209 3264 1920 conicto
3264 2628 2962 3042 conicto
2661 3456 2146 3456 conicto
2144 3968 moveto
2966 3968 3435 3424 conicto
3904 2881 3904 1920 conicto
3904 962 3435 417 conicto
2966 -128 2144 -128 conicto
1319 -128 851 417 conicto
384 962 384 1920 conicto
384 2881 851 3424 conicto
1319 3968 2144 3968 conicto
end_ol grestore 
gsave 29.658926 29.410820 translate 0.035278 -0.035278 scale
start_ol
3072 3776 moveto
3072 3200 lineto
2810 3328 2528 3392 conicto
2246 3456 1944 3456 conicto
1484 3456 1254 3310 conicto
1024 3164 1024 2871 conicto
1024 2649 1187 2522 conicto
1350 2395 1842 2280 conicto
2052 2230 lineto
2710 2082 2987 1813 conicto
3264 1544 3264 1062 conicto
3264 513 2848 192 conicto
2433 -128 1706 -128 conicto
1403 -128 1075 -64 conicto
747 0 384 128 conicto
384 768 lineto
727 576 1059 480 conicto
1391 384 1717 384 conicto
2154 384 2389 543 conicto
2624 703 2624 993 conicto
2624 1262 2456 1405 conicto
2288 1548 1719 1681 conicto
1506 1734 lineto
912 1859 648 2117 conicto
384 2375 384 2825 conicto
384 3372 766 3670 conicto
1148 3968 1851 3968 conicto
2199 3968 2506 3920 conicto
2813 3872 3072 3776 conicto
end_ol grestore 
gsave 30.138475 29.410820 translate 0.035278 -0.035278 scale
start_ol
832 896 moveto
1536 896 lineto
1536 0 lineto
832 0 lineto
832 896 lineto
832 3584 moveto
1536 3584 lineto
1536 2688 lineto
832 2688 lineto
832 3584 lineto
end_ol grestore 
gsave 30.448178 29.410820 translate 0.035278 -0.035278 scale
start_ol
end_ol grestore 
gsave 30.740402 29.410820 translate 0.035278 -0.035278 scale
start_ol
end_ol grestore 
gsave 31.032626 29.410820 translate 0.035278 -0.035278 scale
start_ol
end_ol grestore 
gsave 31.324850 29.410820 translate 0.035278 -0.035278 scale
start_ol
end_ol grestore 
gsave 31.617074 29.410820 translate 0.035278 -0.035278 scale
start_ol
end_ol grestore 
gsave 31.909298 29.410820 translate 0.035278 -0.035278 scale
start_ol
end_ol grestore 
gsave 32.201522 29.410820 translate 0.035278 -0.035278 scale
start_ol
end_ol grestore 
gsave 32.493746 29.410820 translate 0.035278 -0.035278 scale
start_ol
end_ol grestore 
gsave 32.785970 29.410820 translate 0.035278 -0.035278 scale
start_ol
1355 576 moveto
3739 576 lineto
3739 0 lineto
512 0 lineto
512 576 lineto
901 983 1573 1668 conicto
2246 2353 2419 2551 conicto
2747 2923 2877 3181 conicto
3008 3439 3008 3689 conicto
3008 4095 2728 4351 conicto
2449 4608 2001 4608 conicto
1683 4608 1330 4497 conicto
977 4386 576 4160 conicto
576 4864 lineto
987 5022 1344 5103 conicto
1702 5184 1999 5184 conicto
2781 5184 3246 4788 conicto
3712 4392 3712 3730 conicto
3712 3416 3595 3134 conicto
3479 2853 3171 2470 conicto
3086 2371 2633 1898 conicto
2180 1426 1355 576 conicto
end_ol grestore 
gsave 33.372915 29.410820 translate 0.035278 -0.035278 scale
start_ol
end_ol grestore 
gsave 33.665139 29.410820 translate 0.035278 -0.035278 scale
start_ol
3264 4416 moveto
3264 2496 lineto
5184 2496 lineto
5184 1920 lineto
3264 1920 lineto
3264 0 lineto
2688 0 lineto
2688 1920 lineto
768 1920 lineto
768 2496 lineto
2688 2496 lineto
2688 4416 lineto
3264 4416 lineto
end_ol grestore 
gsave 34.436912 29.410820 translate 0.035278 -0.035278 scale
start_ol
end_ol grestore 
gsave 34.729136 29.410820 translate 0.035278 -0.035278 scale
start_ol
end_ol grestore 
gsave 35.021360 29.410820 translate 0.035278 -0.035278 scale
start_ol
end_ol grestore 
gsave 35.313584 29.410820 translate 0.035278 -0.035278 scale
start_ol
832 576 moveto
1984 576 lineto
1984 4480 lineto
768 4224 lineto
768 4800 lineto
1994 5056 lineto
2688 5056 lineto
2688 576 lineto
3840 576 lineto
3840 0 lineto
832 0 lineto
832 576 lineto
end_ol grestore 
gsave 35.900529 29.410820 translate 0.035278 -0.035278 scale
start_ol
end_ol grestore 
gsave 36.192753 29.410820 translate 0.035278 -0.035278 scale
start_ol
768 3200 moveto
5120 3200 lineto
5120 2624 lineto
768 2624 lineto
768 3200 lineto
768 1792 moveto
5120 1792 lineto
5120 1216 lineto
768 1216 lineto
768 1792 lineto
end_ol grestore 
gsave 36.964526 29.410820 translate 0.035278 -0.035278 scale
start_ol
end_ol grestore 
gsave 37.256750 29.410820 translate 0.035278 -0.035278 scale
start_ol
end_ol grestore 
gsave 37.548974 29.410820 translate 0.035278 -0.035278 scale
start_ol
end_ol grestore 
gsave 37.841198 29.410820 translate 0.035278 -0.035278 scale
start_ol
2772 2744 moveto
3275 2637 3557 2299 conicto
3840 1962 3840 1466 conicto
3840 705 3325 288 conicto
2811 -128 1863 -128 conicto
1545 -128 1208 -64 conicto
871 0 512 128 conicto
512 768 lineto
794 610 1129 529 conicto
1465 448 1831 448 conicto
2468 448 2802 707 conicto
3136 966 3136 1461 conicto
3136 1917 2829 2174 conicto
2523 2432 1977 2432 conicto
1408 2432 lineto
1408 3008 lineto
2004 3008 lineto
2491 3008 2749 3211 conicto
3008 3414 3008 3796 conicto
3008 4188 2741 4398 conicto
2474 4608 1977 4608 conicto
1690 4608 1362 4545 conicto
1034 4483 640 4352 conicto
640 4992 lineto
1031 5088 1373 5136 conicto
1715 5184 2018 5184 conicto
2800 5184 3256 4827 conicto
3712 4471 3712 3863 conicto
3712 3440 3467 3148 conicto
3223 2857 2772 2744 conicto
end_ol grestore 
gsave 38.428143 29.410820 translate 0.035278 -0.035278 scale
start_ol
end_ol grestore 
gsave 38.720367 29.410820 translate 0.035278 -0.035278 scale
start_ol
4096 703 moveto
4096 2048 lineto
2944 2048 lineto
2944 2624 lineto
4800 2624 lineto
4800 455 lineto
4404 167 3926 19 conicto
3449 -128 2907 -128 conicto
1722 -128 1053 573 conicto
384 1275 384 2526 conicto
384 3781 1053 4482 conicto
1723 5184 2909 5184 conicto
3404 5184 3850 5054 conicto
4296 4924 4672 4672 conicto
4672 3968 lineto
4290 4286 3861 4447 conicto
3432 4608 2958 4608 conicto
2025 4608 1556 4085 conicto
1088 3562 1088 2526 conicto
1088 1494 1552 971 conicto
2016 448 2941 448 conicto
3303 448 3586 510 conicto
3870 572 4096 703 conicto
end_ol grestore 
gsave 39.434693 29.410820 translate 0.035278 -0.035278 scale
start_ol
1344 2432 moveto
1344 576 lineto
2430 576 lineto
2985 576 3252 805 conicto
3520 1034 3520 1506 conicto
3520 1981 3252 2206 conicto
2985 2432 2430 2432 conicto
1344 2432 lineto
1344 4480 moveto
1344 3008 lineto
2346 3008 lineto
2842 3008 3085 3189 conicto
3328 3371 3328 3744 conicto
3328 4114 3085 4297 conicto
2842 4480 2346 4480 conicto
1344 4480 lineto
640 5056 moveto
2396 5056 lineto
3182 5056 3607 4735 conicto
4032 4414 4032 3822 conicto
4032 3364 3811 3093 conicto
3591 2822 3164 2755 conicto
3667 2645 3945 2298 conicto
4224 1951 4224 1431 conicto
4224 746 3766 373 conicto
3308 0 2463 0 conicto
640 0 lineto
640 5056 lineto
end_ol grestore 
showpage
