%!PS-Adobe-2.0 EPSF-2.0
%%Title: /home/drhachmann/Documentos/2012/PRM/Final/broker-calculator/tech-report/02/data/scheduling.dia
%%Creator: Dia v0.97.2
%%CreationDate: Mon Nov 19 08:47:57 2012
%%For: drhachmann
%%Orientation: Portrait
%%Magnification: 1.0000
%%BoundingBox: 0 0 993 891
%%BeginSetup
%%EndSetup
%%EndComments
%%BeginProlog
[ /.notdef /.notdef /.notdef /.notdef /.notdef /.notdef /.notdef /.notdef /.notdef /.notdef
/.notdef /.notdef /.notdef /.notdef /.notdef /.notdef /.notdef /.notdef /.notdef /.notdef
/.notdef /.notdef /.notdef /.notdef /.notdef /.notdef /.notdef /.notdef /.notdef /.notdef
/.notdef /.notdef /space /exclam /quotedbl /numbersign /dollar /percent /ampersand /quoteright
/parenleft /parenright /asterisk /plus /comma /hyphen /period /slash /zero /one
/two /three /four /five /six /seven /eight /nine /colon /semicolon
/less /equal /greater /question /at /A /B /C /D /E
/F /G /H /I /J /K /L /M /N /O
/P /Q /R /S /T /U /V /W /X /Y
/Z /bracketleft /backslash /bracketright /asciicircum /underscore /quoteleft /a /b /c
/d /e /f /g /h /i /j /k /l /m
/n /o /p /q /r /s /t /u /v /w
/x /y /z /braceleft /bar /braceright /asciitilde /.notdef /.notdef /.notdef
/.notdef /.notdef /.notdef /.notdef /.notdef /.notdef /.notdef /.notdef /.notdef /.notdef
/.notdef /.notdef /.notdef /.notdef /.notdef /.notdef /.notdef /.notdef /.notdef /.notdef
/.notdef /.notdef /.notdef /.notdef /.notdef /.notdef /.notdef /.notdef /.notdef /.notdef
/space /exclamdown /cent /sterling /currency /yen /brokenbar /section /dieresis /copyright
/ordfeminine /guillemotleft /logicalnot /hyphen /registered /macron /degree /plusminus /twosuperior /threesuperior
/acute /mu /paragraph /periodcentered /cedilla /onesuperior /ordmasculine /guillemotright /onequarter /onehalf
/threequarters /questiondown /Agrave /Aacute /Acircumflex /Atilde /Adieresis /Aring /AE /Ccedilla
/Egrave /Eacute /Ecircumflex /Edieresis /Igrave /Iacute /Icircumflex /Idieresis /Eth /Ntilde
/Ograve /Oacute /Ocircumflex /Otilde /Odieresis /multiply /Oslash /Ugrave /Uacute /Ucircumflex
/Udieresis /Yacute /Thorn /germandbls /agrave /aacute /acircumflex /atilde /adieresis /aring
/ae /ccedilla /egrave /eacute /ecircumflex /edieresis /igrave /iacute /icircumflex /idieresis
/eth /ntilde /ograve /oacute /ocircumflex /otilde /odieresis /divide /oslash /ugrave
/uacute /ucircumflex /udieresis /yacute /thorn /ydieresis] /isolatin1encoding exch def
/cp {closepath} bind def
/c {curveto} bind def
/f {fill} bind def
/a {arc} bind def
/ef {eofill} bind def
/ex {exch} bind def
/gr {grestore} bind def
/gs {gsave} bind def
/sa {save} bind def
/rs {restore} bind def
/l {lineto} bind def
/m {moveto} bind def
/rm {rmoveto} bind def
/n {newpath} bind def
/s {stroke} bind def
/sh {show} bind def
/slc {setlinecap} bind def
/slj {setlinejoin} bind def
/slw {setlinewidth} bind def
/srgb {setrgbcolor} bind def
/rot {rotate} bind def
/sc {scale} bind def
/sd {setdash} bind def
/ff {findfont} bind def
/sf {setfont} bind def
/scf {scalefont} bind def
/sw {stringwidth pop} bind def
/tr {translate} bind def

/ellipsedict 8 dict def
ellipsedict /mtrx matrix put
/ellipse
{ ellipsedict begin
   /endangle exch def
   /startangle exch def
   /yrad exch def
   /xrad exch def
   /y exch def
   /x exch def   /savematrix mtrx currentmatrix def
   x y tr xrad yrad sc
   0 0 1 startangle endangle arc
   savematrix setmatrix
   end
} def

/mergeprocs {
dup length
3 -1 roll
dup
length
dup
5 1 roll
3 -1 roll
add
array cvx
dup
3 -1 roll
0 exch
putinterval
dup
4 2 roll
putinterval
} bind def
/dpi_x 300 def
/dpi_y 300 def
/conicto {
    /to_y exch def
    /to_x exch def
    /conic_cntrl_y exch def
    /conic_cntrl_x exch def
    currentpoint
    /p0_y exch def
    /p0_x exch def
    /p1_x p0_x conic_cntrl_x p0_x sub 2 3 div mul add def
    /p1_y p0_y conic_cntrl_y p0_y sub 2 3 div mul add def
    /p2_x p1_x to_x p0_x sub 1 3 div mul add def
    /p2_y p1_y to_y p0_y sub 1 3 div mul add def
    p1_x p1_y p2_x p2_y to_x to_y curveto
} bind def
/start_ol { gsave 1.1 dpi_x div dup scale} bind def
/end_ol { closepath fill grestore } bind def
28.346000 -28.346000 scale
-5.935000 -26.764128 translate
%%EndProlog


1.000000 1.000000 1.000000 srgb
n 11.525000 11.725000 1.675000 1.675000 0 360 ellipse f
0.100000 slw
[] 0 sd
[] 0 sd
0.000000 0.000000 0.000000 srgb
n 11.525000 11.725000 1.675000 1.675000 0 360 ellipse cp s
gsave 11.025000 12.325000 translate 0.035278 -0.035278 scale
start_ol
1664 1088 moveto
3840 1088 lineto
3840 8512 lineto
1472 8064 lineto
1472 9280 lineto
3843 9728 lineto
5184 9728 lineto
5184 1088 lineto
7360 1088 lineto
7360 0 lineto
1664 0 lineto
1664 1088 lineto
end_ol grestore 
1.000000 1.000000 1.000000 srgb
n 23.330000 5.610000 1.675000 1.675000 0 360 ellipse f
0.100000 slw
[] 0 sd
[] 0 sd
0.000000 0.000000 0.000000 srgb
n 23.330000 5.610000 1.675000 1.675000 0 360 ellipse cp s
gsave 22.830000 6.210000 translate 0.035278 -0.035278 scale
start_ol
2542 1088 moveto
7156 1088 lineto
7156 0 lineto
960 0 lineto
960 1088 lineto
1709 1869 3002 3185 conicto
4295 4501 4627 4881 conicto
5259 5597 5509 6092 conicto
5760 6588 5760 7067 conicto
5760 7848 5216 8340 conicto
4672 8832 3799 8832 conicto
3180 8832 2493 8609 conicto
1806 8387 1024 7936 conicto
1024 9280 lineto
1822 9597 2515 9758 conicto
3208 9920 3783 9920 conicto
5300 9920 6202 9161 conicto
7104 8402 7104 7133 conicto
7104 6531 6878 5991 conicto
6652 5452 6057 4719 conicto
5893 4529 5016 3623 conicto
4139 2717 2542 1088 conicto
end_ol grestore 
1.000000 1.000000 1.000000 srgb
n 23.380000 17.060000 1.675000 1.675000 0 360 ellipse f
0.100000 slw
[] 0 sd
[] 0 sd
0.000000 0.000000 0.000000 srgb
n 23.380000 17.060000 1.675000 1.675000 0 360 ellipse cp s
gsave 22.980000 17.360000 translate 0.035278 -0.035278 scale
start_ol
5362 5262 moveto
6333 5059 6878 4418 conicto
7424 3778 7424 2836 conicto
7424 1391 6434 599 conicto
5445 -192 3622 -192 conicto
3010 -192 2362 -64 conicto
1714 64 1024 320 conicto
1024 1600 lineto
1567 1252 2213 1074 conicto
2860 896 3565 896 conicto
4793 896 5436 1389 conicto
6080 1883 6080 2823 conicto
6080 3692 5478 4182 conicto
4877 4672 3804 4672 conicto
2688 4672 lineto
2688 5760 lineto
3855 5760 lineto
4811 5760 5317 6149 conicto
5824 6539 5824 7273 conicto
5824 8026 5301 8429 conicto
4779 8832 3804 8832 conicto
3276 8832 2672 8707 conicto
2069 8583 1344 8320 conicto
1344 9472 lineto
2086 9696 2734 9808 conicto
3382 9920 3956 9920 conicto
5440 9920 6304 9239 conicto
7168 8558 7168 7399 conicto
7168 6591 6698 6034 conicto
6229 5477 5362 5262 conicto
end_ol grestore 
1.000000 1.000000 1.000000 srgb
n 35.530000 10.860000 1.675000 1.675000 0 360 ellipse f
0.100000 slw
[] 0 sd
[] 0 sd
0.000000 0.000000 0.000000 srgb
n 35.530000 10.860000 1.675000 1.675000 0 360 ellipse cp s
gsave 34.980000 11.410000 translate 0.035278 -0.035278 scale
start_ol
4992 8582 moveto
1699 3392 lineto
4992 3392 lineto
4992 8582 lineto
4683 9728 moveto
6336 9728 lineto
6336 3392 lineto
7744 3392 lineto
7744 2304 lineto
6336 2304 lineto
6336 0 lineto
4992 0 lineto
4992 2304 lineto
640 2304 lineto
640 3573 lineto
4683 9728 lineto
end_ol grestore 
0.100000 slw
[] 0 sd
[] 0 sd
0 slc
n 13.056105 10.931886 m 21.366642 6.627021 l s
[] 0 sd
0 slj
0 slc
n 21.699620 6.454538 m 21.370638 6.906501 l 21.366642 6.627021 l 21.140660 6.462530 l ef
n 21.699620 6.454538 m 21.370638 6.906501 l 21.366642 6.627021 l 21.140660 6.462530 l cp s
0.100000 slw
[] 0 sd
[] 0 sd
0 slc
n 23.337533 7.335117 m 23.370341 14.848084 l s
[] 0 sd
0 slj
0 slc
n 23.371979 15.223080 m 23.119798 14.724177 l 23.370341 14.848084 l 23.619793 14.721993 l ef
n 23.371979 15.223080 m 23.119798 14.724177 l 23.370341 14.848084 l 23.619793 14.721993 l cp s
0.100000 slw
[] 0 sd
[] 0 sd
0 slc
n 24.908613 6.289321 m 33.504229 9.988254 l s
[] 0 sd
0 slj
0 slc
n 33.848689 10.136485 m 33.290588 10.168484 l 33.504229 9.988254 l 33.488229 9.709204 l ef
n 33.848689 10.136485 m 33.290588 10.168484 l 33.504229 9.988254 l 33.488229 9.709204 l cp s
0.100000 slw
[] 0 sd
[] 0 sd
0 slc
n 13.098407 12.433066 m 21.362670 16.152159 l s
[] 0 sd
0 slj
0 slc
n 21.704638 16.306052 m 21.146086 16.328840 l 21.362670 16.152159 l 21.351276 15.872883 l ef
n 21.704638 16.306052 m 21.146086 16.328840 l 21.362670 16.152159 l 21.351276 15.872883 l cp s
0.100000 slw
[] 0 sd
[] 0 sd
0 slc
n 24.913582 16.277432 m 33.562807 11.863835 l s
[] 0 sd
0 slj
0 slc
n 33.896832 11.693386 m 33.565098 12.143334 l 33.562807 11.863835 l 33.337833 11.697968 l ef
n 33.896832 11.693386 m 33.565098 12.143334 l 33.562807 11.863835 l 33.337833 11.697968 l cp s
0.100000 slw
[] 0 sd
[] 0 sd
0 slj
1.000000 1.000000 1.000000 srgb
n 21.900000 -1.950000 m 21.900000 0.350000 l 24.900000 0.350000 l 24.900000 -1.950000 l f
1.000000 0.000000 0.000000 srgb
n 21.900000 -1.950000 m 21.900000 0.350000 l 24.900000 0.350000 l 24.900000 -1.950000 l cp s
0.100000 slw
[] 0 sd
[] 0 sd
0 slc
n 23.348837 3.885043 m 23.386901 0.399528 l s
0.000000 0.000000 0.000000 srgb
gsave 22.085000 -0.372500 translate 0.035278 -0.035278 scale
start_ol
2304 0 moveto
64 5824 lineto
893 5824 lineto
2752 921 lineto
4615 5824 lineto
5440 5824 lineto
3204 0 lineto
2304 0 lineto
end_ol grestore 
gsave 22.811819 -0.372500 translate 0.035278 -0.035278 scale
start_ol
768 5824 moveto
1943 5824 lineto
3422 1888 lineto
4908 5824 lineto
6080 5824 lineto
6080 0 lineto
5312 0 lineto
5312 5119 lineto
3818 1152 lineto
3030 1152 lineto
1536 5119 lineto
1536 0 lineto
768 0 lineto
768 5824 lineto
end_ol grestore 
gsave 23.728459 -0.372500 translate 0.035278 -0.035278 scale
start_ol
end_ol grestore 
gsave 24.065638 -0.372500 translate 0.035278 -0.035278 scale
start_ol
1024 640 moveto
2304 640 lineto
2304 5184 lineto
896 4928 lineto
896 5568 lineto
2286 5824 lineto
3072 5824 lineto
3072 640 lineto
4352 640 lineto
4352 0 lineto
1024 0 lineto
1024 640 lineto
end_ol grestore 
0.100000 slw
[] 0 sd
[] 0 sd
0 slj
1.000000 1.000000 1.000000 srgb
n 10.035000 16.135000 m 10.035000 18.435000 l 13.035000 18.435000 l 13.035000 16.135000 l f
1.000000 0.000000 0.000000 srgb
n 10.035000 16.135000 m 10.035000 18.435000 l 13.035000 18.435000 l 13.035000 16.135000 l cp s
0.100000 slw
[] 0 sd
[] 0 sd
0 slc
n 11.528102 13.449604 m 11.532841 16.084700 l s
0.000000 0.000000 0.000000 srgb
gsave 10.220000 17.712500 translate 0.035278 -0.035278 scale
start_ol
2304 0 moveto
64 5824 lineto
893 5824 lineto
2752 921 lineto
4615 5824 lineto
5440 5824 lineto
3204 0 lineto
2304 0 lineto
end_ol grestore 
gsave 10.946819 17.712500 translate 0.035278 -0.035278 scale
start_ol
768 5824 moveto
1943 5824 lineto
3422 1888 lineto
4908 5824 lineto
6080 5824 lineto
6080 0 lineto
5312 0 lineto
5312 5119 lineto
3818 1152 lineto
3030 1152 lineto
1536 5119 lineto
1536 0 lineto
768 0 lineto
768 5824 lineto
end_ol grestore 
gsave 11.863459 17.712500 translate 0.035278 -0.035278 scale
start_ol
end_ol grestore 
gsave 12.200638 17.712500 translate 0.035278 -0.035278 scale
start_ol
1024 640 moveto
2304 640 lineto
2304 5184 lineto
896 4928 lineto
896 5568 lineto
2286 5824 lineto
3072 5824 lineto
3072 640 lineto
4352 640 lineto
4352 0 lineto
1024 0 lineto
1024 640 lineto
end_ol grestore 
0.100000 slw
[] 0 sd
[] 0 sd
0 slj
1.000000 1.000000 1.000000 srgb
n 21.835000 21.620485 m 21.835000 23.920485 l 24.835000 23.920485 l 24.835000 21.620485 l f
1.000000 0.000000 0.000000 srgb
n 21.835000 21.620485 m 21.835000 23.920485 l 24.835000 23.920485 l 24.835000 21.620485 l cp s
0.100000 slw
[] 0 sd
[] 0 sd
0 slc
n 23.328102 18.935090 m 23.335000 21.620485 l s
0.000000 0.000000 0.000000 srgb
gsave 22.020000 23.197985 translate 0.035278 -0.035278 scale
start_ol
2304 0 moveto
64 5824 lineto
893 5824 lineto
2752 921 lineto
4615 5824 lineto
5440 5824 lineto
3204 0 lineto
2304 0 lineto
end_ol grestore 
gsave 22.746819 23.197985 translate 0.035278 -0.035278 scale
start_ol
768 5824 moveto
1943 5824 lineto
3422 1888 lineto
4908 5824 lineto
6080 5824 lineto
6080 0 lineto
5312 0 lineto
5312 5119 lineto
3818 1152 lineto
3030 1152 lineto
1536 5119 lineto
1536 0 lineto
768 0 lineto
768 5824 lineto
end_ol grestore 
gsave 23.663459 23.197985 translate 0.035278 -0.035278 scale
start_ol
end_ol grestore 
gsave 24.000638 23.197985 translate 0.035278 -0.035278 scale
start_ol
1543 640 moveto
4255 640 lineto
4255 0 lineto
576 0 lineto
576 640 lineto
1025 1111 1801 1905 conicto
2577 2699 2776 2928 conicto
3155 3360 3305 3659 conicto
3456 3958 3456 4247 conicto
3456 4718 3132 5015 conicto
2809 5312 2290 5312 conicto
1922 5312 1513 5185 conicto
1105 5058 640 4800 conicto
640 5568 lineto
1110 5758 1518 5855 conicto
1927 5952 2266 5952 conicto
3160 5952 3692 5495 conicto
4224 5039 4224 4276 conicto
4224 3914 4091 3589 conicto
3959 3265 3609 2824 conicto
3512 2710 2997 2165 conicto
2482 1620 1543 640 conicto
end_ol grestore 
0.100000 slw
[] 0 sd
[] 0 sd
0 slj
1.000000 1.000000 1.000000 srgb
n 34.235000 15.370524 m 34.235000 17.670524 l 37.235000 17.670524 l 37.235000 15.370524 l f
1.000000 0.000000 0.000000 srgb
n 34.235000 15.370524 m 34.235000 17.670524 l 37.235000 17.670524 l 37.235000 15.370524 l cp s
0.100000 slw
[] 0 sd
[] 0 sd
0 slc
n 35.728102 12.685128 m 35.735000 15.370524 l s
0.000000 0.000000 0.000000 srgb
gsave 34.420000 16.948024 translate 0.035278 -0.035278 scale
start_ol
2304 0 moveto
64 5824 lineto
893 5824 lineto
2752 921 lineto
4615 5824 lineto
5440 5824 lineto
3204 0 lineto
2304 0 lineto
end_ol grestore 
gsave 35.146819 16.948024 translate 0.035278 -0.035278 scale
start_ol
768 5824 moveto
1943 5824 lineto
3422 1888 lineto
4908 5824 lineto
6080 5824 lineto
6080 0 lineto
5312 0 lineto
5312 5119 lineto
3818 1152 lineto
3030 1152 lineto
1536 5119 lineto
1536 0 lineto
768 0 lineto
768 5824 lineto
end_ol grestore 
gsave 36.063459 16.948024 translate 0.035278 -0.035278 scale
start_ol
end_ol grestore 
gsave 36.400638 16.948024 translate 0.035278 -0.035278 scale
start_ol
3301 3163 moveto
3856 3041 4168 2654 conicto
4480 2267 4480 1699 conicto
4480 827 3886 349 conicto
3292 -128 2199 -128 conicto
1831 -128 1442 -48 conicto
1054 32 640 192 conicto
640 960 lineto
970 738 1363 625 conicto
1756 512 2184 512 conicto
2930 512 3321 813 conicto
3712 1114 3712 1688 conicto
3712 2218 3351 2517 conicto
2990 2816 2347 2816 conicto
1664 2816 lineto
1664 3456 lineto
2379 3456 lineto
2964 3456 3274 3691 conicto
3584 3927 3584 4370 conicto
3584 4825 3264 5068 conicto
2944 5312 2347 5312 conicto
2022 5312 1650 5234 conicto
1278 5156 832 4992 conicto
832 5696 lineto
1280 5824 1672 5888 conicto
2064 5952 2411 5952 conicto
3307 5952 3829 5544 conicto
4352 5137 4352 4442 conicto
4352 3959 4078 3625 conicto
3805 3292 3301 3163 conicto
end_ol grestore 
gsave 7.085000 12.290000 translate 0.035278 -0.035278 scale
start_ol
3456 5869 moveto
1180 2304 lineto
3456 2304 lineto
3456 5869 lineto
3219 6656 moveto
4352 6656 lineto
4352 2304 lineto
5312 2304 lineto
5312 1600 lineto
4352 1600 lineto
4352 0 lineto
3456 0 lineto
3456 1600 lineto
448 1600 lineto
448 2464 lineto
3219 6656 lineto
end_ol grestore 
gsave 7.851779 12.290000 translate 0.035278 -0.035278 scale
start_ol
end_ol grestore 
gsave 8.233920 12.290000 translate 0.035278 -0.035278 scale
start_ol
832 6656 moveto
2191 6656 lineto
3870 2127 lineto
5558 6656 lineto
6912 6656 lineto
6912 0 lineto
6016 0 lineto
6016 5845 lineto
4319 1280 lineto
3425 1280 lineto
1728 5845 lineto
1728 0 lineto
832 0 lineto
832 6656 lineto
end_ol grestore 
gsave 9.272947 12.290000 translate 0.035278 -0.035278 scale
start_ol
832 6656 moveto
1728 6656 lineto
1728 0 lineto
832 0 lineto
832 6656 lineto
end_ol grestore 
gsave 18.935000 5.415000 translate 0.035278 -0.035278 scale
start_ol
3712 3582 moveto
4345 3444 4700 3008 conicto
5056 2572 5056 1932 conicto
5056 949 4383 410 conicto
3710 -128 2470 -128 conicto
2054 -128 1613 -48 conicto
1173 32 704 192 conicto
704 1088 lineto
1075 835 1517 705 conicto
1959 576 2441 576 conicto
3281 576 3720 919 conicto
4160 1262 4160 1915 conicto
4160 2519 3755 2859 conicto
3351 3200 2630 3200 conicto
1856 3200 lineto
1856 3904 lineto
2666 3904 lineto
3329 3904 3680 4180 conicto
4032 4456 4032 4976 conicto
4032 5509 3669 5794 conicto
3307 6080 2630 6080 conicto
2258 6080 1832 6002 conicto
1407 5924 896 5760 conicto
896 6528 lineto
1409 6656 1858 6720 conicto
2307 6784 2704 6784 conicto
3731 6784 4329 6316 conicto
4928 5848 4928 5051 conicto
4928 4496 4612 4113 conicto
4296 3730 3712 3582 conicto
end_ol grestore 
gsave 19.701779 5.415000 translate 0.035278 -0.035278 scale
start_ol
end_ol grestore 
gsave 20.083920 5.415000 translate 0.035278 -0.035278 scale
start_ol
832 6656 moveto
2191 6656 lineto
3870 2127 lineto
5558 6656 lineto
6912 6656 lineto
6912 0 lineto
6016 0 lineto
6016 5845 lineto
4319 1280 lineto
3425 1280 lineto
1728 5845 lineto
1728 0 lineto
832 0 lineto
832 6656 lineto
end_ol grestore 
gsave 21.122947 5.415000 translate 0.035278 -0.035278 scale
start_ol
832 6656 moveto
1728 6656 lineto
1728 0 lineto
832 0 lineto
832 6656 lineto
end_ol grestore 
gsave 37.635000 11.215000 translate 0.035278 -0.035278 scale
start_ol
1152 704 moveto
2624 704 lineto
2624 5952 lineto
1024 5632 lineto
1024 6336 lineto
2618 6656 lineto
3520 6656 lineto
3520 704 lineto
4992 704 lineto
4992 0 lineto
1152 0 lineto
1152 704 lineto
end_ol grestore 
gsave 38.401779 11.215000 translate 0.035278 -0.035278 scale
start_ol
960 6656 moveto
4480 6656 lineto
4480 5952 lineto
1856 5952 lineto
1856 4228 lineto
2048 4290 2240 4321 conicto
2433 4352 2625 4352 conicto
3717 4352 4354 3748 conicto
4992 3144 4992 2112 conicto
4992 1049 4326 460 conicto
3660 -128 2448 -128 conicto
2031 -128 1598 -64 conicto
1166 0 704 128 conicto
704 1024 lineto
1104 798 1530 687 conicto
1956 576 2431 576 conicto
3199 576 3647 989 conicto
4096 1403 4096 2112 conicto
4096 2821 3644 3234 conicto
3192 3648 2418 3648 conicto
2056 3648 1696 3570 conicto
1336 3492 960 3328 conicto
960 6656 lineto
end_ol grestore 
gsave 39.168558 11.215000 translate 0.035278 -0.035278 scale
start_ol
end_ol grestore 
gsave 39.550699 11.215000 translate 0.035278 -0.035278 scale
start_ol
832 6656 moveto
2191 6656 lineto
3870 2127 lineto
5558 6656 lineto
6912 6656 lineto
6912 0 lineto
6016 0 lineto
6016 5845 lineto
4319 1280 lineto
3425 1280 lineto
1728 5845 lineto
1728 0 lineto
832 0 lineto
832 6656 lineto
end_ol grestore 
gsave 40.589726 11.215000 translate 0.035278 -0.035278 scale
start_ol
832 6656 moveto
1728 6656 lineto
1728 0 lineto
832 0 lineto
832 6656 lineto
end_ol grestore 
gsave 18.870000 18.650000 translate 0.035278 -0.035278 scale
start_ol
2846 3136 moveto
2206 3136 1839 2795 conicto
1472 2454 1472 1856 conicto
1472 1258 1839 917 conicto
2206 576 2846 576 conicto
3486 576 3855 919 conicto
4224 1263 4224 1856 conicto
4224 2454 3857 2795 conicto
3490 3136 2846 3136 conicto
1934 3517 moveto
1353 3661 1028 4062 conicto
704 4463 704 5040 conicto
704 5847 1277 6315 conicto
1850 6784 2848 6784 conicto
3850 6784 4421 6315 conicto
4992 5847 4992 5040 conicto
4992 4463 4666 4062 conicto
4341 3661 3762 3517 conicto
4404 3367 4762 2929 conicto
5120 2491 5120 1858 conicto
5120 898 4532 385 conicto
3944 -128 2848 -128 conicto
1752 -128 1164 385 conicto
576 898 576 1858 conicto
576 2491 935 2929 conicto
1294 3367 1934 3517 conicto
1600 4960 moveto
1600 4432 1927 4136 conicto
2254 3840 2846 3840 conicto
3433 3840 3764 4136 conicto
4096 4432 4096 4960 conicto
4096 5488 3764 5784 conicto
3433 6080 2846 6080 conicto
2254 6080 1927 5784 conicto
1600 5488 1600 4960 conicto
end_ol grestore 
gsave 19.636779 18.650000 translate 0.035278 -0.035278 scale
start_ol
end_ol grestore 
gsave 20.018920 18.650000 translate 0.035278 -0.035278 scale
start_ol
832 6656 moveto
2191 6656 lineto
3870 2127 lineto
5558 6656 lineto
6912 6656 lineto
6912 0 lineto
6016 0 lineto
6016 5845 lineto
4319 1280 lineto
3425 1280 lineto
1728 5845 lineto
1728 0 lineto
832 0 lineto
832 6656 lineto
end_ol grestore 
gsave 21.057947 18.650000 translate 0.035278 -0.035278 scale
start_ol
832 6656 moveto
1728 6656 lineto
1728 0 lineto
832 0 lineto
832 6656 lineto
end_ol grestore 
gsave 14.735000 8.665000 translate 0.035278 -0.035278 scale
start_ol
3456 5869 moveto
1180 2304 lineto
3456 2304 lineto
3456 5869 lineto
3219 6656 moveto
4352 6656 lineto
4352 2304 lineto
5312 2304 lineto
5312 1600 lineto
4352 1600 lineto
4352 0 lineto
3456 0 lineto
3456 1600 lineto
448 1600 lineto
448 2464 lineto
3219 6656 lineto
end_ol grestore 
gsave 15.501779 8.665000 translate 0.035278 -0.035278 scale
start_ol
end_ol grestore 
gsave 15.883920 8.665000 translate 0.035278 -0.035278 scale
start_ol
5376 923 moveto
5376 2752 lineto
3904 2752 lineto
3904 3456 lineto
6272 3456 lineto
6272 585 lineto
5755 233 5132 52 conicto
4510 -128 3803 -128 conicto
2257 -128 1384 784 conicto
512 1697 512 3326 conicto
512 4959 1381 5871 conicto
2251 6784 3791 6784 conicto
4434 6784 5012 6621 conicto
5591 6459 6080 6144 conicto
6080 5184 lineto
5589 5630 5037 5855 conicto
4486 6080 3877 6080 conicto
2677 6080 2074 5388 conicto
1472 4696 1472 3326 conicto
1472 1960 2074 1268 conicto
2677 576 3877 576 conicto
4346 576 4714 660 conicto
5082 745 5376 923 conicto
end_ol grestore 
gsave 16.818040 8.665000 translate 0.035278 -0.035278 scale
start_ol
1728 3200 moveto
1728 704 lineto
3164 704 lineto
3867 704 4205 1012 conicto
4544 1320 4544 1954 conicto
4544 2593 4205 2896 conicto
3867 3200 3164 3200 conicto
1728 3200 lineto
1728 5952 moveto
1728 3904 lineto
3053 3904 lineto
3709 3904 4030 4156 conicto
4352 4409 4352 4928 conicto
4352 5442 4030 5697 conicto
3709 5952 3053 5952 conicto
1728 5952 lineto
832 6656 moveto
3120 6656 lineto
4142 6656 4695 6229 conicto
5248 5802 5248 5014 conicto
5248 4405 4965 4044 conicto
4683 3684 4135 3595 conicto
4785 3452 5144 2999 conicto
5504 2546 5504 1867 conicto
5504 974 4907 487 conicto
4310 0 3208 0 conicto
832 0 lineto
832 6656 lineto
end_ol grestore 
gsave 14.985000 15.415000 translate 0.035278 -0.035278 scale
start_ol
2846 3136 moveto
2206 3136 1839 2795 conicto
1472 2454 1472 1856 conicto
1472 1258 1839 917 conicto
2206 576 2846 576 conicto
3486 576 3855 919 conicto
4224 1263 4224 1856 conicto
4224 2454 3857 2795 conicto
3490 3136 2846 3136 conicto
1934 3517 moveto
1353 3661 1028 4062 conicto
704 4463 704 5040 conicto
704 5847 1277 6315 conicto
1850 6784 2848 6784 conicto
3850 6784 4421 6315 conicto
4992 5847 4992 5040 conicto
4992 4463 4666 4062 conicto
4341 3661 3762 3517 conicto
4404 3367 4762 2929 conicto
5120 2491 5120 1858 conicto
5120 898 4532 385 conicto
3944 -128 2848 -128 conicto
1752 -128 1164 385 conicto
576 898 576 1858 conicto
576 2491 935 2929 conicto
1294 3367 1934 3517 conicto
1600 4960 moveto
1600 4432 1927 4136 conicto
2254 3840 2846 3840 conicto
3433 3840 3764 4136 conicto
4096 4432 4096 4960 conicto
4096 5488 3764 5784 conicto
3433 6080 2846 6080 conicto
2254 6080 1927 5784 conicto
1600 5488 1600 4960 conicto
end_ol grestore 
gsave 15.751779 15.415000 translate 0.035278 -0.035278 scale
start_ol
end_ol grestore 
gsave 16.133920 15.415000 translate 0.035278 -0.035278 scale
start_ol
5376 923 moveto
5376 2752 lineto
3904 2752 lineto
3904 3456 lineto
6272 3456 lineto
6272 585 lineto
5755 233 5132 52 conicto
4510 -128 3803 -128 conicto
2257 -128 1384 784 conicto
512 1697 512 3326 conicto
512 4959 1381 5871 conicto
2251 6784 3791 6784 conicto
4434 6784 5012 6621 conicto
5591 6459 6080 6144 conicto
6080 5184 lineto
5589 5630 5037 5855 conicto
4486 6080 3877 6080 conicto
2677 6080 2074 5388 conicto
1472 4696 1472 3326 conicto
1472 1960 2074 1268 conicto
2677 576 3877 576 conicto
4346 576 4714 660 conicto
5082 745 5376 923 conicto
end_ol grestore 
gsave 17.068040 15.415000 translate 0.035278 -0.035278 scale
start_ol
1728 3200 moveto
1728 704 lineto
3164 704 lineto
3867 704 4205 1012 conicto
4544 1320 4544 1954 conicto
4544 2593 4205 2896 conicto
3867 3200 3164 3200 conicto
1728 3200 lineto
1728 5952 moveto
1728 3904 lineto
3053 3904 lineto
3709 3904 4030 4156 conicto
4352 4409 4352 4928 conicto
4352 5442 4030 5697 conicto
3709 5952 3053 5952 conicto
1728 5952 lineto
832 6656 moveto
3120 6656 lineto
4142 6656 4695 6229 conicto
5248 5802 5248 5014 conicto
5248 4405 4965 4044 conicto
4683 3684 4135 3595 conicto
4785 3452 5144 2999 conicto
5504 2546 5504 1867 conicto
5504 974 4907 487 conicto
4310 0 3208 0 conicto
832 0 lineto
832 6656 lineto
end_ol grestore 
gsave 22.285000 11.715000 translate 0.035278 -0.035278 scale
start_ol
2944 3776 moveto
2354 3776 2009 3348 conicto
1664 2921 1664 2176 conicto
1664 1436 2009 1006 conicto
2354 576 2944 576 conicto
3534 576 3879 1006 conicto
4224 1436 4224 2176 conicto
4224 2921 3879 3348 conicto
3534 3776 2944 3776 conicto
4672 6528 moveto
4672 5696 lineto
4340 5883 4002 5981 conicto
3664 6080 3332 6080 conicto
2459 6080 1998 5484 conicto
1537 4889 1472 3684 conicto
1731 4069 2122 4274 conicto
2514 4480 2984 4480 conicto
3973 4480 4546 3861 conicto
5120 3242 5120 2176 conicto
5120 1133 4520 502 conicto
3921 -128 2925 -128 conicto
1784 -128 1180 758 conicto
576 1644 576 3326 conicto
576 4905 1313 5844 conicto
2050 6784 3291 6784 conicto
3624 6784 3964 6720 conicto
4304 6656 4672 6528 conicto
end_ol grestore 
gsave 23.051779 11.715000 translate 0.035278 -0.035278 scale
start_ol
end_ol grestore 
gsave 23.433920 11.715000 translate 0.035278 -0.035278 scale
start_ol
5376 923 moveto
5376 2752 lineto
3904 2752 lineto
3904 3456 lineto
6272 3456 lineto
6272 585 lineto
5755 233 5132 52 conicto
4510 -128 3803 -128 conicto
2257 -128 1384 784 conicto
512 1697 512 3326 conicto
512 4959 1381 5871 conicto
2251 6784 3791 6784 conicto
4434 6784 5012 6621 conicto
5591 6459 6080 6144 conicto
6080 5184 lineto
5589 5630 5037 5855 conicto
4486 6080 3877 6080 conicto
2677 6080 2074 5388 conicto
1472 4696 1472 3326 conicto
1472 1960 2074 1268 conicto
2677 576 3877 576 conicto
4346 576 4714 660 conicto
5082 745 5376 923 conicto
end_ol grestore 
gsave 24.368040 11.715000 translate 0.035278 -0.035278 scale
start_ol
1728 3200 moveto
1728 704 lineto
3164 704 lineto
3867 704 4205 1012 conicto
4544 1320 4544 1954 conicto
4544 2593 4205 2896 conicto
3867 3200 3164 3200 conicto
1728 3200 lineto
1728 5952 moveto
1728 3904 lineto
3053 3904 lineto
3709 3904 4030 4156 conicto
4352 4409 4352 4928 conicto
4352 5442 4030 5697 conicto
3709 5952 3053 5952 conicto
1728 5952 lineto
832 6656 moveto
3120 6656 lineto
4142 6656 4695 6229 conicto
5248 5802 5248 5014 conicto
5248 4405 4965 4044 conicto
4683 3684 4135 3595 conicto
4785 3452 5144 2999 conicto
5504 2546 5504 1867 conicto
5504 974 4907 487 conicto
4310 0 3208 0 conicto
832 0 lineto
832 6656 lineto
end_ol grestore 
gsave 27.985000 7.715000 translate 0.035278 -0.035278 scale
start_ol
1152 704 moveto
2624 704 lineto
2624 5952 lineto
1024 5632 lineto
1024 6336 lineto
2618 6656 lineto
3520 6656 lineto
3520 704 lineto
4992 704 lineto
4992 0 lineto
1152 0 lineto
1152 704 lineto
end_ol grestore 
gsave 28.751779 7.715000 translate 0.035278 -0.035278 scale
start_ol
1730 704 moveto
4836 704 lineto
4836 0 lineto
640 0 lineto
640 704 lineto
1149 1246 2028 2159 conicto
2908 3073 3133 3337 conicto
3563 3834 3733 4178 conicto
3904 4522 3904 4854 conicto
3904 5397 3536 5738 conicto
3169 6080 2579 6080 conicto
2161 6080 1696 5921 conicto
1232 5762 704 5440 conicto
704 6336 lineto
1241 6558 1708 6671 conicto
2175 6784 2563 6784 conicto
3584 6784 4192 6261 conicto
4800 5739 4800 4865 conicto
4800 4451 4648 4079 conicto
4496 3708 4095 3204 conicto
3985 3073 3395 2449 conicto
2805 1825 1730 704 conicto
end_ol grestore 
gsave 29.518558 7.715000 translate 0.035278 -0.035278 scale
start_ol
end_ol grestore 
gsave 29.900699 7.715000 translate 0.035278 -0.035278 scale
start_ol
5376 923 moveto
5376 2752 lineto
3904 2752 lineto
3904 3456 lineto
6272 3456 lineto
6272 585 lineto
5755 233 5132 52 conicto
4510 -128 3803 -128 conicto
2257 -128 1384 784 conicto
512 1697 512 3326 conicto
512 4959 1381 5871 conicto
2251 6784 3791 6784 conicto
4434 6784 5012 6621 conicto
5591 6459 6080 6144 conicto
6080 5184 lineto
5589 5630 5037 5855 conicto
4486 6080 3877 6080 conicto
2677 6080 2074 5388 conicto
1472 4696 1472 3326 conicto
1472 1960 2074 1268 conicto
2677 576 3877 576 conicto
4346 576 4714 660 conicto
5082 745 5376 923 conicto
end_ol grestore 
gsave 30.834819 7.715000 translate 0.035278 -0.035278 scale
start_ol
1728 3200 moveto
1728 704 lineto
3164 704 lineto
3867 704 4205 1012 conicto
4544 1320 4544 1954 conicto
4544 2593 4205 2896 conicto
3867 3200 3164 3200 conicto
1728 3200 lineto
1728 5952 moveto
1728 3904 lineto
3053 3904 lineto
3709 3904 4030 4156 conicto
4352 4409 4352 4928 conicto
4352 5442 4030 5697 conicto
3709 5952 3053 5952 conicto
1728 5952 lineto
832 6656 moveto
3120 6656 lineto
4142 6656 4695 6229 conicto
5248 5802 5248 5014 conicto
5248 4405 4965 4044 conicto
4683 3684 4135 3595 conicto
4785 3452 5144 2999 conicto
5504 2546 5504 1867 conicto
5504 974 4907 487 conicto
4310 0 3208 0 conicto
832 0 lineto
832 6656 lineto
end_ol grestore 
gsave 28.135000 15.565000 translate 0.035278 -0.035278 scale
start_ol
1152 704 moveto
2624 704 lineto
2624 5952 lineto
1024 5632 lineto
1024 6336 lineto
2618 6656 lineto
3520 6656 lineto
3520 704 lineto
4992 704 lineto
4992 0 lineto
1152 0 lineto
1152 704 lineto
end_ol grestore 
gsave 28.901779 15.565000 translate 0.035278 -0.035278 scale
start_ol
2878 6080 moveto
2177 6080 1824 5392 conicto
1472 4705 1472 3326 conicto
1472 1951 1824 1263 conicto
2177 576 2878 576 conicto
3583 576 3935 1263 conicto
4288 1951 4288 3326 conicto
4288 4705 3935 5392 conicto
3583 6080 2878 6080 conicto
2880 6784 moveto
4001 6784 4592 5898 conicto
5184 5012 5184 3326 conicto
5184 1644 4592 758 conicto
4001 -128 2880 -128 conicto
1759 -128 1167 758 conicto
576 1644 576 3326 conicto
576 5012 1167 5898 conicto
1759 6784 2880 6784 conicto
end_ol grestore 
gsave 29.668558 15.565000 translate 0.035278 -0.035278 scale
start_ol
end_ol grestore 
gsave 30.050699 15.565000 translate 0.035278 -0.035278 scale
start_ol
5376 923 moveto
5376 2752 lineto
3904 2752 lineto
3904 3456 lineto
6272 3456 lineto
6272 585 lineto
5755 233 5132 52 conicto
4510 -128 3803 -128 conicto
2257 -128 1384 784 conicto
512 1697 512 3326 conicto
512 4959 1381 5871 conicto
2251 6784 3791 6784 conicto
4434 6784 5012 6621 conicto
5591 6459 6080 6144 conicto
6080 5184 lineto
5589 5630 5037 5855 conicto
4486 6080 3877 6080 conicto
2677 6080 2074 5388 conicto
1472 4696 1472 3326 conicto
1472 1960 2074 1268 conicto
2677 576 3877 576 conicto
4346 576 4714 660 conicto
5082 745 5376 923 conicto
end_ol grestore 
gsave 30.984819 15.565000 translate 0.035278 -0.035278 scale
start_ol
1728 3200 moveto
1728 704 lineto
3164 704 lineto
3867 704 4205 1012 conicto
4544 1320 4544 1954 conicto
4544 2593 4205 2896 conicto
3867 3200 3164 3200 conicto
1728 3200 lineto
1728 5952 moveto
1728 3904 lineto
3053 3904 lineto
3709 3904 4030 4156 conicto
4352 4409 4352 4928 conicto
4352 5442 4030 5697 conicto
3709 5952 3053 5952 conicto
1728 5952 lineto
832 6656 moveto
3120 6656 lineto
4142 6656 4695 6229 conicto
5248 5802 5248 5014 conicto
5248 4405 4965 4044 conicto
4683 3684 4135 3595 conicto
4785 3452 5144 2999 conicto
5504 2546 5504 1867 conicto
5504 974 4907 487 conicto
4310 0 3208 0 conicto
832 0 lineto
832 6656 lineto
end_ol grestore 
gsave 9.135000 19.715000 translate 0.035278 -0.035278 scale
start_ol
end_ol grestore 
gsave 9.427224 19.715000 translate 0.035278 -0.035278 scale
start_ol
end_ol grestore 
gsave 9.719448 19.715000 translate 0.035278 -0.035278 scale
start_ol
end_ol grestore 
gsave 10.011672 19.715000 translate 0.035278 -0.035278 scale
start_ol
832 576 moveto
1984 576 lineto
1984 4480 lineto
768 4224 lineto
768 4800 lineto
1994 5056 lineto
2688 5056 lineto
2688 576 lineto
3840 576 lineto
3840 0 lineto
832 0 lineto
832 576 lineto
end_ol grestore 
gsave 10.598617 19.715000 translate 0.035278 -0.035278 scale
start_ol
end_ol grestore 
gsave 10.890841 19.715000 translate 0.035278 -0.035278 scale
start_ol
640 5056 moveto
1696 5056 lineto
2974 1605 lineto
4259 5056 lineto
5312 5056 lineto
5312 0 lineto
4608 0 lineto
4608 4438 lineto
3316 960 lineto
2636 960 lineto
1344 4438 lineto
1344 0 lineto
640 0 lineto
640 5056 lineto
end_ol grestore 
gsave 11.685096 19.715000 translate 0.035278 -0.035278 scale
start_ol
640 5056 moveto
1344 5056 lineto
1344 0 lineto
640 0 lineto
640 5056 lineto
end_ol grestore 
gsave 11.957335 19.715000 translate 0.035278 -0.035278 scale
start_ol
1344 4480 moveto
1344 2560 lineto
2203 2560 lineto
2680 2560 2940 2810 conicto
3200 3060 3200 3522 conicto
3200 3980 2940 4230 conicto
2680 4480 2203 4480 conicto
1344 4480 lineto
640 5056 moveto
2203 5056 lineto
3043 5056 3473 4665 conicto
3904 4275 3904 3522 conicto
3904 2761 3473 2372 conicto
3043 1984 2203 1984 conicto
1344 1984 lineto
1344 0 lineto
640 0 lineto
640 5056 lineto
end_ol grestore 
gsave 12.514308 19.715000 translate 0.035278 -0.035278 scale
start_ol
3712 4928 moveto
3712 4288 lineto
3324 4449 2979 4528 conicto
2635 4608 2314 4608 conicto
1757 4608 1454 4393 conicto
1152 4178 1152 3781 conicto
1152 3449 1355 3279 conicto
1559 3109 2126 3005 conicto
2542 2918 lineto
3306 2770 3669 2395 conicto
4032 2021 4032 1393 conicto
4032 645 3533 258 conicto
3034 -128 2070 -128 conicto
1707 -128 1297 -47 conicto
887 34 448 192 conicto
448 896 lineto
873 674 1280 561 conicto
1688 448 2081 448 conicto
2679 448 3003 680 conicto
3328 913 3328 1343 conicto
3328 1719 3097 1931 conicto
2867 2143 2341 2249 conicto
1921 2332 lineto
1143 2486 795 2814 conicto
448 3142 448 3727 conicto
448 4404 922 4794 conicto
1396 5184 2228 5184 conicto
2584 5184 2954 5120 conicto
3325 5056 3712 4928 conicto
end_ol grestore 
gsave 9.135000 20.867878 translate 0.035278 -0.035278 scale
start_ol
2304 -1024 moveto
1984 -1024 lineto
1981 0 lineto
1630 7 1280 85 conicto
930 163 576 320 conicto
576 960 lineto
916 734 1265 619 conicto
1614 505 1984 501 conicto
1984 2061 lineto
1247 2181 911 2469 conicto
576 2757 576 3259 conicto
576 3804 939 4118 conicto
1303 4433 1984 4480 conicto
1984 5312 lineto
2304 5312 lineto
2304 4491 lineto
2610 4478 2896 4427 conicto
3183 4376 3456 4288 conicto
3456 3712 lineto
3183 3829 2895 3893 conicto
2607 3957 2304 3968 conicto
2304 2581 lineto
3062 2461 3419 2152 conicto
3776 1843 3776 1308 conicto
3776 728 3397 393 conicto
3018 58 2304 7 conicto
2304 -1024 lineto
1984 2642 moveto
1984 3971 lineto
1610 3929 1413 3757 conicto
1216 3585 1216 3300 conicto
1216 3021 1398 2865 conicto
1581 2710 1984 2642 conicto
2304 1993 moveto
2304 512 lineto
2717 570 2926 758 conicto
3136 946 3136 1254 conicto
3136 1555 2936 1733 conicto
2736 1911 2304 1993 conicto
end_ol grestore 
gsave 9.721945 20.867878 translate 0.035278 -0.035278 scale
start_ol
2624 4466 moveto
881 1792 lineto
2624 1792 lineto
2624 4466 lineto
2455 5056 moveto
3328 5056 lineto
3328 1792 lineto
4032 1792 lineto
4032 1216 lineto
3328 1216 lineto
3328 0 lineto
2624 0 lineto
2624 1216 lineto
320 1216 lineto
320 1872 lineto
2455 5056 lineto
end_ol grestore 
gsave 10.308890 20.867878 translate 0.035278 -0.035278 scale
start_ol
end_ol grestore 
gsave 10.601114 20.867878 translate 0.035278 -0.035278 scale
start_ol
1280 512 moveto
1280 -1472 lineto
640 -1472 lineto
640 3840 lineto
1280 3840 lineto
1280 3328 lineto
1475 3653 1773 3810 conicto
2072 3968 2486 3968 conicto
3173 3968 3602 3404 conicto
4032 2840 4032 1920 conicto
4032 1000 3602 436 conicto
3173 -128 2486 -128 conicto
2072 -128 1773 29 conicto
1475 187 1280 512 conicto
3392 1920 moveto
3392 2638 3110 3047 conicto
2829 3456 2336 3456 conicto
1843 3456 1561 3047 conicto
1280 2638 1280 1920 conicto
1280 1202 1561 793 conicto
1843 384 2336 384 conicto
2829 384 3110 793 conicto
3392 1202 3392 1920 conicto
end_ol grestore 
gsave 11.185562 20.867878 translate 0.035278 -0.035278 scale
start_ol
1785 5056 moveto
2368 5056 lineto
583 -704 lineto
0 -704 lineto
1785 5056 lineto
end_ol grestore 
gsave 11.495265 20.867878 translate 0.035278 -0.035278 scale
start_ol
end_ol grestore 
gsave 11.787489 20.867878 translate 0.035278 -0.035278 scale
start_ol
3072 3776 moveto
3072 3200 lineto
2810 3328 2528 3392 conicto
2246 3456 1944 3456 conicto
1484 3456 1254 3310 conicto
1024 3164 1024 2871 conicto
1024 2649 1187 2522 conicto
1350 2395 1842 2280 conicto
2052 2230 lineto
2710 2082 2987 1813 conicto
3264 1544 3264 1062 conicto
3264 513 2848 192 conicto
2433 -128 1706 -128 conicto
1403 -128 1075 -64 conicto
747 0 384 128 conicto
384 768 lineto
727 576 1059 480 conicto
1391 384 1717 384 conicto
2154 384 2389 543 conicto
2624 703 2624 993 conicto
2624 1262 2456 1405 conicto
2288 1548 1719 1681 conicto
1506 1734 lineto
912 1859 648 2117 conicto
384 2375 384 2825 conicto
384 3372 766 3670 conicto
1148 3968 1851 3968 conicto
2199 3968 2506 3920 conicto
2813 3872 3072 3776 conicto
end_ol grestore 
gsave 12.267038 20.867878 translate 0.035278 -0.035278 scale
start_ol
3904 2112 moveto
3904 1792 lineto
1024 1792 lineto
1065 1104 1416 744 conicto
1768 384 2395 384 conicto
2758 384 3099 480 conicto
3440 576 3776 768 conicto
3776 192 lineto
3439 36 3084 -46 conicto
2729 -128 2365 -128 conicto
1451 -128 917 415 conicto
384 959 384 1885 conicto
384 2843 887 3405 conicto
1391 3968 2246 3968 conicto
3012 3968 3458 3469 conicto
3904 2970 3904 2112 conicto
3264 2304 moveto
3257 2830 2978 3143 conicto
2699 3456 2239 3456 conicto
1717 3456 1404 3153 conicto
1091 2850 1044 2301 conicto
3264 2304 lineto
end_ol grestore 
gsave 12.834007 20.867878 translate 0.035278 -0.035278 scale
start_ol
3136 1982 moveto
3136 2684 2858 3070 conicto
2580 3456 2078 3456 conicto
1580 3456 1302 3070 conicto
1024 2684 1024 1982 conicto
1024 1284 1302 898 conicto
1580 512 2078 512 conicto
2580 512 2858 898 conicto
3136 1284 3136 1982 conicto
3776 462 moveto
3776 -517 3344 -994 conicto
2913 -1472 2022 -1472 conicto
1692 -1472 1399 -1425 conicto
1107 -1378 832 -1280 conicto
832 -640 lineto
1106 -804 1372 -882 conicto
1639 -960 1916 -960 conicto
2528 -960 2832 -633 conicto
3136 -307 3136 352 conicto
3136 640 lineto
2944 318 2644 159 conicto
2344 0 1927 0 conicto
1233 0 808 543 conicto
384 1086 384 1982 conicto
384 2882 808 3425 conicto
1233 3968 1927 3968 conicto
2344 3968 2644 3809 conicto
2944 3650 3136 3328 conicto
3136 3840 lineto
3776 3840 lineto
3776 462 lineto
end_ol grestore 
gsave 13.418455 20.867878 translate 0.035278 -0.035278 scale
start_ol
768 896 moveto
1472 896 lineto
1472 0 lineto
768 0 lineto
768 896 lineto
end_ol grestore 
gsave 21.185000 -3.795000 translate 0.035278 -0.035278 scale
start_ol
end_ol grestore 
gsave 21.477224 -3.795000 translate 0.035278 -0.035278 scale
start_ol
end_ol grestore 
gsave 21.769448 -3.795000 translate 0.035278 -0.035278 scale
start_ol
end_ol grestore 
gsave 22.061672 -3.795000 translate 0.035278 -0.035278 scale
start_ol
832 576 moveto
1984 576 lineto
1984 4480 lineto
768 4224 lineto
768 4800 lineto
1994 5056 lineto
2688 5056 lineto
2688 576 lineto
3840 576 lineto
3840 0 lineto
832 0 lineto
832 576 lineto
end_ol grestore 
gsave 22.648617 -3.795000 translate 0.035278 -0.035278 scale
start_ol
end_ol grestore 
gsave 22.940841 -3.795000 translate 0.035278 -0.035278 scale
start_ol
640 5056 moveto
1696 5056 lineto
2974 1605 lineto
4259 5056 lineto
5312 5056 lineto
5312 0 lineto
4608 0 lineto
4608 4438 lineto
3316 960 lineto
2636 960 lineto
1344 4438 lineto
1344 0 lineto
640 0 lineto
640 5056 lineto
end_ol grestore 
gsave 23.735096 -3.795000 translate 0.035278 -0.035278 scale
start_ol
640 5056 moveto
1344 5056 lineto
1344 0 lineto
640 0 lineto
640 5056 lineto
end_ol grestore 
gsave 24.007335 -3.795000 translate 0.035278 -0.035278 scale
start_ol
1344 4480 moveto
1344 2560 lineto
2203 2560 lineto
2680 2560 2940 2810 conicto
3200 3060 3200 3522 conicto
3200 3980 2940 4230 conicto
2680 4480 2203 4480 conicto
1344 4480 lineto
640 5056 moveto
2203 5056 lineto
3043 5056 3473 4665 conicto
3904 4275 3904 3522 conicto
3904 2761 3473 2372 conicto
3043 1984 2203 1984 conicto
1344 1984 lineto
1344 0 lineto
640 0 lineto
640 5056 lineto
end_ol grestore 
gsave 24.564308 -3.795000 translate 0.035278 -0.035278 scale
start_ol
3712 4928 moveto
3712 4288 lineto
3324 4449 2979 4528 conicto
2635 4608 2314 4608 conicto
1757 4608 1454 4393 conicto
1152 4178 1152 3781 conicto
1152 3449 1355 3279 conicto
1559 3109 2126 3005 conicto
2542 2918 lineto
3306 2770 3669 2395 conicto
4032 2021 4032 1393 conicto
4032 645 3533 258 conicto
3034 -128 2070 -128 conicto
1707 -128 1297 -47 conicto
887 34 448 192 conicto
448 896 lineto
873 674 1280 561 conicto
1688 448 2081 448 conicto
2679 448 3003 680 conicto
3328 913 3328 1343 conicto
3328 1719 3097 1931 conicto
2867 2143 2341 2249 conicto
1921 2332 lineto
1143 2486 795 2814 conicto
448 3142 448 3727 conicto
448 4404 922 4794 conicto
1396 5184 2228 5184 conicto
2584 5184 2954 5120 conicto
3325 5056 3712 4928 conicto
end_ol grestore 
gsave 21.185000 -2.642122 translate 0.035278 -0.035278 scale
start_ol
2304 -1024 moveto
1984 -1024 lineto
1981 0 lineto
1630 7 1280 85 conicto
930 163 576 320 conicto
576 960 lineto
916 734 1265 619 conicto
1614 505 1984 501 conicto
1984 2061 lineto
1247 2181 911 2469 conicto
576 2757 576 3259 conicto
576 3804 939 4118 conicto
1303 4433 1984 4480 conicto
1984 5312 lineto
2304 5312 lineto
2304 4491 lineto
2610 4478 2896 4427 conicto
3183 4376 3456 4288 conicto
3456 3712 lineto
3183 3829 2895 3893 conicto
2607 3957 2304 3968 conicto
2304 2581 lineto
3062 2461 3419 2152 conicto
3776 1843 3776 1308 conicto
3776 728 3397 393 conicto
3018 58 2304 7 conicto
2304 -1024 lineto
1984 2642 moveto
1984 3971 lineto
1610 3929 1413 3757 conicto
1216 3585 1216 3300 conicto
1216 3021 1398 2865 conicto
1581 2710 1984 2642 conicto
2304 1993 moveto
2304 512 lineto
2717 570 2926 758 conicto
3136 946 3136 1254 conicto
3136 1555 2936 1733 conicto
2736 1911 2304 1993 conicto
end_ol grestore 
gsave 21.771945 -2.642122 translate 0.035278 -0.035278 scale
start_ol
2624 4466 moveto
881 1792 lineto
2624 1792 lineto
2624 4466 lineto
2455 5056 moveto
3328 5056 lineto
3328 1792 lineto
4032 1792 lineto
4032 1216 lineto
3328 1216 lineto
3328 0 lineto
2624 0 lineto
2624 1216 lineto
320 1216 lineto
320 1872 lineto
2455 5056 lineto
end_ol grestore 
gsave 22.358890 -2.642122 translate 0.035278 -0.035278 scale
start_ol
end_ol grestore 
gsave 22.651114 -2.642122 translate 0.035278 -0.035278 scale
start_ol
1280 512 moveto
1280 -1472 lineto
640 -1472 lineto
640 3840 lineto
1280 3840 lineto
1280 3328 lineto
1475 3653 1773 3810 conicto
2072 3968 2486 3968 conicto
3173 3968 3602 3404 conicto
4032 2840 4032 1920 conicto
4032 1000 3602 436 conicto
3173 -128 2486 -128 conicto
2072 -128 1773 29 conicto
1475 187 1280 512 conicto
3392 1920 moveto
3392 2638 3110 3047 conicto
2829 3456 2336 3456 conicto
1843 3456 1561 3047 conicto
1280 2638 1280 1920 conicto
1280 1202 1561 793 conicto
1843 384 2336 384 conicto
2829 384 3110 793 conicto
3392 1202 3392 1920 conicto
end_ol grestore 
gsave 23.235562 -2.642122 translate 0.035278 -0.035278 scale
start_ol
1785 5056 moveto
2368 5056 lineto
583 -704 lineto
0 -704 lineto
1785 5056 lineto
end_ol grestore 
gsave 23.545265 -2.642122 translate 0.035278 -0.035278 scale
start_ol
end_ol grestore 
gsave 23.837489 -2.642122 translate 0.035278 -0.035278 scale
start_ol
3072 3776 moveto
3072 3200 lineto
2810 3328 2528 3392 conicto
2246 3456 1944 3456 conicto
1484 3456 1254 3310 conicto
1024 3164 1024 2871 conicto
1024 2649 1187 2522 conicto
1350 2395 1842 2280 conicto
2052 2230 lineto
2710 2082 2987 1813 conicto
3264 1544 3264 1062 conicto
3264 513 2848 192 conicto
2433 -128 1706 -128 conicto
1403 -128 1075 -64 conicto
747 0 384 128 conicto
384 768 lineto
727 576 1059 480 conicto
1391 384 1717 384 conicto
2154 384 2389 543 conicto
2624 703 2624 993 conicto
2624 1262 2456 1405 conicto
2288 1548 1719 1681 conicto
1506 1734 lineto
912 1859 648 2117 conicto
384 2375 384 2825 conicto
384 3372 766 3670 conicto
1148 3968 1851 3968 conicto
2199 3968 2506 3920 conicto
2813 3872 3072 3776 conicto
end_ol grestore 
gsave 24.317038 -2.642122 translate 0.035278 -0.035278 scale
start_ol
3904 2112 moveto
3904 1792 lineto
1024 1792 lineto
1065 1104 1416 744 conicto
1768 384 2395 384 conicto
2758 384 3099 480 conicto
3440 576 3776 768 conicto
3776 192 lineto
3439 36 3084 -46 conicto
2729 -128 2365 -128 conicto
1451 -128 917 415 conicto
384 959 384 1885 conicto
384 2843 887 3405 conicto
1391 3968 2246 3968 conicto
3012 3968 3458 3469 conicto
3904 2970 3904 2112 conicto
3264 2304 moveto
3257 2830 2978 3143 conicto
2699 3456 2239 3456 conicto
1717 3456 1404 3153 conicto
1091 2850 1044 2301 conicto
3264 2304 lineto
end_ol grestore 
gsave 24.884007 -2.642122 translate 0.035278 -0.035278 scale
start_ol
3136 1982 moveto
3136 2684 2858 3070 conicto
2580 3456 2078 3456 conicto
1580 3456 1302 3070 conicto
1024 2684 1024 1982 conicto
1024 1284 1302 898 conicto
1580 512 2078 512 conicto
2580 512 2858 898 conicto
3136 1284 3136 1982 conicto
3776 462 moveto
3776 -517 3344 -994 conicto
2913 -1472 2022 -1472 conicto
1692 -1472 1399 -1425 conicto
1107 -1378 832 -1280 conicto
832 -640 lineto
1106 -804 1372 -882 conicto
1639 -960 1916 -960 conicto
2528 -960 2832 -633 conicto
3136 -307 3136 352 conicto
3136 640 lineto
2944 318 2644 159 conicto
2344 0 1927 0 conicto
1233 0 808 543 conicto
384 1086 384 1982 conicto
384 2882 808 3425 conicto
1233 3968 1927 3968 conicto
2344 3968 2644 3809 conicto
2944 3650 3136 3328 conicto
3136 3840 lineto
3776 3840 lineto
3776 462 lineto
end_ol grestore 
gsave 25.468455 -2.642122 translate 0.035278 -0.035278 scale
start_ol
768 896 moveto
1472 896 lineto
1472 0 lineto
768 0 lineto
768 896 lineto
end_ol grestore 
gsave 21.520000 25.340000 translate 0.035278 -0.035278 scale
start_ol
end_ol grestore 
gsave 21.812224 25.340000 translate 0.035278 -0.035278 scale
start_ol
end_ol grestore 
gsave 22.104448 25.340000 translate 0.035278 -0.035278 scale
start_ol
end_ol grestore 
gsave 22.396672 25.340000 translate 0.035278 -0.035278 scale
start_ol
1355 576 moveto
3739 576 lineto
3739 0 lineto
512 0 lineto
512 576 lineto
901 983 1573 1668 conicto
2246 2353 2419 2551 conicto
2747 2923 2877 3181 conicto
3008 3439 3008 3689 conicto
3008 4095 2728 4351 conicto
2449 4608 2001 4608 conicto
1683 4608 1330 4497 conicto
977 4386 576 4160 conicto
576 4864 lineto
987 5022 1344 5103 conicto
1702 5184 1999 5184 conicto
2781 5184 3246 4788 conicto
3712 4392 3712 3730 conicto
3712 3416 3595 3134 conicto
3479 2853 3171 2470 conicto
3086 2371 2633 1898 conicto
2180 1426 1355 576 conicto
end_ol grestore 
gsave 22.983617 25.340000 translate 0.035278 -0.035278 scale
start_ol
end_ol grestore 
gsave 23.275841 25.340000 translate 0.035278 -0.035278 scale
start_ol
640 5056 moveto
1696 5056 lineto
2974 1605 lineto
4259 5056 lineto
5312 5056 lineto
5312 0 lineto
4608 0 lineto
4608 4438 lineto
3316 960 lineto
2636 960 lineto
1344 4438 lineto
1344 0 lineto
640 0 lineto
640 5056 lineto
end_ol grestore 
gsave 24.070096 25.340000 translate 0.035278 -0.035278 scale
start_ol
640 5056 moveto
1344 5056 lineto
1344 0 lineto
640 0 lineto
640 5056 lineto
end_ol grestore 
gsave 24.342335 25.340000 translate 0.035278 -0.035278 scale
start_ol
1344 4480 moveto
1344 2560 lineto
2203 2560 lineto
2680 2560 2940 2810 conicto
3200 3060 3200 3522 conicto
3200 3980 2940 4230 conicto
2680 4480 2203 4480 conicto
1344 4480 lineto
640 5056 moveto
2203 5056 lineto
3043 5056 3473 4665 conicto
3904 4275 3904 3522 conicto
3904 2761 3473 2372 conicto
3043 1984 2203 1984 conicto
1344 1984 lineto
1344 0 lineto
640 0 lineto
640 5056 lineto
end_ol grestore 
gsave 24.899308 25.340000 translate 0.035278 -0.035278 scale
start_ol
3712 4928 moveto
3712 4288 lineto
3324 4449 2979 4528 conicto
2635 4608 2314 4608 conicto
1757 4608 1454 4393 conicto
1152 4178 1152 3781 conicto
1152 3449 1355 3279 conicto
1559 3109 2126 3005 conicto
2542 2918 lineto
3306 2770 3669 2395 conicto
4032 2021 4032 1393 conicto
4032 645 3533 258 conicto
3034 -128 2070 -128 conicto
1707 -128 1297 -47 conicto
887 34 448 192 conicto
448 896 lineto
873 674 1280 561 conicto
1688 448 2081 448 conicto
2679 448 3003 680 conicto
3328 913 3328 1343 conicto
3328 1719 3097 1931 conicto
2867 2143 2341 2249 conicto
1921 2332 lineto
1143 2486 795 2814 conicto
448 3142 448 3727 conicto
448 4404 922 4794 conicto
1396 5184 2228 5184 conicto
2584 5184 2954 5120 conicto
3325 5056 3712 4928 conicto
end_ol grestore 
gsave 21.520000 26.492878 translate 0.035278 -0.035278 scale
start_ol
2304 -1024 moveto
1984 -1024 lineto
1981 0 lineto
1630 7 1280 85 conicto
930 163 576 320 conicto
576 960 lineto
916 734 1265 619 conicto
1614 505 1984 501 conicto
1984 2061 lineto
1247 2181 911 2469 conicto
576 2757 576 3259 conicto
576 3804 939 4118 conicto
1303 4433 1984 4480 conicto
1984 5312 lineto
2304 5312 lineto
2304 4491 lineto
2610 4478 2896 4427 conicto
3183 4376 3456 4288 conicto
3456 3712 lineto
3183 3829 2895 3893 conicto
2607 3957 2304 3968 conicto
2304 2581 lineto
3062 2461 3419 2152 conicto
3776 1843 3776 1308 conicto
3776 728 3397 393 conicto
3018 58 2304 7 conicto
2304 -1024 lineto
1984 2642 moveto
1984 3971 lineto
1610 3929 1413 3757 conicto
1216 3585 1216 3300 conicto
1216 3021 1398 2865 conicto
1581 2710 1984 2642 conicto
2304 1993 moveto
2304 512 lineto
2717 570 2926 758 conicto
3136 946 3136 1254 conicto
3136 1555 2936 1733 conicto
2736 1911 2304 1993 conicto
end_ol grestore 
gsave 22.106945 26.492878 translate 0.035278 -0.035278 scale
start_ol
576 5056 moveto
3840 5056 lineto
3840 4765 lineto
1997 0 lineto
1280 0 lineto
3014 4480 lineto
576 4480 lineto
576 5056 lineto
end_ol grestore 
gsave 22.693890 26.492878 translate 0.035278 -0.035278 scale
start_ol
end_ol grestore 
gsave 22.986114 26.492878 translate 0.035278 -0.035278 scale
start_ol
1280 512 moveto
1280 -1472 lineto
640 -1472 lineto
640 3840 lineto
1280 3840 lineto
1280 3328 lineto
1475 3653 1773 3810 conicto
2072 3968 2486 3968 conicto
3173 3968 3602 3404 conicto
4032 2840 4032 1920 conicto
4032 1000 3602 436 conicto
3173 -128 2486 -128 conicto
2072 -128 1773 29 conicto
1475 187 1280 512 conicto
3392 1920 moveto
3392 2638 3110 3047 conicto
2829 3456 2336 3456 conicto
1843 3456 1561 3047 conicto
1280 2638 1280 1920 conicto
1280 1202 1561 793 conicto
1843 384 2336 384 conicto
2829 384 3110 793 conicto
3392 1202 3392 1920 conicto
end_ol grestore 
gsave 23.570562 26.492878 translate 0.035278 -0.035278 scale
start_ol
1785 5056 moveto
2368 5056 lineto
583 -704 lineto
0 -704 lineto
1785 5056 lineto
end_ol grestore 
gsave 23.880265 26.492878 translate 0.035278 -0.035278 scale
start_ol
end_ol grestore 
gsave 24.172489 26.492878 translate 0.035278 -0.035278 scale
start_ol
3072 3776 moveto
3072 3200 lineto
2810 3328 2528 3392 conicto
2246 3456 1944 3456 conicto
1484 3456 1254 3310 conicto
1024 3164 1024 2871 conicto
1024 2649 1187 2522 conicto
1350 2395 1842 2280 conicto
2052 2230 lineto
2710 2082 2987 1813 conicto
3264 1544 3264 1062 conicto
3264 513 2848 192 conicto
2433 -128 1706 -128 conicto
1403 -128 1075 -64 conicto
747 0 384 128 conicto
384 768 lineto
727 576 1059 480 conicto
1391 384 1717 384 conicto
2154 384 2389 543 conicto
2624 703 2624 993 conicto
2624 1262 2456 1405 conicto
2288 1548 1719 1681 conicto
1506 1734 lineto
912 1859 648 2117 conicto
384 2375 384 2825 conicto
384 3372 766 3670 conicto
1148 3968 1851 3968 conicto
2199 3968 2506 3920 conicto
2813 3872 3072 3776 conicto
end_ol grestore 
gsave 24.652038 26.492878 translate 0.035278 -0.035278 scale
start_ol
3904 2112 moveto
3904 1792 lineto
1024 1792 lineto
1065 1104 1416 744 conicto
1768 384 2395 384 conicto
2758 384 3099 480 conicto
3440 576 3776 768 conicto
3776 192 lineto
3439 36 3084 -46 conicto
2729 -128 2365 -128 conicto
1451 -128 917 415 conicto
384 959 384 1885 conicto
384 2843 887 3405 conicto
1391 3968 2246 3968 conicto
3012 3968 3458 3469 conicto
3904 2970 3904 2112 conicto
3264 2304 moveto
3257 2830 2978 3143 conicto
2699 3456 2239 3456 conicto
1717 3456 1404 3153 conicto
1091 2850 1044 2301 conicto
3264 2304 lineto
end_ol grestore 
gsave 25.219007 26.492878 translate 0.035278 -0.035278 scale
start_ol
3136 1982 moveto
3136 2684 2858 3070 conicto
2580 3456 2078 3456 conicto
1580 3456 1302 3070 conicto
1024 2684 1024 1982 conicto
1024 1284 1302 898 conicto
1580 512 2078 512 conicto
2580 512 2858 898 conicto
3136 1284 3136 1982 conicto
3776 462 moveto
3776 -517 3344 -994 conicto
2913 -1472 2022 -1472 conicto
1692 -1472 1399 -1425 conicto
1107 -1378 832 -1280 conicto
832 -640 lineto
1106 -804 1372 -882 conicto
1639 -960 1916 -960 conicto
2528 -960 2832 -633 conicto
3136 -307 3136 352 conicto
3136 640 lineto
2944 318 2644 159 conicto
2344 0 1927 0 conicto
1233 0 808 543 conicto
384 1086 384 1982 conicto
384 2882 808 3425 conicto
1233 3968 1927 3968 conicto
2344 3968 2644 3809 conicto
2944 3650 3136 3328 conicto
3136 3840 lineto
3776 3840 lineto
3776 462 lineto
end_ol grestore 
gsave 25.803455 26.492878 translate 0.035278 -0.035278 scale
start_ol
768 896 moveto
1472 896 lineto
1472 0 lineto
768 0 lineto
768 896 lineto
end_ol grestore 
gsave 33.685000 19.155000 translate 0.035278 -0.035278 scale
start_ol
end_ol grestore 
gsave 33.977224 19.155000 translate 0.035278 -0.035278 scale
start_ol
end_ol grestore 
gsave 34.269448 19.155000 translate 0.035278 -0.035278 scale
start_ol
end_ol grestore 
gsave 34.561672 19.155000 translate 0.035278 -0.035278 scale
start_ol
2772 2744 moveto
3275 2637 3557 2299 conicto
3840 1962 3840 1466 conicto
3840 705 3325 288 conicto
2811 -128 1863 -128 conicto
1545 -128 1208 -64 conicto
871 0 512 128 conicto
512 768 lineto
794 610 1129 529 conicto
1465 448 1831 448 conicto
2468 448 2802 707 conicto
3136 966 3136 1461 conicto
3136 1917 2829 2174 conicto
2523 2432 1977 2432 conicto
1408 2432 lineto
1408 3008 lineto
2004 3008 lineto
2491 3008 2749 3211 conicto
3008 3414 3008 3796 conicto
3008 4188 2741 4398 conicto
2474 4608 1977 4608 conicto
1690 4608 1362 4545 conicto
1034 4483 640 4352 conicto
640 4992 lineto
1031 5088 1373 5136 conicto
1715 5184 2018 5184 conicto
2800 5184 3256 4827 conicto
3712 4471 3712 3863 conicto
3712 3440 3467 3148 conicto
3223 2857 2772 2744 conicto
end_ol grestore 
gsave 35.148617 19.155000 translate 0.035278 -0.035278 scale
start_ol
end_ol grestore 
gsave 35.440841 19.155000 translate 0.035278 -0.035278 scale
start_ol
640 5056 moveto
1696 5056 lineto
2974 1605 lineto
4259 5056 lineto
5312 5056 lineto
5312 0 lineto
4608 0 lineto
4608 4438 lineto
3316 960 lineto
2636 960 lineto
1344 4438 lineto
1344 0 lineto
640 0 lineto
640 5056 lineto
end_ol grestore 
gsave 36.235096 19.155000 translate 0.035278 -0.035278 scale
start_ol
640 5056 moveto
1344 5056 lineto
1344 0 lineto
640 0 lineto
640 5056 lineto
end_ol grestore 
gsave 36.507335 19.155000 translate 0.035278 -0.035278 scale
start_ol
1344 4480 moveto
1344 2560 lineto
2203 2560 lineto
2680 2560 2940 2810 conicto
3200 3060 3200 3522 conicto
3200 3980 2940 4230 conicto
2680 4480 2203 4480 conicto
1344 4480 lineto
640 5056 moveto
2203 5056 lineto
3043 5056 3473 4665 conicto
3904 4275 3904 3522 conicto
3904 2761 3473 2372 conicto
3043 1984 2203 1984 conicto
1344 1984 lineto
1344 0 lineto
640 0 lineto
640 5056 lineto
end_ol grestore 
gsave 37.064308 19.155000 translate 0.035278 -0.035278 scale
start_ol
3712 4928 moveto
3712 4288 lineto
3324 4449 2979 4528 conicto
2635 4608 2314 4608 conicto
1757 4608 1454 4393 conicto
1152 4178 1152 3781 conicto
1152 3449 1355 3279 conicto
1559 3109 2126 3005 conicto
2542 2918 lineto
3306 2770 3669 2395 conicto
4032 2021 4032 1393 conicto
4032 645 3533 258 conicto
3034 -128 2070 -128 conicto
1707 -128 1297 -47 conicto
887 34 448 192 conicto
448 896 lineto
873 674 1280 561 conicto
1688 448 2081 448 conicto
2679 448 3003 680 conicto
3328 913 3328 1343 conicto
3328 1719 3097 1931 conicto
2867 2143 2341 2249 conicto
1921 2332 lineto
1143 2486 795 2814 conicto
448 3142 448 3727 conicto
448 4404 922 4794 conicto
1396 5184 2228 5184 conicto
2584 5184 2954 5120 conicto
3325 5056 3712 4928 conicto
end_ol grestore 
gsave 33.685000 20.307878 translate 0.035278 -0.035278 scale
start_ol
2304 -1024 moveto
1984 -1024 lineto
1981 0 lineto
1630 7 1280 85 conicto
930 163 576 320 conicto
576 960 lineto
916 734 1265 619 conicto
1614 505 1984 501 conicto
1984 2061 lineto
1247 2181 911 2469 conicto
576 2757 576 3259 conicto
576 3804 939 4118 conicto
1303 4433 1984 4480 conicto
1984 5312 lineto
2304 5312 lineto
2304 4491 lineto
2610 4478 2896 4427 conicto
3183 4376 3456 4288 conicto
3456 3712 lineto
3183 3829 2895 3893 conicto
2607 3957 2304 3968 conicto
2304 2581 lineto
3062 2461 3419 2152 conicto
3776 1843 3776 1308 conicto
3776 728 3397 393 conicto
3018 58 2304 7 conicto
2304 -1024 lineto
1984 2642 moveto
1984 3971 lineto
1610 3929 1413 3757 conicto
1216 3585 1216 3300 conicto
1216 3021 1398 2865 conicto
1581 2710 1984 2642 conicto
2304 1993 moveto
2304 512 lineto
2717 570 2926 758 conicto
3136 946 3136 1254 conicto
3136 1555 2936 1733 conicto
2736 1911 2304 1993 conicto
end_ol grestore 
gsave 34.271945 20.307878 translate 0.035278 -0.035278 scale
start_ol
1355 576 moveto
3739 576 lineto
3739 0 lineto
512 0 lineto
512 576 lineto
901 983 1573 1668 conicto
2246 2353 2419 2551 conicto
2747 2923 2877 3181 conicto
3008 3439 3008 3689 conicto
3008 4095 2728 4351 conicto
2449 4608 2001 4608 conicto
1683 4608 1330 4497 conicto
977 4386 576 4160 conicto
576 4864 lineto
987 5022 1344 5103 conicto
1702 5184 1999 5184 conicto
2781 5184 3246 4788 conicto
3712 4392 3712 3730 conicto
3712 3416 3595 3134 conicto
3479 2853 3171 2470 conicto
3086 2371 2633 1898 conicto
2180 1426 1355 576 conicto
end_ol grestore 
gsave 34.858890 20.307878 translate 0.035278 -0.035278 scale
start_ol
end_ol grestore 
gsave 35.151114 20.307878 translate 0.035278 -0.035278 scale
start_ol
1280 512 moveto
1280 -1472 lineto
640 -1472 lineto
640 3840 lineto
1280 3840 lineto
1280 3328 lineto
1475 3653 1773 3810 conicto
2072 3968 2486 3968 conicto
3173 3968 3602 3404 conicto
4032 2840 4032 1920 conicto
4032 1000 3602 436 conicto
3173 -128 2486 -128 conicto
2072 -128 1773 29 conicto
1475 187 1280 512 conicto
3392 1920 moveto
3392 2638 3110 3047 conicto
2829 3456 2336 3456 conicto
1843 3456 1561 3047 conicto
1280 2638 1280 1920 conicto
1280 1202 1561 793 conicto
1843 384 2336 384 conicto
2829 384 3110 793 conicto
3392 1202 3392 1920 conicto
end_ol grestore 
gsave 35.735562 20.307878 translate 0.035278 -0.035278 scale
start_ol
1785 5056 moveto
2368 5056 lineto
583 -704 lineto
0 -704 lineto
1785 5056 lineto
end_ol grestore 
gsave 36.045265 20.307878 translate 0.035278 -0.035278 scale
start_ol
end_ol grestore 
gsave 36.337489 20.307878 translate 0.035278 -0.035278 scale
start_ol
3072 3776 moveto
3072 3200 lineto
2810 3328 2528 3392 conicto
2246 3456 1944 3456 conicto
1484 3456 1254 3310 conicto
1024 3164 1024 2871 conicto
1024 2649 1187 2522 conicto
1350 2395 1842 2280 conicto
2052 2230 lineto
2710 2082 2987 1813 conicto
3264 1544 3264 1062 conicto
3264 513 2848 192 conicto
2433 -128 1706 -128 conicto
1403 -128 1075 -64 conicto
747 0 384 128 conicto
384 768 lineto
727 576 1059 480 conicto
1391 384 1717 384 conicto
2154 384 2389 543 conicto
2624 703 2624 993 conicto
2624 1262 2456 1405 conicto
2288 1548 1719 1681 conicto
1506 1734 lineto
912 1859 648 2117 conicto
384 2375 384 2825 conicto
384 3372 766 3670 conicto
1148 3968 1851 3968 conicto
2199 3968 2506 3920 conicto
2813 3872 3072 3776 conicto
end_ol grestore 
gsave 36.817038 20.307878 translate 0.035278 -0.035278 scale
start_ol
3904 2112 moveto
3904 1792 lineto
1024 1792 lineto
1065 1104 1416 744 conicto
1768 384 2395 384 conicto
2758 384 3099 480 conicto
3440 576 3776 768 conicto
3776 192 lineto
3439 36 3084 -46 conicto
2729 -128 2365 -128 conicto
1451 -128 917 415 conicto
384 959 384 1885 conicto
384 2843 887 3405 conicto
1391 3968 2246 3968 conicto
3012 3968 3458 3469 conicto
3904 2970 3904 2112 conicto
3264 2304 moveto
3257 2830 2978 3143 conicto
2699 3456 2239 3456 conicto
1717 3456 1404 3153 conicto
1091 2850 1044 2301 conicto
3264 2304 lineto
end_ol grestore 
gsave 37.384007 20.307878 translate 0.035278 -0.035278 scale
start_ol
3136 1982 moveto
3136 2684 2858 3070 conicto
2580 3456 2078 3456 conicto
1580 3456 1302 3070 conicto
1024 2684 1024 1982 conicto
1024 1284 1302 898 conicto
1580 512 2078 512 conicto
2580 512 2858 898 conicto
3136 1284 3136 1982 conicto
3776 462 moveto
3776 -517 3344 -994 conicto
2913 -1472 2022 -1472 conicto
1692 -1472 1399 -1425 conicto
1107 -1378 832 -1280 conicto
832 -640 lineto
1106 -804 1372 -882 conicto
1639 -960 1916 -960 conicto
2528 -960 2832 -633 conicto
3136 -307 3136 352 conicto
3136 640 lineto
2944 318 2644 159 conicto
2344 0 1927 0 conicto
1233 0 808 543 conicto
384 1086 384 1982 conicto
384 2882 808 3425 conicto
1233 3968 1927 3968 conicto
2344 3968 2644 3809 conicto
2944 3650 3136 3328 conicto
3136 3840 lineto
3776 3840 lineto
3776 462 lineto
end_ol grestore 
gsave 37.968455 20.307878 translate 0.035278 -0.035278 scale
start_ol
768 896 moveto
1472 896 lineto
1472 0 lineto
768 0 lineto
768 896 lineto
end_ol grestore 
gsave 6.035000 -0.235000 translate 0.035278 -0.035278 scale
start_ol
832 6656 moveto
1728 6656 lineto
1728 704 lineto
4928 704 lineto
4928 0 lineto
832 0 lineto
832 6656 lineto
end_ol grestore 
gsave 6.706868 -0.235000 translate 0.035278 -0.035278 scale
start_ol
832 4992 moveto
1664 4992 lineto
1664 0 lineto
832 0 lineto
832 4992 lineto
832 6912 moveto
1664 6912 lineto
1664 5888 lineto
832 5888 lineto
832 6912 lineto
end_ol grestore 
gsave 7.041549 -0.235000 translate 0.035278 -0.035278 scale
start_ol
4992 3018 moveto
4992 0 lineto
4160 0 lineto
4160 2992 lineto
4160 3706 3888 4061 conicto
3616 4416 3072 4416 conicto
2419 4416 2041 3989 conicto
1664 3563 1664 2826 conicto
1664 0 lineto
832 0 lineto
832 4992 lineto
1664 4992 lineto
1664 4224 lineto
1956 4674 2351 4897 conicto
2747 5120 3264 5120 conicto
4117 5120 4554 4586 conicto
4992 4053 4992 3018 conicto
end_ol grestore 
gsave 7.803334 -0.235000 translate 0.035278 -0.035278 scale
start_ol
832 6912 moveto
1664 6912 lineto
1664 2839 lineto
4084 4992 lineto
5120 4992 lineto
2502 2656 lineto
5248 0 lineto
4185 0 lineto
1664 2438 lineto
1664 0 lineto
832 0 lineto
832 6912 lineto
end_ol grestore 
gsave 8.500181 -0.235000 translate 0.035278 -0.035278 scale
start_ol
1088 1152 moveto
1984 1152 lineto
1984 0 lineto
1088 0 lineto
1088 1152 lineto
1088 4672 moveto
1984 4672 lineto
1984 3520 lineto
1088 3520 lineto
1088 4672 lineto
end_ol grestore 
gsave 8.904795 -0.235000 translate 0.035278 -0.035278 scale
start_ol
end_ol grestore 
gsave 9.286936 -0.235000 translate 0.035278 -0.035278 scale
start_ol
1152 704 moveto
2624 704 lineto
2624 5952 lineto
1024 5632 lineto
1024 6336 lineto
2618 6656 lineto
3520 6656 lineto
3520 704 lineto
4992 704 lineto
4992 0 lineto
1152 0 lineto
1152 704 lineto
end_ol grestore 
gsave 10.053715 -0.235000 translate 0.035278 -0.035278 scale
start_ol
5376 923 moveto
5376 2752 lineto
3904 2752 lineto
3904 3456 lineto
6272 3456 lineto
6272 585 lineto
5755 233 5132 52 conicto
4510 -128 3803 -128 conicto
2257 -128 1384 784 conicto
512 1697 512 3326 conicto
512 4959 1381 5871 conicto
2251 6784 3791 6784 conicto
4434 6784 5012 6621 conicto
5591 6459 6080 6144 conicto
6080 5184 lineto
5589 5630 5037 5855 conicto
4486 6080 3877 6080 conicto
2677 6080 2074 5388 conicto
1472 4696 1472 3326 conicto
1472 1960 2074 1268 conicto
2677 576 3877 576 conicto
4346 576 4714 660 conicto
5082 745 5376 923 conicto
end_ol grestore 
gsave 10.987835 -0.235000 translate 0.035278 -0.035278 scale
start_ol
1728 3200 moveto
1728 704 lineto
3164 704 lineto
3867 704 4205 1012 conicto
4544 1320 4544 1954 conicto
4544 2593 4205 2896 conicto
3867 3200 3164 3200 conicto
1728 3200 lineto
1728 5952 moveto
1728 3904 lineto
3053 3904 lineto
3709 3904 4030 4156 conicto
4352 4409 4352 4928 conicto
4352 5442 4030 5697 conicto
3709 5952 3053 5952 conicto
1728 5952 lineto
832 6656 moveto
3120 6656 lineto
4142 6656 4695 6229 conicto
5248 5802 5248 5014 conicto
5248 4405 4965 4044 conicto
4683 3684 4135 3595 conicto
4785 3452 5144 2999 conicto
5504 2546 5504 1867 conicto
5504 974 4907 487 conicto
4310 0 3208 0 conicto
832 0 lineto
832 6656 lineto
end_ol grestore 
gsave 11.814558 -0.235000 translate 0.035278 -0.035278 scale
start_ol
end_ol grestore 
gsave 12.196699 -0.235000 translate 0.035278 -0.035278 scale
start_ol
1664 768 moveto
1664 -1920 lineto
832 -1920 lineto
832 4992 lineto
1664 4992 lineto
1664 4224 lineto
1918 4679 2306 4899 conicto
2695 5120 3234 5120 conicto
4129 5120 4688 4397 conicto
5248 3674 5248 2496 conicto
5248 1318 4688 595 conicto
4129 -128 3234 -128 conicto
2695 -128 2306 92 conicto
1918 313 1664 768 conicto
4352 2496 moveto
4352 3394 3993 3905 conicto
3635 4416 3008 4416 conicto
2381 4416 2022 3905 conicto
1664 3394 1664 2496 conicto
1664 1598 2022 1087 conicto
2381 576 3008 576 conicto
3635 576 3993 1087 conicto
4352 1598 4352 2496 conicto
end_ol grestore 
gsave 12.960981 -0.235000 translate 0.035278 -0.035278 scale
start_ol
2315 6656 moveto
3072 6656 lineto
757 -832 lineto
0 -832 lineto
2315 6656 lineto
end_ol grestore 
gsave 13.365595 -0.235000 translate 0.035278 -0.035278 scale
start_ol
end_ol grestore 
gsave 13.747736 -0.235000 translate 0.035278 -0.035278 scale
start_ol
4032 4800 moveto
4032 4032 lineto
3688 4224 3318 4320 conicto
2948 4416 2551 4416 conicto
1948 4416 1646 4227 conicto
1344 4038 1344 3660 conicto
1344 3371 1559 3207 conicto
1774 3043 2424 2894 conicto
2701 2832 lineto
3563 2646 3925 2308 conicto
4288 1971 4288 1365 conicto
4288 676 3734 274 conicto
3180 -128 2211 -128 conicto
1807 -128 1369 -48 conicto
932 32 448 192 conicto
448 1024 lineto
908 800 1354 688 conicto
1801 576 2238 576 conicto
2825 576 3140 770 conicto
3456 964 3456 1317 conicto
3456 1643 3234 1817 conicto
3013 1992 2262 2153 conicto
1981 2219 lineto
1203 2381 857 2716 conicto
512 3051 512 3636 conicto
512 4346 1012 4733 conicto
1513 5120 2433 5120 conicto
2888 5120 3290 5040 conicto
3693 4960 4032 4800 conicto
end_ol grestore 
gsave 14.374650 -0.235000 translate 0.035278 -0.035278 scale
start_ol
5120 2704 moveto
5120 2304 lineto
1408 2304 lineto
1461 1460 1910 1018 conicto
2359 576 3161 576 conicto
3626 576 4062 688 conicto
4498 800 4928 1024 conicto
4928 256 lineto
4489 68 4027 -30 conicto
3565 -128 3091 -128 conicto
1901 -128 1206 568 conicto
512 1264 512 2451 conicto
512 3679 1171 4399 conicto
1830 5120 2949 5120 conicto
3952 5120 4536 4470 conicto
5120 3820 5120 2704 conicto
4288 2944 moveto
4279 3616 3920 4016 conicto
3561 4416 2970 4416 conicto
2300 4416 1897 4029 conicto
1495 3642 1434 2939 conicto
4288 2944 lineto
end_ol grestore 
gsave 15.116451 -0.235000 translate 0.035278 -0.035278 scale
start_ol
4096 2558 moveto
4096 3443 3742 3929 conicto
3389 4416 2750 4416 conicto
2115 4416 1761 3929 conicto
1408 3443 1408 2558 conicto
1408 1677 1761 1190 conicto
2115 704 2750 704 conicto
3389 704 3742 1190 conicto
4096 1677 4096 2558 conicto
4928 635 moveto
4928 -658 4365 -1289 conicto
3802 -1920 2640 -1920 conicto
2210 -1920 1828 -1841 conicto
1447 -1763 1088 -1600 conicto
1088 -832 lineto
1445 -1028 1793 -1122 conicto
2142 -1216 2504 -1216 conicto
3302 -1216 3699 -793 conicto
4096 -370 4096 485 conicto
4096 896 lineto
3846 446 3455 223 conicto
3065 0 2521 0 conicto
1617 0 1064 701 conicto
512 1402 512 2558 conicto
512 3718 1064 4419 conicto
1617 5120 2521 5120 conicto
3065 5120 3455 4897 conicto
3846 4674 4096 4224 conicto
4096 4992 lineto
4928 4992 lineto
4928 635 lineto
end_ol grestore 
gsave 15.880733 -0.235000 translate 0.035278 -0.035278 scale
start_ol
832 1971 moveto
832 4992 lineto
1664 4992 lineto
1664 2002 lineto
1664 1289 1935 932 conicto
2207 576 2750 576 conicto
3402 576 3781 1002 conicto
4160 1428 4160 2163 conicto
4160 4992 lineto
4992 4992 lineto
4992 0 lineto
4160 0 lineto
4160 768 lineto
3864 313 3473 92 conicto
3083 -128 2567 -128 conicto
1715 -128 1273 407 conicto
832 942 832 1971 conicto
2885 5120 moveto
2885 5120 lineto
end_ol grestore 
gsave 16.642518 -0.235000 translate 0.035278 -0.035278 scale
start_ol
4992 3018 moveto
4992 0 lineto
4160 0 lineto
4160 2992 lineto
4160 3706 3888 4061 conicto
3616 4416 3072 4416 conicto
2419 4416 2041 3989 conicto
1664 3563 1664 2826 conicto
1664 0 lineto
832 0 lineto
832 4992 lineto
1664 4992 lineto
1664 4224 lineto
1956 4674 2351 4897 conicto
2747 5120 3264 5120 conicto
4117 5120 4554 4586 conicto
4992 4053 4992 3018 conicto
end_ol grestore 
gsave 17.404303 -0.235000 translate 0.035278 -0.035278 scale
start_ol
4096 4224 moveto
4096 6912 lineto
4928 6912 lineto
4928 0 lineto
4096 0 lineto
4096 768 lineto
3842 313 3453 92 conicto
3065 -128 2521 -128 conicto
1631 -128 1071 595 conicto
512 1318 512 2496 conicto
512 3674 1071 4397 conicto
1631 5120 2521 5120 conicto
3065 5120 3453 4899 conicto
3842 4679 4096 4224 conicto
1408 2496 moveto
1408 1598 1766 1087 conicto
2124 576 2750 576 conicto
3376 576 3736 1087 conicto
4096 1598 4096 2496 conicto
4096 3394 3736 3905 conicto
3376 4416 2750 4416 conicto
2124 4416 1766 3905 conicto
1408 3394 1408 2496 conicto
end_ol grestore 
gsave 18.168585 -0.235000 translate 0.035278 -0.035278 scale
start_ol
2786 4416 moveto
2149 4416 1778 3902 conicto
1408 3389 1408 2496 conicto
1408 1603 1776 1089 conicto
2144 576 2786 576 conicto
3419 576 3789 1091 conicto
4160 1607 4160 2496 conicto
4160 3380 3789 3898 conicto
3419 4416 2786 4416 conicto
2784 5120 moveto
3845 5120 4450 4424 conicto
5056 3728 5056 2496 conicto
5056 1269 4450 570 conicto
3845 -128 2784 -128 conicto
1719 -128 1115 570 conicto
512 1269 512 2496 conicto
512 3728 1115 4424 conicto
1719 5120 2784 5120 conicto
end_ol grestore 
gsave 5.935000 1.665000 translate 0.035278 -0.035278 scale
start_ol
1728 5952 moveto
1728 3392 lineto
2853 3392 lineto
3478 3392 3819 3725 conicto
4160 4058 4160 4674 conicto
4160 5286 3819 5619 conicto
3478 5952 2853 5952 conicto
1728 5952 lineto
832 6656 moveto
2853 6656 lineto
3973 6656 4546 6151 conicto
5120 5647 5120 4674 conicto
5120 3692 4546 3190 conicto
3973 2688 2853 2688 conicto
1728 2688 lineto
1728 0 lineto
832 0 lineto
832 6656 lineto
end_ol grestore 
gsave 6.641834 1.665000 translate 0.035278 -0.035278 scale
start_ol
3712 4224 moveto
3577 4323 3418 4369 conicto
3260 4416 3068 4416 conicto
2390 4416 2027 3956 conicto
1664 3496 1664 2634 conicto
1664 0 lineto
832 0 lineto
832 4992 lineto
1664 4992 lineto
1664 4224 lineto
1916 4679 2320 4899 conicto
2725 5120 3303 5120 conicto
3386 5120 3486 5104 conicto
3586 5088 3708 5056 conicto
3712 4224 lineto
end_ol grestore 
gsave 7.108890 1.665000 translate 0.035278 -0.035278 scale
start_ol
5120 2704 moveto
5120 2304 lineto
1408 2304 lineto
1461 1460 1910 1018 conicto
2359 576 3161 576 conicto
3626 576 4062 688 conicto
4498 800 4928 1024 conicto
4928 256 lineto
4489 68 4027 -30 conicto
3565 -128 3091 -128 conicto
1901 -128 1206 568 conicto
512 1264 512 2451 conicto
512 3679 1171 4399 conicto
1830 5120 2949 5120 conicto
3952 5120 4536 4470 conicto
5120 3820 5120 2704 conicto
4288 2944 moveto
4279 3616 3920 4016 conicto
3561 4416 2970 4416 conicto
2300 4416 1897 4029 conicto
1495 3642 1434 2939 conicto
4288 2944 lineto
end_ol grestore 
gsave 7.850691 1.665000 translate 0.035278 -0.035278 scale
start_ol
4416 4800 moveto
4416 4032 lineto
4077 4224 3735 4320 conicto
3394 4416 3047 4416 conicto
2269 4416 1838 3911 conicto
1408 3407 1408 2496 conicto
1408 1585 1838 1080 conicto
2269 576 3047 576 conicto
3394 576 3735 672 conicto
4077 768 4416 960 conicto
4416 192 lineto
4077 32 3713 -48 conicto
3350 -128 2940 -128 conicto
1825 -128 1168 581 conicto
512 1291 512 2496 conicto
512 3719 1175 4419 conicto
1838 5120 2993 5120 conicto
3367 5120 3724 5040 conicto
4081 4960 4416 4800 conicto
3264 0 moveto
3522 -271 3649 -501 conicto
3776 -731 3776 -941 conicto
3776 -1330 3507 -1529 conicto
3238 -1728 2709 -1728 conicto
2503 -1728 2308 -1700 conicto
2113 -1672 1920 -1616 conicto
1920 -1024 lineto
2071 -1092 2235 -1122 conicto
2399 -1152 2608 -1152 conicto
2870 -1152 3003 -1050 conicto
3136 -949 3136 -754 conicto
3136 -627 3042 -442 conicto
2948 -258 2752 0 conicto
3264 0 lineto
end_ol grestore 
gsave 8.512571 1.665000 translate 0.035278 -0.035278 scale
start_ol
2786 4416 moveto
2149 4416 1778 3902 conicto
1408 3389 1408 2496 conicto
1408 1603 1776 1089 conicto
2144 576 2786 576 conicto
3419 576 3789 1091 conicto
4160 1607 4160 2496 conicto
4160 3380 3789 3898 conicto
3419 4416 2786 4416 conicto
2784 5120 moveto
3845 5120 4450 4424 conicto
5056 3728 5056 2496 conicto
5056 1269 4450 570 conicto
3845 -128 2784 -128 conicto
1719 -128 1115 570 conicto
512 1269 512 2496 conicto
512 3728 1115 4424 conicto
1719 5120 2784 5120 conicto
end_ol grestore 
gsave 9.249378 1.665000 translate 0.035278 -0.035278 scale
start_ol
1088 1152 moveto
1984 1152 lineto
1984 0 lineto
1088 0 lineto
1088 1152 lineto
1088 4672 moveto
1984 4672 lineto
1984 3520 lineto
1088 3520 lineto
1088 4672 lineto
end_ol grestore 
gsave 9.653992 1.665000 translate 0.035278 -0.035278 scale
start_ol
end_ol grestore 
gsave 10.036133 1.665000 translate 0.035278 -0.035278 scale
start_ol
3072 -1344 moveto
2624 -1344 lineto
2620 0 lineto
2158 8 1696 102 conicto
1234 196 768 384 conicto
768 1152 lineto
1217 893 1676 761 conicto
2136 630 2624 626 conicto
2624 2637 lineto
1652 2799 1210 3185 conicto
768 3572 768 4247 conicto
768 4980 1247 5402 conicto
1727 5825 2624 5888 conicto
2624 6912 lineto
3072 6912 lineto
3072 5901 lineto
3497 5884 3895 5816 conicto
4293 5749 4672 5632 conicto
4672 4864 lineto
4293 5039 3893 5135 conicto
3493 5231 3072 5248 conicto
3072 3338 lineto
4093 3183 4574 2783 conicto
5056 2383 5056 1691 conicto
5056 940 4545 507 conicto
4035 75 3072 8 conicto
3072 -1344 lineto
2624 3420 moveto
2624 5252 lineto
2125 5194 1862 4957 conicto
1600 4720 1600 4327 conicto
1600 3943 1843 3728 conicto
2086 3514 2624 3420 conicto
3072 2546 moveto
3072 640 lineto
3644 715 3934 957 conicto
4224 1199 4224 1595 conicto
4224 1983 3947 2211 conicto
3671 2440 3072 2546 conicto
end_ol grestore 
gsave 10.802912 1.665000 translate 0.035278 -0.035278 scale
start_ol
2878 6080 moveto
2177 6080 1824 5392 conicto
1472 4705 1472 3326 conicto
1472 1951 1824 1263 conicto
2177 576 2878 576 conicto
3583 576 3935 1263 conicto
4288 1951 4288 3326 conicto
4288 4705 3935 5392 conicto
3583 6080 2878 6080 conicto
2880 6784 moveto
4001 6784 4592 5898 conicto
5184 5012 5184 3326 conicto
5184 1644 4592 758 conicto
4001 -128 2880 -128 conicto
1759 -128 1167 758 conicto
576 1644 576 3326 conicto
576 5012 1167 5898 conicto
1759 6784 2880 6784 conicto
end_ol grestore 
gsave 11.569691 1.665000 translate 0.035278 -0.035278 scale
start_ol
960 1152 moveto
1920 1152 lineto
1920 0 lineto
960 0 lineto
960 1152 lineto
end_ol grestore 
gsave 11.951832 1.665000 translate 0.035278 -0.035278 scale
start_ol
1152 704 moveto
2624 704 lineto
2624 5952 lineto
1024 5632 lineto
1024 6336 lineto
2618 6656 lineto
3520 6656 lineto
3520 704 lineto
4992 704 lineto
4992 0 lineto
1152 0 lineto
1152 704 lineto
end_ol grestore 
gsave 12.718611 1.665000 translate 0.035278 -0.035278 scale
start_ol
2878 6080 moveto
2177 6080 1824 5392 conicto
1472 4705 1472 3326 conicto
1472 1951 1824 1263 conicto
2177 576 2878 576 conicto
3583 576 3935 1263 conicto
4288 1951 4288 3326 conicto
4288 4705 3935 5392 conicto
3583 6080 2878 6080 conicto
2880 6784 moveto
4001 6784 4592 5898 conicto
5184 5012 5184 3326 conicto
5184 1644 4592 758 conicto
4001 -128 2880 -128 conicto
1759 -128 1167 758 conicto
576 1644 576 3326 conicto
576 5012 1167 5898 conicto
1759 6784 2880 6784 conicto
end_ol grestore 
gsave 13.485390 1.665000 translate 0.035278 -0.035278 scale
start_ol
end_ol grestore 
gsave 13.867531 1.665000 translate 0.035278 -0.035278 scale
start_ol
1664 768 moveto
1664 -1920 lineto
832 -1920 lineto
832 4992 lineto
1664 4992 lineto
1664 4224 lineto
1918 4679 2306 4899 conicto
2695 5120 3234 5120 conicto
4129 5120 4688 4397 conicto
5248 3674 5248 2496 conicto
5248 1318 4688 595 conicto
4129 -128 3234 -128 conicto
2695 -128 2306 92 conicto
1918 313 1664 768 conicto
4352 2496 moveto
4352 3394 3993 3905 conicto
3635 4416 3008 4416 conicto
2381 4416 2022 3905 conicto
1664 3394 1664 2496 conicto
1664 1598 2022 1087 conicto
2381 576 3008 576 conicto
3635 576 3993 1087 conicto
4352 1598 4352 2496 conicto
end_ol grestore 
gsave 14.631813 1.665000 translate 0.035278 -0.035278 scale
start_ol
2315 6656 moveto
3072 6656 lineto
757 -832 lineto
0 -832 lineto
2315 6656 lineto
end_ol grestore 
gsave 15.036427 1.665000 translate 0.035278 -0.035278 scale
start_ol
end_ol grestore 
gsave 15.418568 1.665000 translate 0.035278 -0.035278 scale
start_ol
5376 923 moveto
5376 2752 lineto
3904 2752 lineto
3904 3456 lineto
6272 3456 lineto
6272 585 lineto
5755 233 5132 52 conicto
4510 -128 3803 -128 conicto
2257 -128 1384 784 conicto
512 1697 512 3326 conicto
512 4959 1381 5871 conicto
2251 6784 3791 6784 conicto
4434 6784 5012 6621 conicto
5591 6459 6080 6144 conicto
6080 5184 lineto
5589 5630 5037 5855 conicto
4486 6080 3877 6080 conicto
2677 6080 2074 5388 conicto
1472 4696 1472 3326 conicto
1472 1960 2074 1268 conicto
2677 576 3877 576 conicto
4346 576 4714 660 conicto
5082 745 5376 923 conicto
end_ol grestore 
gsave 16.352688 1.665000 translate 0.035278 -0.035278 scale
start_ol
1728 3200 moveto
1728 704 lineto
3164 704 lineto
3867 704 4205 1012 conicto
4544 1320 4544 1954 conicto
4544 2593 4205 2896 conicto
3867 3200 3164 3200 conicto
1728 3200 lineto
1728 5952 moveto
1728 3904 lineto
3053 3904 lineto
3709 3904 4030 4156 conicto
4352 4409 4352 4928 conicto
4352 5442 4030 5697 conicto
3709 5952 3053 5952 conicto
1728 5952 lineto
832 6656 moveto
3120 6656 lineto
4142 6656 4695 6229 conicto
5248 5802 5248 5014 conicto
5248 4405 4965 4044 conicto
4683 3684 4135 3595 conicto
4785 3452 5144 2999 conicto
5504 2546 5504 1867 conicto
5504 974 4907 487 conicto
4310 0 3208 0 conicto
832 0 lineto
832 6656 lineto
end_ol grestore 
showpage
